DEBUG 2018-10-25 11:57:48,538: 	 Executing command: 'submit'
DEBUG 2018-10-25 11:57:48,541: 	 Found CRAB cache file /afs/cern.ch/user/m/mwadud/.crab3
DEBUG 2018-10-25 11:57:48,551: 	 Checking credentials
DEBUG 2018-10-25 11:57:48,551: 	 Found proxy file /tmp/x509up_u91892
DEBUG 2018-10-25 11:57:48,551: 	 Getting proxy life time left
DEBUG 2018-10-25 11:57:49,558: 	 Executing : 
 command : voms-proxy-info -file /tmp/x509up_u91892 -timeleft
 output : 588653

 error: 
 retcode : 0
DEBUG 2018-10-25 11:57:50,569: 	 Executing : 
 command : voms-proxy-info -file /tmp/x509up_u91892 -actimeleft
 output : 588652

 error: 
 retcode : 0
DEBUG 2018-10-25 11:57:50,569: 	 Proxy valid for 163:30:53 hours
DEBUG 2018-10-25 11:57:50,570: 	 Will use CRAB Analysis plugin (i.e. will run an analysis job type).
DEBUG 2018-10-25 11:57:50,816: 	 Executing : 
 command : openssl x509 -in ~/.globus/usercert.pem -subject -noout
 output : subject= /DC=ch/DC=cern/OU=Organic Units/OU=Users/CN=mwadud/CN=793344/CN=Mohammad Abrar Wadud

 error: 
 retcode : 0
DEBUG 2018-10-25 11:57:50,817: 	 Checking credentials
DEBUG 2018-10-25 11:57:50,817: 	 Found proxy file /tmp/x509up_u91892
DEBUG 2018-10-25 11:57:50,817: 	 Getting proxy life time left
DEBUG 2018-10-25 11:57:51,632: 	 Executing : 
 command : voms-proxy-info -file /tmp/x509up_u91892 -timeleft
 output : 588651

 error: 
 retcode : 0
DEBUG 2018-10-25 11:57:52,644: 	 Executing : 
 command : voms-proxy-info -file /tmp/x509up_u91892 -actimeleft
 output : 588650

 error: 
 retcode : 0
DEBUG 2018-10-25 11:57:52,644: 	 Proxy valid for 163:30:51 hours
DEBUG 2018-10-25 11:57:53,684: 	 Executing : 
 command : env X509_USER_PROXY=/tmp/x509up_u91892 voms-proxy-info -fqan
 output : /cms/Role=NULL/Capability=NULL
/cms/uscms/Role=NULL/Capability=NULL

 error: 
 retcode : 0
DEBUG 2018-10-25 11:57:54,704: 	 Registering user credentials for server /DC=ch/DC=cern/OU=computers/CN=vocms(052|031|0118|0105|0109).cern.ch|/DC=ch/DC=cern/OU=computers/CN=crab-(preprod|prod)-tw(02|01).cern.ch
DEBUG 2018-10-25 11:57:54,820: 	 Executing : 
 command : openssl x509 -in ~/.globus/usercert.pem -subject -noout
 output : subject= /DC=ch/DC=cern/OU=Organic Units/OU=Users/CN=mwadud/CN=793344/CN=Mohammad Abrar Wadud

 error: 
 retcode : 0
DEBUG 2018-10-25 11:57:54,820: 	 Getting myproxy life time left for myproxy.cern.ch
DEBUG 2018-10-25 11:57:54,820: 	 Calculating hash of /DC=ch/DC=cern/OU=Organic Units/OU=Users/CN=mwadud/CN=793344/CN=Mohammad Abrar Wadud_cmsweb.cern.ch for credential name
DEBUG 2018-10-25 11:57:55,226: 	 Executing : 
 command : myproxy-info -l d7faec65772fb432ca96037f20977f98fa77c7ca -s myproxy.cern.ch
 output : username: d7faec65772fb432ca96037f20977f98fa77c7ca
owner: /DC=ch/DC=cern/OU=Organic Units/OU=Users/CN=mwadud/CN=793344/CN=Mohammad Abrar Wadud
  renewal policy: /DC=ch/DC=cern/OU=computers/CN=vocms(052|031|0118|0105|0109).cern.ch|/DC=ch/DC=cern/OU=computers/CN=crab-(preprod|prod)-tw(02|01).cern.ch
  trusted retrieval policy: /DC=ch/DC=cern/OU=computers/CN=vocms(052|031|0118|0105|0109).cern.ch|/DC=ch/DC=cern/OU=computers/CN=crab-(preprod|prod)-tw(02|01).cern.ch
  timeleft: 701:53:32  (29.2 days)

 error: 
 retcode : 0
DEBUG 2018-10-25 11:57:55,227: 	 Myproxy is valid: 2526812
DEBUG 2018-10-25 11:57:55,228: 	 Command use: submit
DEBUG 2018-10-25 11:57:55,228: 	 Options use: ['--config', <WMCore.Configuration.Configuration object at 0x7fadf214df90>]
DEBUG 2018-10-25 11:57:56,167: 	 CRABClient version: 3.3.1809
DEBUG 2018-10-25 11:57:56,167: 	 Instance is prod
DEBUG 2018-10-25 11:57:56,167: 	 Server base url is cmsweb.cern.ch
DEBUG 2018-10-25 11:57:56,167: 	 Command url /crabserver/prod/workflow
DEBUG 2018-10-25 11:57:56,167: 	 Started submission
DEBUG 2018-10-25 11:57:56,167: 	 Working on /afs/cern.ch/work/m/mwadud/private/naTGC/CMSSW_9_4_0_patch1/src/GeneratorInterface/SherpaInterface/crab_job/jobs/jjg/h3z0p0015_ptmin500_ptmax800/crab_h3z0p0015_ptmin500_ptmax800_jjg_MINIAODSIM_retry
DEBUG 2018-10-25 11:57:57,773: 	 Loading required information from the environment
DEBUG 2018-10-25 11:57:57,773: 	 Found CMSSW_9_4_0_patch1 for slc6_amd64_gcc630 with base /afs/cern.ch/work/m/mwadud/private/naTGC/CMSSW_9_4_0_patch1
DEBUG 2018-10-25 11:57:57,773: 	 Loading required information from the environment
DEBUG 2018-10-25 11:57:57,774: 	 Found CMSSW_9_4_0_patch1 for slc6_amd64_gcc630 with base /afs/cern.ch/work/m/mwadud/private/naTGC/CMSSW_9_4_0_patch1
DEBUG 2018-10-25 11:57:57,823: 	 UNIQUE NAME: tarUUID 856d29a2-4972-4e6f-87cf-058c6efc1a8e 
DEBUG 2018-10-25 11:57:57,824: 	 self.config: from WMCore.Configuration import Configuration
config = Configuration()
config.section_('General')
config.General.workArea = '/afs/cern.ch/work/m/mwadud/private/naTGC/CMSSW_9_4_0_patch1/src/GeneratorInterface/SherpaInterface/crab_job/jobs/jjg/h3z0p0015_ptmin500_ptmax800/'
config.General.transferLogs = True
config.General.requestName = 'h3z0p0015_ptmin500_ptmax800_jjg_MINIAODSIM_retry'
config.section_('JobType')
config.JobType.psetName = 'sherpa_h3z0p0015_ptmin500_ptmax800_step2_cff.py'
config.JobType.pluginName = 'Analysis'
config.JobType.inputFiles = ['/afs/cern.ch/work/m/mwadud/private/naTGC/CMSSW_9_4_0_patch1/src/GeneratorInterface/SherpaInterface/crab_job/jobs/jjg/h3z0p0015_ptmin500_ptmax800//sherpa_h3z0p0015_ptmin500_ptmax800_MASTER.md5', '/afs/cern.ch/work/m/mwadud/private/naTGC/CMSSW_9_4_0_patch1/src/GeneratorInterface/SherpaInterface/crab_job/jobs/jjg/h3z0p0015_ptmin500_ptmax800//sherpa_h3z0p0015_ptmin500_ptmax800_MASTER.tgz']
config.JobType.maxMemoryMB = 4000
config.JobType.sendExternalFolder = True
config.section_('Data')
config.Data.inputDataset = '/aNTGC_h3z0p0015_ptmin500_ptmax800_jjg_24Oct2018/mwadud-aNTGC_h3z0p0015_ptmin500_ptmax800_jjg_24Oct2018-68670a213ab88c5c8700933d167e52cc/USER'
config.Data.outputDatasetTag = 'aNTGC_h3z0p0015_ptmin500_ptmax800_jjg_MINIAODSIM_retry_24Oct2018'
config.Data.publication = True
config.Data.unitsPerJob = 200
config.Data.ignoreLocality = True
config.Data.inputDBS = 'phys03'
config.Data.splitting = 'EventAwareLumiBased'
config.Data.allowNonValidInputDataset = True
config.Data.outLFNDirBase = '/store/user/mwadud/aNTGC/crab/'
config.Data.totalUnits = 10000
config.section_('Site')
config.Site.blacklist = ['T2_US_Vanderbilt']
config.Site.whitelist = ['T2_US*']
config.Site.storageSite = 'T3_US_FNALLPC'
config.section_('User')
config.section_('Debug')

DEBUG 2018-10-25 11:57:57,824: 	 self.config.JobType.psetName: sherpa_h3z0p0015_ptmin500_ptmax800_step2_cff.py
INFO 2018-10-25 11:57:57,824: 	 Importing CMSSW configuration sherpa_h3z0p0015_ptmin500_ptmax800_step2_cff.py
INFO 2018-10-25 11:58:20,083: 	 Finished importing CMSSW configuration sherpa_h3z0p0015_ptmin500_ptmax800_step2_cff.py
DEBUG 2018-10-25 11:58:20,084: 	 Writing CMSSW configuration to /afs/cern.ch/work/m/mwadud/private/naTGC/CMSSW_9_4_0_patch1/src/GeneratorInterface/SherpaInterface/crab_job/jobs/jjg/h3z0p0015_ptmin500_ptmax800/crab_h3z0p0015_ptmin500_ptmax800_jjg_MINIAODSIM_retry/inputs/PSet.py
DEBUG 2018-10-25 11:58:24,853: 	 The following EDM output files will be collected: ['sherpa_h3z0p0015_ptmin500_ptmax800_MASTER_cff_py_MINIAODSIM.root']
DEBUG 2018-10-25 11:58:24,853: 	 The following TFile output files will be collected: []
DEBUG 2018-10-25 11:58:24,853: 	 The following user output files will be collected: []
DEBUG 2018-10-25 11:58:24,853: 	 Loading required information from the environment
DEBUG 2018-10-25 11:58:24,853: 	 Found CMSSW_9_4_0_patch1 for slc6_amd64_gcc630 with base /afs/cern.ch/work/m/mwadud/private/naTGC/CMSSW_9_4_0_patch1
DEBUG 2018-10-25 11:58:24,853: 	 Making tarball in /afs/cern.ch/work/m/mwadud/private/naTGC/CMSSW_9_4_0_patch1/src/GeneratorInterface/SherpaInterface/crab_job/jobs/jjg/h3z0p0015_ptmin500_ptmax800/crab_h3z0p0015_ptmin500_ptmax800_jjg_MINIAODSIM_retry/inputs/856d29a2-4972-4e6f-87cf-058c6efc1a8edefault.tgz
DEBUG 2018-10-25 11:58:24,927: 	 Checking directory /afs/cern.ch/work/m/mwadud/private/naTGC/CMSSW_9_4_0_patch1/lib
DEBUG 2018-10-25 11:58:24,927: 	 Adding directory /afs/cern.ch/work/m/mwadud/private/naTGC/CMSSW_9_4_0_patch1/lib to tarball
DEBUG 2018-10-25 11:58:26,022: 	 Checking directory /afs/cern.ch/work/m/mwadud/private/naTGC/CMSSW_9_4_0_patch1/biglib
DEBUG 2018-10-25 11:58:26,022: 	 Adding directory /afs/cern.ch/work/m/mwadud/private/naTGC/CMSSW_9_4_0_patch1/biglib to tarball
DEBUG 2018-10-25 11:58:26,025: 	 Checking directory /afs/cern.ch/work/m/mwadud/private/naTGC/CMSSW_9_4_0_patch1/module
DEBUG 2018-10-25 11:58:26,026: 	 Checking directory /afs/cern.ch/work/m/mwadud/private/naTGC/CMSSW_9_4_0_patch1/external
DEBUG 2018-10-25 11:58:26,026: 	 Adding directory /afs/cern.ch/work/m/mwadud/private/naTGC/CMSSW_9_4_0_patch1/external to tarball
DEBUG 2018-10-25 11:58:29,811: 	 Adding data directory /afs/cern.ch/work/m/mwadud/private/naTGC/CMSSW_9_4_0_patch1/src/Configuration/Generator/data to tarball
DEBUG 2018-10-25 11:58:29,952: 	 Adding data directory /afs/cern.ch/work/m/mwadud/private/naTGC/CMSSW_9_4_0_patch1/src/GeneratorInterface/SherpaInterface/data to tarball
DEBUG 2018-10-25 11:58:29,971: 	 Adding data directory /afs/cern.ch/work/m/mwadud/private/naTGC/CMSSW_9_4_0_patch1/src/GeneratorInterface/SherpaInterface/interface to tarball
DEBUG 2018-10-25 11:58:35,278: 	 Adding data directory /afs/cern.ch/work/m/mwadud/private/naTGC/CMSSW_9_4_0_patch1/src/PhysicsTools/TagAndProbe/interface to tarball
DEBUG 2018-10-25 11:58:35,297: 	 Adding data directory /afs/cern.ch/work/m/mwadud/private/naTGC/CMSSW_9_4_0_patch1/src/RecoEgamma/ElectronIdentification/data to tarball
DEBUG 2018-10-25 11:58:35,308: 	 Adding data directory /afs/cern.ch/work/m/mwadud/private/naTGC/CMSSW_9_4_0_patch1/src/RecoEgamma/ElectronIdentification/interface to tarball
DEBUG 2018-10-25 11:58:35,342: 	 Adding data directory /afs/cern.ch/work/m/mwadud/private/naTGC/CMSSW_9_4_0_patch1/src/RecoEgamma/PhotonIdentification/data to tarball
DEBUG 2018-10-25 11:58:35,357: 	 Adding data directory /afs/cern.ch/work/m/mwadud/private/naTGC/CMSSW_9_4_0_patch1/src/RecoEgamma/PhotonIdentification/interface to tarball
DEBUG 2018-10-25 11:58:35,376: 	 Adding file /afs/cern.ch/work/m/mwadud/private/naTGC/CMSSW_9_4_0_patch1/src/GeneratorInterface/SherpaInterface/crab_job/jobs/jjg/h3z0p0015_ptmin500_ptmax800//sherpa_h3z0p0015_ptmin500_ptmax800_MASTER.md5 to tarball
DEBUG 2018-10-25 11:58:35,392: 	 Adding file /afs/cern.ch/work/m/mwadud/private/naTGC/CMSSW_9_4_0_patch1/src/GeneratorInterface/SherpaInterface/crab_job/jobs/jjg/h3z0p0015_ptmin500_ptmax800//sherpa_h3z0p0015_ptmin500_ptmax800_MASTER.tgz to tarball
DEBUG 2018-10-25 11:58:36,408: 	 Uploading archive /afs/cern.ch/work/m/mwadud/private/naTGC/CMSSW_9_4_0_patch1/src/GeneratorInterface/SherpaInterface/crab_job/jobs/jjg/h3z0p0015_ptmin500_ptmax800/crab_h3z0p0015_ptmin500_ptmax800_jjg_MINIAODSIM_retry/inputs/856d29a2-4972-4e6f-87cf-058c6efc1a8edefault.tgz (7.606445.1 MB) to the CRAB cache. Using URI https://cmsweb.cern.ch/crabcache
DEBUG 2018-10-25 11:58:39,572: 	 Loading required information from the environment
DEBUG 2018-10-25 11:58:39,573: 	 Found CMSSW_9_4_0_patch1 for slc6_amd64_gcc630 with base /afs/cern.ch/work/m/mwadud/private/naTGC/CMSSW_9_4_0_patch1
DEBUG 2018-10-25 11:58:39,573: 	 Making tarball in /afs/cern.ch/work/m/mwadud/private/naTGC/CMSSW_9_4_0_patch1/src/GeneratorInterface/SherpaInterface/crab_job/jobs/jjg/h3z0p0015_ptmin500_ptmax800/crab_h3z0p0015_ptmin500_ptmax800_jjg_MINIAODSIM_retry/inputs/debugFiles.tgz
DEBUG 2018-10-25 11:58:39,606: 	 Uploading archive /afs/cern.ch/work/m/mwadud/private/naTGC/CMSSW_9_4_0_patch1/src/GeneratorInterface/SherpaInterface/crab_job/jobs/jjg/h3z0p0015_ptmin500_ptmax800/crab_h3z0p0015_ptmin500_ptmax800_jjg_MINIAODSIM_retry/inputs/debugFiles.tgz (3 KB) to the CRAB cache. Using URI https://cmsweb.cern.ch/crabcache
DEBUG 2018-10-25 11:58:40,526: 	 Result uploading input files: b7e82b8f574747d8debea7692ab862bd8e7cf0ea6dd2579cc81dc81d74dec351.tar.gz 
INFO 2018-10-25 11:58:40,527: 	 Sending the request to the server
DEBUG 2018-10-25 11:58:40,527: 	 Submitting {'maxjobruntime': 1250, 'extrajdl': [], 'ignorelocality': 1, 'savelogsflag': 1, 'useparent': 0, 'asyncdest': 'T3_US_FNALLPC', 'algoargs': 200, 'cachefilename': 'b7e82b8f574747d8debea7692ab862bd8e7cf0ea6dd2579cc81dc81d74dec351.tar.gz', 'numcores': 1, 'addoutputfiles': [], 'generator': 'pythia', 'maxmemory': 4000, 'publishdbsurl': 'https://cmsweb.cern.ch/dbs/prod/phys03/DBSWriter', 'priority': 10, 'jobsw': 'CMSSW_9_4_0_patch1', 'edmoutfiles': ['sherpa_h3z0p0015_ptmin500_ptmax800_MASTER_cff_py_MINIAODSIM.root'], 'userfiles': [], 'primarydataset': '', 'inputdata': '/aNTGC_h3z0p0015_ptmin500_ptmax800_jjg_24Oct2018/mwadud-aNTGC_h3z0p0015_ptmin500_ptmax800_jjg_24Oct2018-68670a213ab88c5c8700933d167e52cc/USER', 'lfn': '/store/user/mwadud/aNTGC/crab/', 'dryrun': 0, 'workflow': 'crab_h3z0p0015_ptmin500_ptmax800_jjg_MINIAODSIM_retry', 'sitewhitelist': ['T2_US*'], 'nonprodsw': 0, 'tfileoutfiles': [], 'oneEventMode': 0, 'debugfilename': '0a8760d500f5555872af5804ca49887df80d628283b264696ec80dd408b9ebec.tar.gz', 'cacheurl': u'https://cmsweb.cern.ch/crabcache', 'saveoutput': 1, 'publication': 1, 'jobarch': 'slc6_amd64_gcc630', 'totalunits': 10000, 'splitalgo': 'EventAwareLumiBased', 'ignoreglobalblacklist': 0, 'nonvaliddata': 1, 'dbsurl': 'https://cmsweb.cern.ch/dbs/prod/phys03/DBSReader', 'publishgroupname': 0, 'jobtype': 'Analysis', 'siteblacklist': ['T2_US_Vanderbilt'], 'publishname2': 'aNTGC_h3z0p0015_ptmin500_ptmax800_jjg_MINIAODSIM_retry_24Oct2018'} 
DEBUG 2018-10-25 11:58:40,527: 	 Encoded submit request: maxjobruntime=1250&ignorelocality=1&savelogsflag=1&useparent=0&asyncdest=T3_US_FNALLPC&algoargs=200&cachefilename=b7e82b8f574747d8debea7692ab862bd8e7cf0ea6dd2579cc81dc81d74dec351.tar.gz&numcores=1&generator=pythia&maxmemory=4000&publishdbsurl=https%3A%2F%2Fcmsweb.cern.ch%2Fdbs%2Fprod%2Fphys03%2FDBSWriter&priority=10&jobsw=CMSSW_9_4_0_patch1&primarydataset=&inputdata=%2FaNTGC_h3z0p0015_ptmin500_ptmax800_jjg_24Oct2018%2Fmwadud-aNTGC_h3z0p0015_ptmin500_ptmax800_jjg_24Oct2018-68670a213ab88c5c8700933d167e52cc%2FUSER&lfn=%2Fstore%2Fuser%2Fmwadud%2FaNTGC%2Fcrab%2F&dryrun=0&workflow=crab_h3z0p0015_ptmin500_ptmax800_jjg_MINIAODSIM_retry&nonprodsw=0&oneEventMode=0&debugfilename=0a8760d500f5555872af5804ca49887df80d628283b264696ec80dd408b9ebec.tar.gz&cacheurl=https%3A%2F%2Fcmsweb.cern.ch%2Fcrabcache&saveoutput=1&publication=1&jobarch=slc6_amd64_gcc630&totalunits=10000&splitalgo=EventAwareLumiBased&ignoreglobalblacklist=0&nonvaliddata=1&dbsurl=https%3A%2F%2Fcmsweb.cern.ch%2Fdbs%2Fprod%2Fphys03%2FDBSReader&publishgroupname=0&jobtype=Analysis&publishname2=aNTGC_h3z0p0015_ptmin500_ptmax800_jjg_MINIAODSIM_retry_24Oct2018&sitewhitelist=T2_US%2A&siteblacklist=T2_US_Vanderbilt&edmoutfiles=sherpa_h3z0p0015_ptmin500_ptmax800_MASTER_cff_py_MINIAODSIM.root
DEBUG 2018-10-25 11:58:41,741: 	 Result: {u'result': [{u'RequestName': u'181025_095841:mwadud_crab_h3z0p0015_ptmin500_ptmax800_jjg_MINIAODSIM_retry'}]}
INFO 2018-10-25 11:58:41,744: 	 Success: Your task has been delivered to the CRAB3 server.
INFO 2018-10-25 11:58:41,744: 	 Task name: 181025_095841:mwadud_crab_h3z0p0015_ptmin500_ptmax800_jjg_MINIAODSIM_retry
INFO 2018-10-25 11:58:41,744: 	 Please use 'crab status' to check how the submission process proceeds.
DEBUG 2018-10-25 11:58:41,744: 	 About to return
DEBUG 2018-10-26 13:48:39,084: 	 Executing command: 'status'
DEBUG 2018-10-26 13:48:39,084: 	 Found CRAB cache file /afs/cern.ch/user/m/mwadud/.crab3
DEBUG 2018-10-26 13:48:39,127: 	 Checking credentials
DEBUG 2018-10-26 13:48:39,128: 	 Found proxy file /tmp/x509up_u91892
DEBUG 2018-10-26 13:48:39,128: 	 Getting proxy life time left
DEBUG 2018-10-26 13:48:40,481: 	 Executing : 
 command : voms-proxy-info -file /tmp/x509up_u91892 -timeleft
 output : 603947

 error: 
 retcode : 0
DEBUG 2018-10-26 13:48:42,222: 	 Executing : 
 command : voms-proxy-info -file /tmp/x509up_u91892 -actimeleft
 output : 603945

 error: 
 retcode : 0
DEBUG 2018-10-26 13:48:42,223: 	 Proxy valid for 167:45:47 hours
DEBUG 2018-10-26 13:48:42,352: 	 Executing : 
 command : openssl x509 -in ~/.globus/usercert.pem -subject -noout
 output : subject= /DC=ch/DC=cern/OU=Organic Units/OU=Users/CN=mwadud/CN=793344/CN=Mohammad Abrar Wadud

 error: 
 retcode : 0
DEBUG 2018-10-26 13:48:42,353: 	 Checking credentials
DEBUG 2018-10-26 13:48:42,353: 	 Found proxy file /tmp/x509up_u91892
DEBUG 2018-10-26 13:48:42,354: 	 Getting proxy life time left
DEBUG 2018-10-26 13:48:44,111: 	 Executing : 
 command : voms-proxy-info -file /tmp/x509up_u91892 -timeleft
 output : 603943

 error: 
 retcode : 0
DEBUG 2018-10-26 13:48:46,184: 	 Executing : 
 command : voms-proxy-info -file /tmp/x509up_u91892 -actimeleft
 output : 603941

 error: 
 retcode : 0
DEBUG 2018-10-26 13:48:46,194: 	 Proxy valid for 167:45:43 hours
DEBUG 2018-10-26 13:48:49,565: 	 Registering user credentials for server /DC=ch/DC=cern/OU=computers/CN=vocms(052|031|0118|0105|0109).cern.ch|/DC=ch/DC=cern/OU=computers/CN=crab-(preprod|prod)-tw(02|01).cern.ch
DEBUG 2018-10-26 13:48:49,687: 	 Executing : 
 command : openssl x509 -in ~/.globus/usercert.pem -subject -noout
 output : subject= /DC=ch/DC=cern/OU=Organic Units/OU=Users/CN=mwadud/CN=793344/CN=Mohammad Abrar Wadud

 error: 
 retcode : 0
DEBUG 2018-10-26 13:48:49,687: 	 Getting myproxy life time left for myproxy.cern.ch
DEBUG 2018-10-26 13:48:49,688: 	 Calculating hash of /DC=ch/DC=cern/OU=Organic Units/OU=Users/CN=mwadud/CN=793344/CN=Mohammad Abrar Wadud_cmsweb.cern.ch for credential name
DEBUG 2018-10-26 13:48:50,202: 	 Executing : 
 command : myproxy-info -l d7faec65772fb432ca96037f20977f98fa77c7ca -s myproxy.cern.ch
 output : username: d7faec65772fb432ca96037f20977f98fa77c7ca
owner: /DC=ch/DC=cern/OU=Organic Units/OU=Users/CN=mwadud/CN=793344/CN=Mohammad Abrar Wadud
  renewal policy: /DC=ch/DC=cern/OU=computers/CN=vocms(052|031|0118|0105|0109).cern.ch|/DC=ch/DC=cern/OU=computers/CN=crab-(preprod|prod)-tw(02|01).cern.ch
  trusted retrieval policy: /DC=ch/DC=cern/OU=computers/CN=vocms(052|031|0118|0105|0109).cern.ch|/DC=ch/DC=cern/OU=computers/CN=crab-(preprod|prod)-tw(02|01).cern.ch
  timeleft: 676:02:37  (28.2 days)

 error: 
 retcode : 0
DEBUG 2018-10-26 13:48:50,203: 	 Myproxy is valid: 2433757
DEBUG 2018-10-26 13:48:50,203: 	 Command use: status
DEBUG 2018-10-26 13:48:50,203: 	 Options use: ['-d', '/afs/cern.ch/work/m/mwadud/private/naTGC/CMSSW_9_4_0_patch1/src/GeneratorInterface/SherpaInterface/crab_job/jobs/jjg/h3z0p0015_ptmin500_ptmax800/crab_h3z0p0015_ptmin500_ptmax800_jjg_MINIAODSIM_retry/']
DEBUG 2018-10-26 13:48:51,543: 	 CRABClient version: 3.3.1809
DEBUG 2018-10-26 13:48:51,543: 	 Instance is prod
DEBUG 2018-10-26 13:48:51,543: 	 Server base url is cmsweb.cern.ch
DEBUG 2018-10-26 13:48:51,543: 	 Command url /crabserver/prod/workflow
DEBUG 2018-10-26 13:48:55,015: 	 Got information from server oracle database: {u'result': [u'181025_095841:mwadud_crab_h3z0p0015_ptmin500_ptmax800_jjg_MINIAODSIM_retry', u'None', u'None', u'SUBMITTED', u'SUBMIT', u'2018-10-25 09:58:41.727484', u'None', u'2018-10-25 09:59:52.323319', u'None', u'CMSSW_9_4_0_patch1', u'slc6_amd64_gcc630', u'/aNTGC_h3z0p0015_ptmin500_ptmax800_jjg_24Oct2018/mwadud-aNTGC_h3z0p0015_ptmin500_ptmax800_jjg_24Oct2018-68670a213ab88c5c8700933d167e52cc/USER', u'T', u'0', u"['T2_US_UCSD', 'T2_US_Wisconsin', 'T2_US_Florida', 'T2_US_MIT', 'T2_US_Caltech', 'T2_US_Purdue', 'T2_US_Nebraska', 'T2_US_Vanderbilt']", u"['T2_US_Vanderbilt']", u'EventAwareLumiBased', u"{'splitOnRun': False, 'events_per_job': 200, 'halt_job_on_file_boundaries': False, 'runs': [], 'lumis': []}", u'b7e82b8f574747d8debea7692ab862bd8e7cf0ea6dd2579cc81dc81d74dec351.tar.gz', u'https://cmsweb.cern.ch/crabcache', u'mwadud', u'/DC=ch/DC=cern/OU=Organic Units/OU=Users/CN=mwadud/CN=793344/CN=Mohammad Abrar Wadud', u'cms', u'None', u'None', u'aNTGC_h3z0p0015_ptmin500_ptmax800_jjg_MINIAODSIM_retry_24Oct2018-00000000000000000000000000000000', u'F', u'T3_US_FNALLPC', u'https://cmsweb.cern.ch/dbs/prod/phys03/DBSReader', u'https://cmsweb.cern.ch/dbs/prod/phys03/DBSWriter', u'T', u'[]', u'[]', u"['sherpa_h3z0p0015_ptmin500_ptmax800_MASTER_cff_py_MINIAODSIM.root']", u'Analysis', u'pythia', u'None', u'{}', u'[]', u'T', u'crab-prod-tw01', u'[]', u'1250', u'1', u'4000', u'10', u"['/aNTGC_h3z0p0015_ptmin500_ptmax800_jjg_24Oct2018/mwadud-aNTGC_h3z0p0015_ptmin500_ptmax800_jjg_MINIAODSIM_retry_24Oct2018-eb0b3152a5410114e39f7ab94e508942/USER']", u'["The following sites appear in both the user site blacklist and whitelist: [u\'T2_US_Vanderbilt\']. Since the whitelist has precedence, these sites are not considered in the blacklist.", \'Task requests 4000 MB of memory, but only 2500 MB are guaranteed to be available. Jobs may not find a site where to run and stay idle forever.\']', u'http://vocms0198.cern.ch/mon/cms1292/181025_095841:mwadud_crab_h3z0p0015_ptmin500_ptmax800_jjg_MINIAODSIM_retry', u'None', u'[]', u'[]', u'https://cmsweb.cern.ch/crabserver/prod', u'cmsgwms-collector-global.cern.ch:9620,cmssrv221.fnal.gov:9620', u'crab3@vocms0198.cern.ch', u'F', u'[]', u'T', u'/store/user/mwadud/aNTGC/crab/', u'T', u'None', u'F', u'None', u'aNTGC_h3z0p0015_ptmin500_ptmax800_jjg_24Oct2018', u'2018-10-25 15:44:56.779643', u'0a8760d500f5555872af5804ca49887df80d628283b264696ec80dd408b9ebec.tar.gz', u'27570849', u'filetransfers', u'F', u'188.184.82.118', u'10000.0', u'None'], u'desc': {u'columns': [u'tm_taskname', u'tm_activity', u'panda_jobset_id', u'tm_task_status', u'tm_task_command', u'tm_start_time', u'tm_start_injection', u'tm_end_injection', u'tm_task_failure', u'tm_job_sw', u'tm_job_arch', u'tm_input_dataset', u'tm_nonvalid_input_dataset', u'tm_use_parent', u'tm_site_whitelist', u'tm_site_blacklist', u'tm_split_algo', u'tm_split_args', u'tm_user_sandbox', u'tm_cache_url', u'tm_username', u'tm_user_dn', u'tm_user_vo', u'tm_user_role', u'tm_user_group', u'tm_publish_name', u'tm_publish_groupname', u'tm_asyncdest', u'tm_dbs_url', u'tm_publish_dbs_url', u'tm_publication', u'tm_outfiles', u'tm_tfile_outfiles', u'tm_edm_outfiles', u'tm_job_type', u'tm_generator', u'tm_events_per_lumi', u'tm_arguments', u'panda_resubmitted_jobs', u'tm_save_logs', u'tw_name', u'tm_user_infiles', u'tm_maxjobruntime', u'tm_numcores', u'tm_maxmemory', u'tm_priority', u'tm_output_dataset', u'tm_task_warnings', u'tm_user_webdir', u'tm_scriptexe', u'tm_scriptargs', u'tm_extrajdl', u'tm_asourl', u'tm_collector', u'tm_schedd', u'tm_dry_run', u'tm_user_files', u'tm_transfer_outputs', u'tm_output_lfn', u'tm_ignore_locality', u'tm_fail_limit', u'tm_one_event_mode', u'tm_secondary_input_dataset', u'tm_primary_dataset', u'tm_last_publication', u'tm_debug_files', u'clusterid', u'tm_asodb', u'tm_ignore_global_blacklist', u'tm_submitter_ip_addr', u'tm_totalunits', u'tm_ddm_reqid']}}
INFO 2018-10-26 13:48:55,016: 	 CRAB project directory:		/afs/cern.ch/work/m/mwadud/private/naTGC/CMSSW_9_4_0_patch1/src/GeneratorInterface/SherpaInterface/crab_job/jobs/jjg/h3z0p0015_ptmin500_ptmax800/crab_h3z0p0015_ptmin500_ptmax800_jjg_MINIAODSIM_retry/
INFO 2018-10-26 13:48:55,016: 	 Task name:			181025_095841:mwadud_crab_h3z0p0015_ptmin500_ptmax800_jjg_MINIAODSIM_retry
INFO 2018-10-26 13:48:55,016: 	 Grid scheduler - Task Worker:	crab3@vocms0198.cern.ch - crab-prod-tw01
INFO 2018-10-26 13:48:55,016: 	 Status on the CRAB server:	SUBMITTED
INFO 2018-10-26 13:48:55,016: 	 Task URL to use for HELP:	https://cmsweb.cern.ch/crabserver/ui/task/181025_095841%3Amwadud_crab_h3z0p0015_ptmin500_ptmax800_jjg_MINIAODSIM_retry
INFO 2018-10-26 13:48:55,017: 	 Dashboard monitoring URL:	http://dashb-cms-job.cern.ch/dashboard/templates/task-analysis/#user=mwadud&refresh=0&table=Jobs&p=1&records=25&activemenu=2&status=&site=&tid=181025_095841%3Amwadud_crab_h3z0p0015_ptmin500_ptmax800_jjg_MINIAODSIM_retry
WARNING 2018-10-26 13:48:55,017: 	 Warning:			The following sites appear in both the user site blacklist and whitelist: [u'T2_US_Vanderbilt']. Since the whitelist has precedence, these sites are not considered in the blacklist.
WARNING 2018-10-26 13:48:55,017: 	 Warning:			Task requests 4000 MB of memory, but only 2500 MB are guaranteed to be available. Jobs may not find a site where to run and stay idle forever.
DEBUG 2018-10-26 13:48:55,017: 	 The CRAB server submitted your task to the Grid scheduler (cluster ID: 27570849)
DEBUG 2018-10-26 13:48:55,017: 	 Webdir is located at http://vocms0198.cern.ch/mon/cms1292/181025_095841:mwadud_crab_h3z0p0015_ptmin500_ptmax800_jjg_MINIAODSIM_retry
DEBUG 2018-10-26 13:48:56,282: 	 Proxied webdir is located at https://cmsweb.cern.ch/scheddmon/0198/cms1292/181025_095841:mwadud_crab_h3z0p0015_ptmin500_ptmax800_jjg_MINIAODSIM_retry
DEBUG 2018-10-26 13:48:56,283: 	 Retrieving 'status_cache' file from https://cmsweb.cern.ch/scheddmon/0198/cms1292/181025_095841:mwadud_crab_h3z0p0015_ptmin500_ptmax800_jjg_MINIAODSIM_retry/status_cache
DEBUG 2018-10-26 13:48:59,723: 	 Got information from status cache file: {'42': {'Retries': 0, 'WallDurations': [9.0, 1350.0], 'StartTimes': [1540461821.0], 'SubmitTimes': [1540461621.0], 'JobIds': ['27570944.0'], 'EndTimes': [1540463171.0], 'Restarts': 0, 'RecordedSite': True, 'State': 'finished', 'ResidentSetSize': [1843992], 'TotalUserCpuTimeHistory': [1057], 'SiteHistory': ['Unknown', 'T2_US_Wisconsin'], 'TotalSysCpuTimeHistory': [73]}, '48': {'Retries': 0, 'WallDurations': [10.0, 1202.0], 'StartTimes': [1540461826.0], 'SubmitTimes': [1540461622.0], 'JobIds': ['27570953.0'], 'EndTimes': [1540463028.0], 'Restarts': 0, 'RecordedSite': True, 'State': 'finished', 'ResidentSetSize': [1858448], 'TotalUserCpuTimeHistory': [1003], 'SiteHistory': ['Unknown', 'T2_US_Wisconsin'], 'TotalSysCpuTimeHistory': [35]}, '43': {'Retries': 0, 'WallDurations': [9.0, 651.0], 'StartTimes': [1540461824.0], 'SubmitTimes': [1540461621.0], 'JobIds': ['27570945.0'], 'EndTimes': [1540462475.0], 'Restarts': 0, 'RecordedSite': True, 'State': 'finished', 'ResidentSetSize': [1755640], 'TotalUserCpuTimeHistory': [550], 'SiteHistory': ['Unknown', 'T2_US_Purdue'], 'TotalSysCpuTimeHistory': [11]}, '23': {'Retries': 0, 'WallDurations': [9.0, 665.0], 'StartTimes': [1540461726.0], 'SubmitTimes': [1540461610.0], 'JobIds': ['27570908.0'], 'EndTimes': [1540462391.0], 'Restarts': 0, 'RecordedSite': True, 'State': 'finished', 'ResidentSetSize': [1926084], 'TotalUserCpuTimeHistory': [575], 'SiteHistory': ['Unknown', 'T2_US_Florida'], 'TotalSysCpuTimeHistory': [8]}, '24': {'Retries': 0, 'WallDurations': [8.0, 799.0], 'StartTimes': [1540461749.0], 'SubmitTimes': [1540461610.0], 'JobIds': ['27570912.0'], 'EndTimes': [1540462548.0], 'Restarts': 0, 'RecordedSite': True, 'State': 'finished', 'ResidentSetSize': [1748956], 'TotalUserCpuTimeHistory': [676], 'SiteHistory': ['Unknown', 'T2_US_Caltech'], 'TotalSysCpuTimeHistory': [15]}, '25': {'Retries': 0, 'WallDurations': [9.0, 1146.0], 'StartTimes': [1540461739.0], 'SubmitTimes': [1540461610.0], 'JobIds': ['27570916.0'], 'EndTimes': [1540462885.0], 'Restarts': 0, 'RecordedSite': True, 'State': 'finished', 'ResidentSetSize': [1849008], 'TotalUserCpuTimeHistory': [1003], 'SiteHistory': ['Unknown', 'T2_US_Vanderbilt'], 'TotalSysCpuTimeHistory': [21]}, '26': {'Retries': 0, 'WallDurations': [9.0, 746.0], 'StartTimes': [1540461742.0], 'SubmitTimes': [1540461610.0], 'JobIds': ['27570914.0'], 'EndTimes': [1540462488.0], 'Restarts': 0, 'RecordedSite': True, 'State': 'finished', 'ResidentSetSize': [1920184], 'TotalUserCpuTimeHistory': [640], 'SiteHistory': ['Unknown', 'T2_US_Florida'], 'TotalSysCpuTimeHistory': [9]}, '27': {'Retries': 0, 'WallDurations': [13.0, 559.0], 'StartTimes': [1540461740.0], 'SubmitTimes': [1540461614.0], 'JobIds': ['27570918.0'], 'EndTimes': [1540462299.0], 'Restarts': 0, 'RecordedSite': True, 'State': 'finished', 'ResidentSetSize': [1915676], 'TotalUserCpuTimeHistory': [425], 'SiteHistory': ['Unknown', 'T2_US_Florida'], 'TotalSysCpuTimeHistory': [6]}, '20': {'Retries': 0, 'WallDurations': [8.0, 654.0], 'StartTimes': [1540461724.0], 'SubmitTimes': [1540461610.0], 'JobIds': ['27570906.0'], 'EndTimes': [1540462378.0], 'Restarts': 0, 'RecordedSite': True, 'State': 'finished', 'ResidentSetSize': [1949320], 'TotalUserCpuTimeHistory': [524], 'SiteHistory': ['Unknown', 'T2_US_Florida'], 'TotalSysCpuTimeHistory': [7]}, '21': {'Retries': 0, 'WallDurations': [9.0, 2479.0], 'StartTimes': [1540461829.0], 'SubmitTimes': [1540461622.0], 'JobIds': ['27570961.0'], 'EndTimes': [1540464308.0], 'Restarts': 0, 'RecordedSite': True, 'State': 'finished', 'ResidentSetSize': [1836364], 'TotalUserCpuTimeHistory': [2106], 'SiteHistory': ['Unknown', 'T2_US_Nebraska'], 'TotalSysCpuTimeHistory': [119]}, '22': {'Retries': 0, 'WallDurations': [9.0, 759.0], 'StartTimes': [1540461730.0], 'SubmitTimes': [1540461610.0], 'JobIds': ['27570910.0'], 'EndTimes': [1540462489.0], 'Restarts': 0, 'RecordedSite': True, 'State': 'finished', 'ResidentSetSize': [1931500], 'TotalUserCpuTimeHistory': [659], 'SiteHistory': ['Unknown', 'T2_US_Florida'], 'TotalSysCpuTimeHistory': [8]}, '49': {'Retries': 0, 'WallDurations': [9.0, 2272.0], 'StartTimes': [1540461828.0], 'SubmitTimes': [1540461622.0], 'JobIds': ['27570957.0'], 'EndTimes': [1540464100.0], 'Restarts': 0, 'RecordedSite': True, 'State': 'finished', 'ResidentSetSize': [1821444], 'TotalUserCpuTimeHistory': [1906], 'SiteHistory': ['Unknown', 'T2_US_Nebraska'], 'TotalSysCpuTimeHistory': [122]}, '46': {'Retries': 0, 'WallDurations': [9.0, 2624.0], 'StartTimes': [1540461828.0], 'SubmitTimes': [1540461621.0], 'JobIds': ['27570951.0'], 'EndTimes': [1540464452.0], 'Restarts': 0, 'RecordedSite': True, 'State': 'finished', 'ResidentSetSize': [1820212], 'TotalUserCpuTimeHistory': [2238], 'SiteHistory': ['Unknown', 'T2_US_Nebraska'], 'TotalSysCpuTimeHistory': [130]}, '47': {'Retries': 0, 'WallDurations': [9.0, 1200.0], 'StartTimes': [1540461826.0], 'SubmitTimes': [1540461622.0], 'JobIds': ['27570955.0'], 'EndTimes': [1540463026.0], 'Restarts': 0, 'RecordedSite': True, 'State': 'finished', 'ResidentSetSize': [1817856], 'TotalUserCpuTimeHistory': [1057], 'SiteHistory': ['Unknown', 'T2_US_Nebraska'], 'TotalSysCpuTimeHistory': [22]}, '44': {'Retries': 0, 'WallDurations': [8.0, 723.0], 'StartTimes': [1540461828.0], 'SubmitTimes': [1540461621.0], 'JobIds': ['27570947.0'], 'EndTimes': [1540462551.0], 'Restarts': 0, 'RecordedSite': True, 'State': 'finished', 'ResidentSetSize': [1836840], 'TotalUserCpuTimeHistory': [611], 'SiteHistory': ['Unknown', 'T2_US_Caltech'], 'TotalSysCpuTimeHistory': [13]}, '45': {'Retries': 0, 'WallDurations': [9.0, 1334.0], 'StartTimes': [1540461829.0], 'SubmitTimes': [1540461621.0], 'JobIds': ['27570949.0'], 'EndTimes': [1540463163.0], 'Restarts': 0, 'RecordedSite': True, 'State': 'finished', 'ResidentSetSize': [1828424], 'TotalUserCpuTimeHistory': [1131], 'SiteHistory': ['Unknown', 'T2_US_Caltech'], 'TotalSysCpuTimeHistory': [55]}, '28': {'Retries': 0, 'WallDurations': [9.0, 936.0], 'StartTimes': [1540461735.0], 'SubmitTimes': [1540461619.0], 'JobIds': ['27570929.0'], 'EndTimes': [1540462671.0], 'Restarts': 0, 'RecordedSite': True, 'State': 'finished', 'ResidentSetSize': [1989868], 'TotalUserCpuTimeHistory': [797], 'SiteHistory': ['Unknown', 'T2_US_Wisconsin'], 'TotalSysCpuTimeHistory': [20]}, '29': {'Retries': 0, 'WallDurations': [9.0, 1270.0], 'StartTimes': [1540461743.0], 'SubmitTimes': [1540461619.0], 'JobIds': ['27570930.0'], 'EndTimes': [1540463013.0], 'Restarts': 0, 'RecordedSite': True, 'State': 'finished', 'ResidentSetSize': [1748088], 'TotalUserCpuTimeHistory': [1067], 'SiteHistory': ['Unknown', 'T2_US_Wisconsin'], 'TotalSysCpuTimeHistory': [39]}, '40': {'Retries': 0, 'WallDurations': [9.0, 1557.0], 'StartTimes': [1540461822.0], 'SubmitTimes': [1540461620.0], 'JobIds': ['27570936.0'], 'EndTimes': [1540463379.0], 'Restarts': 0, 'RecordedSite': True, 'State': 'finished', 'ResidentSetSize': [1812768], 'TotalUserCpuTimeHistory': [1343], 'SiteHistory': ['Unknown', 'T2_US_Caltech'], 'TotalSysCpuTimeHistory': [55]}, '41': {'Retries': 0, 'WallDurations': [9.0, 1045.0], 'StartTimes': [1540461821.0], 'SubmitTimes': [1540461621.0], 'JobIds': ['27570943.0'], 'EndTimes': [1540462866.0], 'Restarts': 0, 'RecordedSite': True, 'State': 'finished', 'ResidentSetSize': [1857696], 'TotalUserCpuTimeHistory': [774], 'SiteHistory': ['Unknown', 'T2_US_Wisconsin'], 'TotalSysCpuTimeHistory': [66]}, '1': {'Retries': 0, 'WallDurations': [9.0, 2426.0], 'StartTimes': [1540461826.0], 'SubmitTimes': [1540461606.0], 'JobIds': ['27570887.0'], 'EndTimes': [1540464252.0], 'Restarts': 0, 'RecordedSite': True, 'State': 'finished', 'ResidentSetSize': [1835508], 'TotalUserCpuTimeHistory': [2063], 'SiteHistory': ['Unknown', 'T2_US_Nebraska'], 'TotalSysCpuTimeHistory': [119]}, '3': {'Retries': 0, 'WallDurations': [8.0, 861.0], 'StartTimes': [1540461923.0], 'SubmitTimes': [1540461607.0], 'JobIds': ['27570889.0'], 'EndTimes': [1540462784.0], 'Restarts': 0, 'RecordedSite': True, 'State': 'finished', 'ResidentSetSize': [1780872], 'TotalUserCpuTimeHistory': [719], 'SiteHistory': ['Unknown', 'T2_US_Wisconsin'], 'TotalSysCpuTimeHistory': [24]}, '2': {'Retries': 0, 'WallDurations': [8.0, 1190.0], 'StartTimes': [1540461922.0], 'SubmitTimes': [1540461606.0], 'JobIds': ['27570888.0'], 'EndTimes': [1540463112.0], 'Restarts': 0, 'RecordedSite': True, 'State': 'finished', 'ResidentSetSize': [1838128], 'TotalUserCpuTimeHistory': [1036], 'SiteHistory': ['Unknown', 'T2_US_Nebraska'], 'TotalSysCpuTimeHistory': [22]}, '5': {'Retries': 0, 'WallDurations': [9.0, 921.0], 'StartTimes': [1540461919.0], 'SubmitTimes': [1540461607.0], 'JobIds': ['27570890.0'], 'EndTimes': [1540462840.0], 'Restarts': 0, 'RecordedSite': True, 'State': 'finished', 'ResidentSetSize': [1728560], 'TotalUserCpuTimeHistory': [795], 'SiteHistory': ['Unknown', 'T2_US_Vanderbilt'], 'TotalSysCpuTimeHistory': [12]}, '4': {'Retries': 0, 'WallDurations': [9.0, 730.0], 'StartTimes': [1540461722.0], 'SubmitTimes': [1540461606.0], 'JobIds': ['27570886.0'], 'EndTimes': [1540462452.0], 'Restarts': 0, 'RecordedSite': True, 'State': 'finished', 'ResidentSetSize': [1924908], 'TotalUserCpuTimeHistory': [634], 'SiteHistory': ['Unknown', 'T2_US_Florida'], 'TotalSysCpuTimeHistory': [9]}, '7': {'Retries': 0, 'WallDurations': [9.0, 1271.0], 'StartTimes': [1540461723.0], 'SubmitTimes': [1540461607.0], 'JobIds': ['27570892.0'], 'EndTimes': [1540462994.0], 'Restarts': 0, 'RecordedSite': True, 'State': 'finished', 'ResidentSetSize': [1833512], 'TotalUserCpuTimeHistory': [1128], 'SiteHistory': ['Unknown', 'T2_US_Vanderbilt'], 'TotalSysCpuTimeHistory': [23]}, '6': {'Retries': 0, 'WallDurations': [9.0, 608.0], 'StartTimes': [1540461711.0], 'SubmitTimes': [1540461607.0], 'JobIds': ['27570891.0'], 'EndTimes': [1540462319.0], 'Restarts': 0, 'RecordedSite': True, 'State': 'finished', 'ResidentSetSize': [1918956], 'TotalUserCpuTimeHistory': [514], 'SiteHistory': ['Unknown', 'T2_US_Florida'], 'TotalSysCpuTimeHistory': [7]}, '9': {'Retries': 0, 'WallDurations': [8.0, 714.0], 'StartTimes': [1540461720.0], 'SubmitTimes': [1540461607.0], 'JobIds': ['27570893.0'], 'EndTimes': [1540462434.0], 'Restarts': 0, 'RecordedSite': True, 'State': 'finished', 'ResidentSetSize': [1948920], 'TotalUserCpuTimeHistory': [620], 'SiteHistory': ['Unknown', 'T2_US_Florida'], 'TotalSysCpuTimeHistory': [11]}, '8': {'Retries': 0, 'WallDurations': [8.0, 1507.0], 'StartTimes': [1540461718.0], 'SubmitTimes': [1540461607.0], 'JobIds': ['27570894.0'], 'EndTimes': [1540463225.0], 'Restarts': 0, 'RecordedSite': True, 'State': 'finished', 'ResidentSetSize': [1841436], 'TotalUserCpuTimeHistory': [1321], 'SiteHistory': ['Unknown', 'T2_US_Wisconsin'], 'TotalSysCpuTimeHistory': [42]}, '39': {'Retries': 0, 'WallDurations': [9.0, 828.0], 'StartTimes': [1540461821.0], 'SubmitTimes': [1540461621.0], 'JobIds': ['27570942.0'], 'EndTimes': [1540462649.0], 'Restarts': 0, 'RecordedSite': True, 'State': 'finished', 'ResidentSetSize': [1810712], 'TotalUserCpuTimeHistory': [690], 'SiteHistory': ['Unknown', 'T2_US_Wisconsin'], 'TotalSysCpuTimeHistory': [12]}, '38': {'Retries': 0, 'WallDurations': [9.0, 1394.0], 'StartTimes': [1540461810.0], 'SubmitTimes': [1540461620.0], 'JobIds': ['27570941.0'], 'EndTimes': [1540463204.0], 'Restarts': 0, 'RecordedSite': True, 'State': 'finished', 'ResidentSetSize': [1839800], 'TotalUserCpuTimeHistory': [1112], 'SiteHistory': ['Unknown', 'T2_US_Wisconsin'], 'TotalSysCpuTimeHistory': [86]}, '11': {'Retries': 0, 'WallDurations': [9.0, 1308.0], 'StartTimes': [1540461730.0], 'SubmitTimes': [1540461608.0], 'JobIds': ['27570897.0'], 'EndTimes': [1540463038.0], 'Restarts': 0, 'RecordedSite': True, 'State': 'finished', 'ResidentSetSize': [1741808], 'TotalUserCpuTimeHistory': [1101], 'SiteHistory': ['Unknown', 'T2_US_Wisconsin'], 'TotalSysCpuTimeHistory': [51]}, '10': {'Retries': 0, 'WallDurations': [9.0, 688.0], 'StartTimes': [1540461711.0], 'SubmitTimes': [1540461607.0], 'JobIds': ['27570895.0'], 'EndTimes': [1540462399.0], 'Restarts': 0, 'RecordedSite': True, 'State': 'finished', 'ResidentSetSize': [1916776], 'TotalUserCpuTimeHistory': [577], 'SiteHistory': ['Unknown', 'T2_US_Florida'], 'TotalSysCpuTimeHistory': [8]}, '13': {'Retries': 0, 'WallDurations': [9.0, 1045.0], 'StartTimes': [1540461725.0], 'SubmitTimes': [1540461608.0], 'JobIds': ['27570896.0'], 'EndTimes': [1540462770.0], 'Restarts': 0, 'RecordedSite': True, 'State': 'finished', 'ResidentSetSize': [1795240], 'TotalUserCpuTimeHistory': [904], 'SiteHistory': ['Unknown', 'T2_US_Vanderbilt'], 'TotalSysCpuTimeHistory': [20]}, '12': {'Retries': 0, 'WallDurations': [8.0, 774.0], 'StartTimes': [1540461748.0], 'SubmitTimes': [1540461608.0], 'JobIds': ['27570898.0'], 'EndTimes': [1540462522.0], 'Restarts': 0, 'RecordedSite': True, 'State': 'finished', 'ResidentSetSize': [1724468], 'TotalUserCpuTimeHistory': [633], 'SiteHistory': ['Unknown', 'T2_US_Caltech'], 'TotalSysCpuTimeHistory': [20]}, '15': {'Retries': 0, 'WallDurations': [9.0, 1711.0], 'StartTimes': [1540461748.0], 'SubmitTimes': [1540461608.0], 'JobIds': ['27570899.0'], 'EndTimes': [1540463459.0], 'Restarts': 0, 'RecordedSite': True, 'State': 'finished', 'ResidentSetSize': [1828872], 'TotalUserCpuTimeHistory': [1436], 'SiteHistory': ['Unknown', 'T2_US_Caltech'], 'TotalSysCpuTimeHistory': [26]}, '14': {'Retries': 0, 'WallDurations': [9.0, 684.0], 'StartTimes': [1540461720.0], 'SubmitTimes': [1540461608.0], 'JobIds': ['27570900.0'], 'EndTimes': [1540462404.0], 'Restarts': 0, 'RecordedSite': True, 'State': 'finished', 'ResidentSetSize': [1950052], 'TotalUserCpuTimeHistory': [590], 'SiteHistory': ['Unknown', 'T2_US_Florida'], 'TotalSysCpuTimeHistory': [10]}, '17': {'Retries': 0, 'WallDurations': [8.0, 569.0], 'StartTimes': [1540461730.0], 'SubmitTimes': [1540461609.0], 'JobIds': ['27570902.0'], 'EndTimes': [1540462299.0], 'Restarts': 0, 'RecordedSite': True, 'State': 'finished', 'ResidentSetSize': [1917248], 'TotalUserCpuTimeHistory': [475], 'SiteHistory': ['Unknown', 'T2_US_Florida'], 'TotalSysCpuTimeHistory': [6]}, '16': {'Retries': 0, 'WallDurations': [9.0, 675.0], 'StartTimes': [1540461736.0], 'SubmitTimes': [1540461609.0], 'JobIds': ['27570901.0'], 'EndTimes': [1540462411.0], 'Restarts': 0, 'RecordedSite': True, 'State': 'finished', 'ResidentSetSize': [1926192], 'TotalUserCpuTimeHistory': [563], 'SiteHistory': ['Unknown', 'T2_US_Florida'], 'TotalSysCpuTimeHistory': [8]}, '19': {'Retries': 0, 'WallDurations': [9.0, 687.0], 'StartTimes': [1540461735.0], 'SubmitTimes': [1540461609.0], 'JobIds': ['27570905.0'], 'EndTimes': [1540462422.0], 'Restarts': 0, 'RecordedSite': True, 'State': 'finished', 'ResidentSetSize': [1924708], 'TotalUserCpuTimeHistory': [585], 'SiteHistory': ['Unknown', 'T2_US_Florida'], 'TotalSysCpuTimeHistory': [7]}, '18': {'Retries': 0, 'WallDurations': [8.0, 1056.0], 'StartTimes': [1540461722.0], 'SubmitTimes': [1540461609.0], 'JobIds': ['27570904.0'], 'EndTimes': [1540462778.0], 'Restarts': 0, 'RecordedSite': True, 'State': 'finished', 'ResidentSetSize': [2013796], 'TotalUserCpuTimeHistory': [888], 'SiteHistory': ['Unknown', 'T2_US_Wisconsin'], 'TotalSysCpuTimeHistory': [14]}, '31': {'Retries': 0, 'WallDurations': [10.0, 1739.0], 'StartTimes': [1540461822.0], 'SubmitTimes': [1540461619.0], 'JobIds': ['27570933.0'], 'EndTimes': [1540463561.0], 'Restarts': 0, 'RecordedSite': True, 'State': 'finished', 'ResidentSetSize': [1844424], 'TotalUserCpuTimeHistory': [1414], 'SiteHistory': ['Unknown', 'T2_US_Wisconsin'], 'TotalSysCpuTimeHistory': [41]}, '30': {'Retries': 0, 'WallDurations': [8.0, 1545.0], 'StartTimes': [1540461732.0], 'SubmitTimes': [1540461619.0], 'JobIds': ['27570931.0'], 'EndTimes': [1540463277.0], 'Restarts': 0, 'RecordedSite': True, 'State': 'finished', 'ResidentSetSize': [1824340], 'TotalUserCpuTimeHistory': [1261], 'SiteHistory': ['Unknown', 'T2_US_Caltech'], 'TotalSysCpuTimeHistory': [24]}, '37': {'Retries': 0, 'WallDurations': [8.0, 1200.0], 'StartTimes': [1540461825.0], 'SubmitTimes': [1540461620.0], 'JobIds': ['27570940.0'], 'EndTimes': [1540463025.0], 'Restarts': 0, 'RecordedSite': True, 'State': 'finished', 'ResidentSetSize': [1845604], 'TotalUserCpuTimeHistory': [1044], 'SiteHistory': ['Unknown', 'T2_US_Nebraska'], 'TotalSysCpuTimeHistory': [21]}, '36': {'Retries': 0, 'WallDurations': [9.0, 613.0], 'StartTimes': [1540461810.0], 'SubmitTimes': [1540461620.0], 'JobIds': ['27570939.0'], 'EndTimes': [1540462423.0], 'Restarts': 0, 'RecordedSite': True, 'State': 'finished', 'ResidentSetSize': [1734796], 'TotalUserCpuTimeHistory': [506], 'SiteHistory': ['Unknown', 'T2_US_Purdue'], 'TotalSysCpuTimeHistory': [12]}, '35': {'Retries': 0, 'WallDurations': [8.0, 617.0], 'StartTimes': [1540461818.0], 'SubmitTimes': [1540461620.0], 'JobIds': ['27570938.0'], 'EndTimes': [1540462435.0], 'Restarts': 0, 'RecordedSite': True, 'State': 'finished', 'ResidentSetSize': [1811224], 'TotalUserCpuTimeHistory': [491], 'SiteHistory': ['Unknown', 'T2_US_Caltech'], 'TotalSysCpuTimeHistory': [15]}, '34': {'Retries': 0, 'WallDurations': [9.0, 1069.0], 'StartTimes': [1540461823.0], 'SubmitTimes': [1540461620.0], 'JobIds': ['27570937.0'], 'EndTimes': [1540462892.0], 'Restarts': 0, 'RecordedSite': True, 'State': 'finished', 'ResidentSetSize': [1829140], 'TotalUserCpuTimeHistory': [838], 'SiteHistory': ['Unknown', 'T2_US_Wisconsin'], 'TotalSysCpuTimeHistory': [37]}, '33': {'Retries': 0, 'WallDurations': [8.0, 740.0], 'StartTimes': [1540461819.0], 'SubmitTimes': [1540461620.0], 'JobIds': ['27570934.0'], 'EndTimes': [1540462559.0], 'Restarts': 0, 'RecordedSite': True, 'State': 'finished', 'ResidentSetSize': [1932296], 'TotalUserCpuTimeHistory': [596], 'SiteHistory': ['Unknown', 'T2_US_Florida'], 'TotalSysCpuTimeHistory': [9]}, '32': {'Retries': 0, 'WallDurations': [10.0, 781.0], 'StartTimes': [1540461740.0], 'SubmitTimes': [1540461619.0], 'JobIds': ['27570932.0'], 'EndTimes': [1540462521.0], 'Restarts': 0, 'RecordedSite': True, 'State': 'finished', 'ResidentSetSize': [1744780], 'TotalUserCpuTimeHistory': [655], 'SiteHistory': ['Unknown', 'T2_US_Caltech'], 'TotalSysCpuTimeHistory': [18]}, '50': {'Retries': 0, 'WallDurations': [9.0, 2369.0], 'StartTimes': [1540461829.0], 'SubmitTimes': [1540461622.0], 'JobIds': ['27570959.0'], 'EndTimes': [1540464198.0], 'Restarts': 0, 'RecordedSite': True, 'State': 'finished', 'ResidentSetSize': [1822372], 'TotalUserCpuTimeHistory': [2003], 'SiteHistory': ['Unknown', 'T2_US_Nebraska'], 'TotalSysCpuTimeHistory': [118]}}
INFO 2018-10-26 13:48:59,723: 	 Status on the scheduler:	COMPLETED
INFO 2018-10-26 13:48:59,724: 	 
Jobs status:                    finished      		 100.0% (50/50)
INFO 2018-10-26 13:49:00,937: 	 
Publication status:		done          100.0% (50/50)
(from CRAB internal bookkeeping in transferdb)
INFO 2018-10-26 13:49:00,937: 	 
Output dataset:			/aNTGC_h3z0p0015_ptmin500_ptmax800_jjg_24Oct2018/mwadud-aNTGC_h3z0p0015_ptmin500_ptmax800_jjg_MINIAODSIM_retry_24Oct2018-eb0b3152a5410114e39f7ab94e508942/USER
Output dataset DAS URL:		https://cmsweb.cern.ch/das/request?input=%2FaNTGC_h3z0p0015_ptmin500_ptmax800_jjg_24Oct2018%2Fmwadud-aNTGC_h3z0p0015_ptmin500_ptmax800_jjg_MINIAODSIM_retry_24Oct2018-eb0b3152a5410114e39f7ab94e508942%2FUSER&instance=prod%2Fphys03
INFO 2018-10-26 13:49:00,939: 	 
Warning: the max jobs runtime is less than 30% of the task requested value (1250 min), please consider to request a lower value (allowed through crab resubmit) and/or improve the jobs splitting (e.g. config.Data.splitting = 'Automatic') in a new task.
INFO 2018-10-26 13:49:00,939: 	 
Warning: the max jobs memory is less than 70% of the task requested value (4000 MB), please consider to request a lower value (allowed through crab resubmit) and/or improve the jobs splitting (e.g. config.Data.splitting = 'Automatic') in a new task.
INFO 2018-10-26 13:49:00,939: 	 
Summary of run jobs:
 * Memory: 1814MB min, 1966MB max, 1807MB ave
 * Runtime: 0:09:19 min, 0:43:44 max, 0:18:45 ave
 * CPU eff: 77% min, 91% max, 87% ave
 * Waste: 0:07:23 (1% of total)

INFO 2018-10-26 13:49:01,311: 	 Log file is /afs/cern.ch/work/m/mwadud/private/naTGC/CMSSW_9_4_0_patch1/src/GeneratorInterface/SherpaInterface/crab_job/jobs/jjg/h3z0p0015_ptmin500_ptmax800/crab_h3z0p0015_ptmin500_ptmax800_jjg_MINIAODSIM_retry/crab.log
DEBUG 2018-10-26 17:55:18,138: 	 Executing command: 'status'
DEBUG 2018-10-26 17:55:18,138: 	 Found CRAB cache file /afs/cern.ch/user/m/mwadud/.crab3
DEBUG 2018-10-26 17:55:18,187: 	 Checking credentials
DEBUG 2018-10-26 17:55:18,187: 	 Found proxy file /tmp/x509up_u91892
DEBUG 2018-10-26 17:55:18,187: 	 Getting proxy life time left
DEBUG 2018-10-26 17:55:19,310: 	 Executing : 
 command : voms-proxy-info -file /tmp/x509up_u91892 -timeleft
 output : 604256

 error: 
 retcode : 0
DEBUG 2018-10-26 17:55:20,633: 	 Executing : 
 command : voms-proxy-info -file /tmp/x509up_u91892 -actimeleft
 output : 604254

 error: 
 retcode : 0
DEBUG 2018-10-26 17:55:20,633: 	 Proxy valid for 167:50:56 hours
DEBUG 2018-10-26 17:55:20,758: 	 Executing : 
 command : openssl x509 -in ~/.globus/usercert.pem -subject -noout
 output : subject= /DC=ch/DC=cern/OU=Organic Units/OU=Users/CN=mwadud/CN=793344/CN=Mohammad Abrar Wadud

 error: 
 retcode : 0
DEBUG 2018-10-26 17:55:20,759: 	 Checking credentials
DEBUG 2018-10-26 17:55:20,759: 	 Found proxy file /tmp/x509up_u91892
DEBUG 2018-10-26 17:55:20,759: 	 Getting proxy life time left
DEBUG 2018-10-26 17:55:21,886: 	 Executing : 
 command : voms-proxy-info -file /tmp/x509up_u91892 -timeleft
 output : 604254

 error: 
 retcode : 0
DEBUG 2018-10-26 17:55:23,295: 	 Executing : 
 command : voms-proxy-info -file /tmp/x509up_u91892 -actimeleft
 output : 604251

 error: 
 retcode : 0
DEBUG 2018-10-26 17:55:23,295: 	 Proxy valid for 167:50:54 hours
DEBUG 2018-10-26 17:55:24,315: 	 Registering user credentials for server /DC=ch/DC=cern/OU=computers/CN=vocms(052|031|0118|0105|0109).cern.ch|/DC=ch/DC=cern/OU=computers/CN=crab-(preprod|prod)-tw(02|01).cern.ch
DEBUG 2018-10-26 17:55:24,453: 	 Executing : 
 command : openssl x509 -in ~/.globus/usercert.pem -subject -noout
 output : subject= /DC=ch/DC=cern/OU=Organic Units/OU=Users/CN=mwadud/CN=793344/CN=Mohammad Abrar Wadud

 error: 
 retcode : 0
DEBUG 2018-10-26 17:55:24,454: 	 Getting myproxy life time left for myproxy.cern.ch
DEBUG 2018-10-26 17:55:24,454: 	 Calculating hash of /DC=ch/DC=cern/OU=Organic Units/OU=Users/CN=mwadud/CN=793344/CN=Mohammad Abrar Wadud_cmsweb.cern.ch for credential name
DEBUG 2018-10-26 17:55:24,660: 	 Executing : 
 command : myproxy-info -l d7faec65772fb432ca96037f20977f98fa77c7ca -s myproxy.cern.ch
 output : username: d7faec65772fb432ca96037f20977f98fa77c7ca
owner: /DC=ch/DC=cern/OU=Organic Units/OU=Users/CN=mwadud/CN=793344/CN=Mohammad Abrar Wadud
  renewal policy: /DC=ch/DC=cern/OU=computers/CN=vocms(052|031|0118|0105|0109).cern.ch|/DC=ch/DC=cern/OU=computers/CN=crab-(preprod|prod)-tw(02|01).cern.ch
  trusted retrieval policy: /DC=ch/DC=cern/OU=computers/CN=vocms(052|031|0118|0105|0109).cern.ch|/DC=ch/DC=cern/OU=computers/CN=crab-(preprod|prod)-tw(02|01).cern.ch
  timeleft: 671:56:03  (28.0 days)

 error: 
 retcode : 0
DEBUG 2018-10-26 17:55:24,661: 	 Myproxy is valid: 2418963
DEBUG 2018-10-26 17:55:24,661: 	 Command use: status
DEBUG 2018-10-26 17:55:24,662: 	 Options use: ['-d', '/afs/cern.ch/work/m/mwadud/private/naTGC/CMSSW_9_4_0_patch1/src/GeneratorInterface/SherpaInterface/crab_job/jobs/jjg/h3z0p0015_ptmin500_ptmax800/crab_h3z0p0015_ptmin500_ptmax800_jjg_MINIAODSIM_retry/']
DEBUG 2018-10-26 17:55:25,592: 	 CRABClient version: 3.3.1809
DEBUG 2018-10-26 17:55:25,592: 	 Instance is prod
DEBUG 2018-10-26 17:55:25,592: 	 Server base url is cmsweb.cern.ch
DEBUG 2018-10-26 17:55:25,592: 	 Command url /crabserver/prod/workflow
DEBUG 2018-10-26 17:55:26,554: 	 Got information from server oracle database: {u'result': [u'181025_095841:mwadud_crab_h3z0p0015_ptmin500_ptmax800_jjg_MINIAODSIM_retry', u'None', u'None', u'SUBMITTED', u'SUBMIT', u'2018-10-25 09:58:41.727484', u'None', u'2018-10-25 09:59:52.323319', u'None', u'CMSSW_9_4_0_patch1', u'slc6_amd64_gcc630', u'/aNTGC_h3z0p0015_ptmin500_ptmax800_jjg_24Oct2018/mwadud-aNTGC_h3z0p0015_ptmin500_ptmax800_jjg_24Oct2018-68670a213ab88c5c8700933d167e52cc/USER', u'T', u'0', u"['T2_US_UCSD', 'T2_US_Wisconsin', 'T2_US_Florida', 'T2_US_MIT', 'T2_US_Caltech', 'T2_US_Purdue', 'T2_US_Nebraska', 'T2_US_Vanderbilt']", u"['T2_US_Vanderbilt']", u'EventAwareLumiBased', u"{'splitOnRun': False, 'events_per_job': 200, 'halt_job_on_file_boundaries': False, 'runs': [], 'lumis': []}", u'b7e82b8f574747d8debea7692ab862bd8e7cf0ea6dd2579cc81dc81d74dec351.tar.gz', u'https://cmsweb.cern.ch/crabcache', u'mwadud', u'/DC=ch/DC=cern/OU=Organic Units/OU=Users/CN=mwadud/CN=793344/CN=Mohammad Abrar Wadud', u'cms', u'None', u'None', u'aNTGC_h3z0p0015_ptmin500_ptmax800_jjg_MINIAODSIM_retry_24Oct2018-00000000000000000000000000000000', u'F', u'T3_US_FNALLPC', u'https://cmsweb.cern.ch/dbs/prod/phys03/DBSReader', u'https://cmsweb.cern.ch/dbs/prod/phys03/DBSWriter', u'T', u'[]', u'[]', u"['sherpa_h3z0p0015_ptmin500_ptmax800_MASTER_cff_py_MINIAODSIM.root']", u'Analysis', u'pythia', u'None', u'{}', u'[]', u'T', u'crab-prod-tw01', u'[]', u'1250', u'1', u'4000', u'10', u"['/aNTGC_h3z0p0015_ptmin500_ptmax800_jjg_24Oct2018/mwadud-aNTGC_h3z0p0015_ptmin500_ptmax800_jjg_MINIAODSIM_retry_24Oct2018-eb0b3152a5410114e39f7ab94e508942/USER']", u'["The following sites appear in both the user site blacklist and whitelist: [u\'T2_US_Vanderbilt\']. Since the whitelist has precedence, these sites are not considered in the blacklist.", \'Task requests 4000 MB of memory, but only 2500 MB are guaranteed to be available. Jobs may not find a site where to run and stay idle forever.\']', u'http://vocms0198.cern.ch/mon/cms1292/181025_095841:mwadud_crab_h3z0p0015_ptmin500_ptmax800_jjg_MINIAODSIM_retry', u'None', u'[]', u'[]', u'https://cmsweb.cern.ch/crabserver/prod', u'cmsgwms-collector-global.cern.ch:9620,cmssrv221.fnal.gov:9620', u'crab3@vocms0198.cern.ch', u'F', u'[]', u'T', u'/store/user/mwadud/aNTGC/crab/', u'T', u'None', u'F', u'None', u'aNTGC_h3z0p0015_ptmin500_ptmax800_jjg_24Oct2018', u'2018-10-25 15:44:56.779643', u'0a8760d500f5555872af5804ca49887df80d628283b264696ec80dd408b9ebec.tar.gz', u'27570849', u'filetransfers', u'F', u'188.184.82.118', u'10000.0', u'None'], u'desc': {u'columns': [u'tm_taskname', u'tm_activity', u'panda_jobset_id', u'tm_task_status', u'tm_task_command', u'tm_start_time', u'tm_start_injection', u'tm_end_injection', u'tm_task_failure', u'tm_job_sw', u'tm_job_arch', u'tm_input_dataset', u'tm_nonvalid_input_dataset', u'tm_use_parent', u'tm_site_whitelist', u'tm_site_blacklist', u'tm_split_algo', u'tm_split_args', u'tm_user_sandbox', u'tm_cache_url', u'tm_username', u'tm_user_dn', u'tm_user_vo', u'tm_user_role', u'tm_user_group', u'tm_publish_name', u'tm_publish_groupname', u'tm_asyncdest', u'tm_dbs_url', u'tm_publish_dbs_url', u'tm_publication', u'tm_outfiles', u'tm_tfile_outfiles', u'tm_edm_outfiles', u'tm_job_type', u'tm_generator', u'tm_events_per_lumi', u'tm_arguments', u'panda_resubmitted_jobs', u'tm_save_logs', u'tw_name', u'tm_user_infiles', u'tm_maxjobruntime', u'tm_numcores', u'tm_maxmemory', u'tm_priority', u'tm_output_dataset', u'tm_task_warnings', u'tm_user_webdir', u'tm_scriptexe', u'tm_scriptargs', u'tm_extrajdl', u'tm_asourl', u'tm_collector', u'tm_schedd', u'tm_dry_run', u'tm_user_files', u'tm_transfer_outputs', u'tm_output_lfn', u'tm_ignore_locality', u'tm_fail_limit', u'tm_one_event_mode', u'tm_secondary_input_dataset', u'tm_primary_dataset', u'tm_last_publication', u'tm_debug_files', u'clusterid', u'tm_asodb', u'tm_ignore_global_blacklist', u'tm_submitter_ip_addr', u'tm_totalunits', u'tm_ddm_reqid']}}
INFO 2018-10-26 17:55:26,554: 	 CRAB project directory:		/afs/cern.ch/work/m/mwadud/private/naTGC/CMSSW_9_4_0_patch1/src/GeneratorInterface/SherpaInterface/crab_job/jobs/jjg/h3z0p0015_ptmin500_ptmax800/crab_h3z0p0015_ptmin500_ptmax800_jjg_MINIAODSIM_retry/
INFO 2018-10-26 17:55:26,554: 	 Task name:			181025_095841:mwadud_crab_h3z0p0015_ptmin500_ptmax800_jjg_MINIAODSIM_retry
INFO 2018-10-26 17:55:26,554: 	 Grid scheduler - Task Worker:	crab3@vocms0198.cern.ch - crab-prod-tw01
INFO 2018-10-26 17:55:26,555: 	 Status on the CRAB server:	SUBMITTED
INFO 2018-10-26 17:55:26,555: 	 Task URL to use for HELP:	https://cmsweb.cern.ch/crabserver/ui/task/181025_095841%3Amwadud_crab_h3z0p0015_ptmin500_ptmax800_jjg_MINIAODSIM_retry
INFO 2018-10-26 17:55:26,555: 	 Dashboard monitoring URL:	http://dashb-cms-job.cern.ch/dashboard/templates/task-analysis/#user=mwadud&refresh=0&table=Jobs&p=1&records=25&activemenu=2&status=&site=&tid=181025_095841%3Amwadud_crab_h3z0p0015_ptmin500_ptmax800_jjg_MINIAODSIM_retry
WARNING 2018-10-26 17:55:26,555: 	 Warning:			The following sites appear in both the user site blacklist and whitelist: [u'T2_US_Vanderbilt']. Since the whitelist has precedence, these sites are not considered in the blacklist.
WARNING 2018-10-26 17:55:26,555: 	 Warning:			Task requests 4000 MB of memory, but only 2500 MB are guaranteed to be available. Jobs may not find a site where to run and stay idle forever.
DEBUG 2018-10-26 17:55:26,555: 	 The CRAB server submitted your task to the Grid scheduler (cluster ID: 27570849)
DEBUG 2018-10-26 17:55:26,555: 	 Webdir is located at http://vocms0198.cern.ch/mon/cms1292/181025_095841:mwadud_crab_h3z0p0015_ptmin500_ptmax800_jjg_MINIAODSIM_retry
DEBUG 2018-10-26 17:55:27,620: 	 Proxied webdir is located at https://cmsweb.cern.ch/scheddmon/0198/cms1292/181025_095841:mwadud_crab_h3z0p0015_ptmin500_ptmax800_jjg_MINIAODSIM_retry
DEBUG 2018-10-26 17:55:27,620: 	 Retrieving 'status_cache' file from https://cmsweb.cern.ch/scheddmon/0198/cms1292/181025_095841:mwadud_crab_h3z0p0015_ptmin500_ptmax800_jjg_MINIAODSIM_retry/status_cache
DEBUG 2018-10-26 17:55:28,561: 	 Got information from status cache file: {'42': {'Retries': 0, 'WallDurations': [9.0, 1350.0], 'StartTimes': [1540461821.0], 'SubmitTimes': [1540461621.0], 'JobIds': ['27570944.0'], 'EndTimes': [1540463171.0], 'Restarts': 0, 'RecordedSite': True, 'State': 'finished', 'ResidentSetSize': [1843992], 'TotalUserCpuTimeHistory': [1057], 'SiteHistory': ['Unknown', 'T2_US_Wisconsin'], 'TotalSysCpuTimeHistory': [73]}, '43': {'Retries': 0, 'WallDurations': [9.0, 651.0], 'StartTimes': [1540461824.0], 'SubmitTimes': [1540461621.0], 'JobIds': ['27570945.0'], 'EndTimes': [1540462475.0], 'Restarts': 0, 'RecordedSite': True, 'State': 'finished', 'ResidentSetSize': [1755640], 'TotalUserCpuTimeHistory': [550], 'SiteHistory': ['Unknown', 'T2_US_Purdue'], 'TotalSysCpuTimeHistory': [11]}, '23': {'Retries': 0, 'WallDurations': [9.0, 665.0], 'StartTimes': [1540461726.0], 'SubmitTimes': [1540461610.0], 'JobIds': ['27570908.0'], 'EndTimes': [1540462391.0], 'Restarts': 0, 'RecordedSite': True, 'State': 'finished', 'ResidentSetSize': [1926084], 'TotalUserCpuTimeHistory': [575], 'SiteHistory': ['Unknown', 'T2_US_Florida'], 'TotalSysCpuTimeHistory': [8]}, '24': {'Retries': 0, 'WallDurations': [8.0, 799.0], 'StartTimes': [1540461749.0], 'SubmitTimes': [1540461610.0], 'JobIds': ['27570912.0'], 'EndTimes': [1540462548.0], 'Restarts': 0, 'RecordedSite': True, 'State': 'finished', 'ResidentSetSize': [1748956], 'TotalUserCpuTimeHistory': [676], 'SiteHistory': ['Unknown', 'T2_US_Caltech'], 'TotalSysCpuTimeHistory': [15]}, '25': {'Retries': 0, 'WallDurations': [9.0, 1146.0], 'StartTimes': [1540461739.0], 'SubmitTimes': [1540461610.0], 'JobIds': ['27570916.0'], 'EndTimes': [1540462885.0], 'Restarts': 0, 'RecordedSite': True, 'State': 'finished', 'ResidentSetSize': [1849008], 'TotalUserCpuTimeHistory': [1003], 'SiteHistory': ['Unknown', 'T2_US_Vanderbilt'], 'TotalSysCpuTimeHistory': [21]}, '26': {'Retries': 0, 'WallDurations': [9.0, 746.0], 'StartTimes': [1540461742.0], 'SubmitTimes': [1540461610.0], 'JobIds': ['27570914.0'], 'EndTimes': [1540462488.0], 'Restarts': 0, 'RecordedSite': True, 'State': 'finished', 'ResidentSetSize': [1920184], 'TotalUserCpuTimeHistory': [640], 'SiteHistory': ['Unknown', 'T2_US_Florida'], 'TotalSysCpuTimeHistory': [9]}, '27': {'Retries': 0, 'WallDurations': [13.0, 559.0], 'StartTimes': [1540461740.0], 'SubmitTimes': [1540461614.0], 'JobIds': ['27570918.0'], 'EndTimes': [1540462299.0], 'Restarts': 0, 'RecordedSite': True, 'State': 'finished', 'ResidentSetSize': [1915676], 'TotalUserCpuTimeHistory': [425], 'SiteHistory': ['Unknown', 'T2_US_Florida'], 'TotalSysCpuTimeHistory': [6]}, '20': {'Retries': 0, 'WallDurations': [8.0, 654.0], 'StartTimes': [1540461724.0], 'SubmitTimes': [1540461610.0], 'JobIds': ['27570906.0'], 'EndTimes': [1540462378.0], 'Restarts': 0, 'RecordedSite': True, 'State': 'finished', 'ResidentSetSize': [1949320], 'TotalUserCpuTimeHistory': [524], 'SiteHistory': ['Unknown', 'T2_US_Florida'], 'TotalSysCpuTimeHistory': [7]}, '21': {'Retries': 0, 'WallDurations': [9.0, 2479.0], 'StartTimes': [1540461829.0], 'SubmitTimes': [1540461622.0], 'JobIds': ['27570961.0'], 'EndTimes': [1540464308.0], 'Restarts': 0, 'RecordedSite': True, 'State': 'finished', 'ResidentSetSize': [1836364], 'TotalUserCpuTimeHistory': [2106], 'SiteHistory': ['Unknown', 'T2_US_Nebraska'], 'TotalSysCpuTimeHistory': [119]}, '22': {'Retries': 0, 'WallDurations': [9.0, 759.0], 'StartTimes': [1540461730.0], 'SubmitTimes': [1540461610.0], 'JobIds': ['27570910.0'], 'EndTimes': [1540462489.0], 'Restarts': 0, 'RecordedSite': True, 'State': 'finished', 'ResidentSetSize': [1931500], 'TotalUserCpuTimeHistory': [659], 'SiteHistory': ['Unknown', 'T2_US_Florida'], 'TotalSysCpuTimeHistory': [8]}, '49': {'Retries': 0, 'WallDurations': [9.0, 2272.0], 'StartTimes': [1540461828.0], 'SubmitTimes': [1540461622.0], 'JobIds': ['27570957.0'], 'EndTimes': [1540464100.0], 'Restarts': 0, 'RecordedSite': True, 'State': 'finished', 'ResidentSetSize': [1821444], 'TotalUserCpuTimeHistory': [1906], 'SiteHistory': ['Unknown', 'T2_US_Nebraska'], 'TotalSysCpuTimeHistory': [122]}, '46': {'Retries': 0, 'WallDurations': [9.0, 2624.0], 'StartTimes': [1540461828.0], 'SubmitTimes': [1540461621.0], 'JobIds': ['27570951.0'], 'EndTimes': [1540464452.0], 'Restarts': 0, 'RecordedSite': True, 'State': 'finished', 'ResidentSetSize': [1820212], 'TotalUserCpuTimeHistory': [2238], 'SiteHistory': ['Unknown', 'T2_US_Nebraska'], 'TotalSysCpuTimeHistory': [130]}, '47': {'Retries': 0, 'WallDurations': [9.0, 1200.0], 'StartTimes': [1540461826.0], 'SubmitTimes': [1540461622.0], 'JobIds': ['27570955.0'], 'EndTimes': [1540463026.0], 'Restarts': 0, 'RecordedSite': True, 'State': 'finished', 'ResidentSetSize': [1817856], 'TotalUserCpuTimeHistory': [1057], 'SiteHistory': ['Unknown', 'T2_US_Nebraska'], 'TotalSysCpuTimeHistory': [22]}, '44': {'Retries': 0, 'WallDurations': [8.0, 723.0], 'StartTimes': [1540461828.0], 'SubmitTimes': [1540461621.0], 'JobIds': ['27570947.0'], 'EndTimes': [1540462551.0], 'Restarts': 0, 'RecordedSite': True, 'State': 'finished', 'ResidentSetSize': [1836840], 'TotalUserCpuTimeHistory': [611], 'SiteHistory': ['Unknown', 'T2_US_Caltech'], 'TotalSysCpuTimeHistory': [13]}, '45': {'Retries': 0, 'WallDurations': [9.0, 1334.0], 'StartTimes': [1540461829.0], 'SubmitTimes': [1540461621.0], 'JobIds': ['27570949.0'], 'EndTimes': [1540463163.0], 'Restarts': 0, 'RecordedSite': True, 'State': 'finished', 'ResidentSetSize': [1828424], 'TotalUserCpuTimeHistory': [1131], 'SiteHistory': ['Unknown', 'T2_US_Caltech'], 'TotalSysCpuTimeHistory': [55]}, '28': {'Retries': 0, 'WallDurations': [9.0, 936.0], 'StartTimes': [1540461735.0], 'SubmitTimes': [1540461619.0], 'JobIds': ['27570929.0'], 'EndTimes': [1540462671.0], 'Restarts': 0, 'RecordedSite': True, 'State': 'finished', 'ResidentSetSize': [1989868], 'TotalUserCpuTimeHistory': [797], 'SiteHistory': ['Unknown', 'T2_US_Wisconsin'], 'TotalSysCpuTimeHistory': [20]}, '29': {'Retries': 0, 'WallDurations': [9.0, 1270.0], 'StartTimes': [1540461743.0], 'SubmitTimes': [1540461619.0], 'JobIds': ['27570930.0'], 'EndTimes': [1540463013.0], 'Restarts': 0, 'RecordedSite': True, 'State': 'finished', 'ResidentSetSize': [1748088], 'TotalUserCpuTimeHistory': [1067], 'SiteHistory': ['Unknown', 'T2_US_Wisconsin'], 'TotalSysCpuTimeHistory': [39]}, '40': {'Retries': 0, 'WallDurations': [9.0, 1557.0], 'StartTimes': [1540461822.0], 'SubmitTimes': [1540461620.0], 'JobIds': ['27570936.0'], 'EndTimes': [1540463379.0], 'Restarts': 0, 'RecordedSite': True, 'State': 'finished', 'ResidentSetSize': [1812768], 'TotalUserCpuTimeHistory': [1343], 'SiteHistory': ['Unknown', 'T2_US_Caltech'], 'TotalSysCpuTimeHistory': [55]}, '41': {'Retries': 0, 'WallDurations': [9.0, 1045.0], 'StartTimes': [1540461821.0], 'SubmitTimes': [1540461621.0], 'JobIds': ['27570943.0'], 'EndTimes': [1540462866.0], 'Restarts': 0, 'RecordedSite': True, 'State': 'finished', 'ResidentSetSize': [1857696], 'TotalUserCpuTimeHistory': [774], 'SiteHistory': ['Unknown', 'T2_US_Wisconsin'], 'TotalSysCpuTimeHistory': [66]}, '1': {'Retries': 0, 'WallDurations': [9.0, 2426.0], 'StartTimes': [1540461826.0], 'SubmitTimes': [1540461606.0], 'JobIds': ['27570887.0'], 'EndTimes': [1540464252.0], 'Restarts': 0, 'RecordedSite': True, 'State': 'finished', 'ResidentSetSize': [1835508], 'TotalUserCpuTimeHistory': [2063], 'SiteHistory': ['Unknown', 'T2_US_Nebraska'], 'TotalSysCpuTimeHistory': [119]}, '3': {'Retries': 0, 'WallDurations': [8.0, 861.0], 'StartTimes': [1540461923.0], 'SubmitTimes': [1540461607.0], 'JobIds': ['27570889.0'], 'EndTimes': [1540462784.0], 'Restarts': 0, 'RecordedSite': True, 'State': 'finished', 'ResidentSetSize': [1780872], 'TotalUserCpuTimeHistory': [719], 'SiteHistory': ['Unknown', 'T2_US_Wisconsin'], 'TotalSysCpuTimeHistory': [24]}, '2': {'Retries': 0, 'WallDurations': [8.0, 1190.0], 'StartTimes': [1540461922.0], 'SubmitTimes': [1540461606.0], 'JobIds': ['27570888.0'], 'EndTimes': [1540463112.0], 'Restarts': 0, 'RecordedSite': True, 'State': 'finished', 'ResidentSetSize': [1838128], 'TotalUserCpuTimeHistory': [1036], 'SiteHistory': ['Unknown', 'T2_US_Nebraska'], 'TotalSysCpuTimeHistory': [22]}, '5': {'Retries': 0, 'WallDurations': [9.0, 921.0], 'StartTimes': [1540461919.0], 'SubmitTimes': [1540461607.0], 'JobIds': ['27570890.0'], 'EndTimes': [1540462840.0], 'Restarts': 0, 'RecordedSite': True, 'State': 'finished', 'ResidentSetSize': [1728560], 'TotalUserCpuTimeHistory': [795], 'SiteHistory': ['Unknown', 'T2_US_Vanderbilt'], 'TotalSysCpuTimeHistory': [12]}, '4': {'Retries': 0, 'WallDurations': [9.0, 730.0], 'StartTimes': [1540461722.0], 'SubmitTimes': [1540461606.0], 'JobIds': ['27570886.0'], 'EndTimes': [1540462452.0], 'Restarts': 0, 'RecordedSite': True, 'State': 'finished', 'ResidentSetSize': [1924908], 'TotalUserCpuTimeHistory': [634], 'SiteHistory': ['Unknown', 'T2_US_Florida'], 'TotalSysCpuTimeHistory': [9]}, '7': {'Retries': 0, 'WallDurations': [9.0, 1271.0], 'StartTimes': [1540461723.0], 'SubmitTimes': [1540461607.0], 'JobIds': ['27570892.0'], 'EndTimes': [1540462994.0], 'Restarts': 0, 'RecordedSite': True, 'State': 'finished', 'ResidentSetSize': [1833512], 'TotalUserCpuTimeHistory': [1128], 'SiteHistory': ['Unknown', 'T2_US_Vanderbilt'], 'TotalSysCpuTimeHistory': [23]}, '6': {'Retries': 0, 'WallDurations': [9.0, 608.0], 'StartTimes': [1540461711.0], 'SubmitTimes': [1540461607.0], 'JobIds': ['27570891.0'], 'EndTimes': [1540462319.0], 'Restarts': 0, 'RecordedSite': True, 'State': 'finished', 'ResidentSetSize': [1918956], 'TotalUserCpuTimeHistory': [514], 'SiteHistory': ['Unknown', 'T2_US_Florida'], 'TotalSysCpuTimeHistory': [7]}, '9': {'Retries': 0, 'WallDurations': [8.0, 714.0], 'StartTimes': [1540461720.0], 'SubmitTimes': [1540461607.0], 'JobIds': ['27570893.0'], 'EndTimes': [1540462434.0], 'Restarts': 0, 'RecordedSite': True, 'State': 'finished', 'ResidentSetSize': [1948920], 'TotalUserCpuTimeHistory': [620], 'SiteHistory': ['Unknown', 'T2_US_Florida'], 'TotalSysCpuTimeHistory': [11]}, '8': {'Retries': 0, 'WallDurations': [8.0, 1507.0], 'StartTimes': [1540461718.0], 'SubmitTimes': [1540461607.0], 'JobIds': ['27570894.0'], 'EndTimes': [1540463225.0], 'Restarts': 0, 'RecordedSite': True, 'State': 'finished', 'ResidentSetSize': [1841436], 'TotalUserCpuTimeHistory': [1321], 'SiteHistory': ['Unknown', 'T2_US_Wisconsin'], 'TotalSysCpuTimeHistory': [42]}, '39': {'Retries': 0, 'WallDurations': [9.0, 828.0], 'StartTimes': [1540461821.0], 'SubmitTimes': [1540461621.0], 'JobIds': ['27570942.0'], 'EndTimes': [1540462649.0], 'Restarts': 0, 'RecordedSite': True, 'State': 'finished', 'ResidentSetSize': [1810712], 'TotalUserCpuTimeHistory': [690], 'SiteHistory': ['Unknown', 'T2_US_Wisconsin'], 'TotalSysCpuTimeHistory': [12]}, '38': {'Retries': 0, 'WallDurations': [9.0, 1394.0], 'StartTimes': [1540461810.0], 'SubmitTimes': [1540461620.0], 'JobIds': ['27570941.0'], 'EndTimes': [1540463204.0], 'Restarts': 0, 'RecordedSite': True, 'State': 'finished', 'ResidentSetSize': [1839800], 'TotalUserCpuTimeHistory': [1112], 'SiteHistory': ['Unknown', 'T2_US_Wisconsin'], 'TotalSysCpuTimeHistory': [86]}, '14': {'Retries': 0, 'WallDurations': [9.0, 684.0], 'StartTimes': [1540461720.0], 'SubmitTimes': [1540461608.0], 'JobIds': ['27570900.0'], 'EndTimes': [1540462404.0], 'Restarts': 0, 'RecordedSite': True, 'State': 'finished', 'ResidentSetSize': [1950052], 'TotalUserCpuTimeHistory': [590], 'SiteHistory': ['Unknown', 'T2_US_Florida'], 'TotalSysCpuTimeHistory': [10]}, '11': {'Retries': 0, 'WallDurations': [9.0, 1308.0], 'StartTimes': [1540461730.0], 'SubmitTimes': [1540461608.0], 'JobIds': ['27570897.0'], 'EndTimes': [1540463038.0], 'Restarts': 0, 'RecordedSite': True, 'State': 'finished', 'ResidentSetSize': [1741808], 'TotalUserCpuTimeHistory': [1101], 'SiteHistory': ['Unknown', 'T2_US_Wisconsin'], 'TotalSysCpuTimeHistory': [51]}, '10': {'Retries': 0, 'WallDurations': [9.0, 688.0], 'StartTimes': [1540461711.0], 'SubmitTimes': [1540461607.0], 'JobIds': ['27570895.0'], 'EndTimes': [1540462399.0], 'Restarts': 0, 'RecordedSite': True, 'State': 'finished', 'ResidentSetSize': [1916776], 'TotalUserCpuTimeHistory': [577], 'SiteHistory': ['Unknown', 'T2_US_Florida'], 'TotalSysCpuTimeHistory': [8]}, '13': {'Retries': 0, 'WallDurations': [9.0, 1045.0], 'StartTimes': [1540461725.0], 'SubmitTimes': [1540461608.0], 'JobIds': ['27570896.0'], 'EndTimes': [1540462770.0], 'Restarts': 0, 'RecordedSite': True, 'State': 'finished', 'ResidentSetSize': [1795240], 'TotalUserCpuTimeHistory': [904], 'SiteHistory': ['Unknown', 'T2_US_Vanderbilt'], 'TotalSysCpuTimeHistory': [20]}, '12': {'Retries': 0, 'WallDurations': [8.0, 774.0], 'StartTimes': [1540461748.0], 'SubmitTimes': [1540461608.0], 'JobIds': ['27570898.0'], 'EndTimes': [1540462522.0], 'Restarts': 0, 'RecordedSite': True, 'State': 'finished', 'ResidentSetSize': [1724468], 'TotalUserCpuTimeHistory': [633], 'SiteHistory': ['Unknown', 'T2_US_Caltech'], 'TotalSysCpuTimeHistory': [20]}, '15': {'Retries': 0, 'WallDurations': [9.0, 1711.0], 'StartTimes': [1540461748.0], 'SubmitTimes': [1540461608.0], 'JobIds': ['27570899.0'], 'EndTimes': [1540463459.0], 'Restarts': 0, 'RecordedSite': True, 'State': 'finished', 'ResidentSetSize': [1828872], 'TotalUserCpuTimeHistory': [1436], 'SiteHistory': ['Unknown', 'T2_US_Caltech'], 'TotalSysCpuTimeHistory': [26]}, '48': {'Retries': 0, 'WallDurations': [10.0, 1202.0], 'StartTimes': [1540461826.0], 'SubmitTimes': [1540461622.0], 'JobIds': ['27570953.0'], 'EndTimes': [1540463028.0], 'Restarts': 0, 'RecordedSite': True, 'State': 'finished', 'ResidentSetSize': [1858448], 'TotalUserCpuTimeHistory': [1003], 'SiteHistory': ['Unknown', 'T2_US_Wisconsin'], 'TotalSysCpuTimeHistory': [35]}, '17': {'Retries': 0, 'WallDurations': [8.0, 569.0], 'StartTimes': [1540461730.0], 'SubmitTimes': [1540461609.0], 'JobIds': ['27570902.0'], 'EndTimes': [1540462299.0], 'Restarts': 0, 'RecordedSite': True, 'State': 'finished', 'ResidentSetSize': [1917248], 'TotalUserCpuTimeHistory': [475], 'SiteHistory': ['Unknown', 'T2_US_Florida'], 'TotalSysCpuTimeHistory': [6]}, '16': {'Retries': 0, 'WallDurations': [9.0, 675.0], 'StartTimes': [1540461736.0], 'SubmitTimes': [1540461609.0], 'JobIds': ['27570901.0'], 'EndTimes': [1540462411.0], 'Restarts': 0, 'RecordedSite': True, 'State': 'finished', 'ResidentSetSize': [1926192], 'TotalUserCpuTimeHistory': [563], 'SiteHistory': ['Unknown', 'T2_US_Florida'], 'TotalSysCpuTimeHistory': [8]}, '19': {'Retries': 0, 'WallDurations': [9.0, 687.0], 'StartTimes': [1540461735.0], 'SubmitTimes': [1540461609.0], 'JobIds': ['27570905.0'], 'EndTimes': [1540462422.0], 'Restarts': 0, 'RecordedSite': True, 'State': 'finished', 'ResidentSetSize': [1924708], 'TotalUserCpuTimeHistory': [585], 'SiteHistory': ['Unknown', 'T2_US_Florida'], 'TotalSysCpuTimeHistory': [7]}, '32': {'Retries': 0, 'WallDurations': [10.0, 781.0], 'StartTimes': [1540461740.0], 'SubmitTimes': [1540461619.0], 'JobIds': ['27570932.0'], 'EndTimes': [1540462521.0], 'Restarts': 0, 'RecordedSite': True, 'State': 'finished', 'ResidentSetSize': [1744780], 'TotalUserCpuTimeHistory': [655], 'SiteHistory': ['Unknown', 'T2_US_Caltech'], 'TotalSysCpuTimeHistory': [18]}, '31': {'Retries': 0, 'WallDurations': [10.0, 1739.0], 'StartTimes': [1540461822.0], 'SubmitTimes': [1540461619.0], 'JobIds': ['27570933.0'], 'EndTimes': [1540463561.0], 'Restarts': 0, 'RecordedSite': True, 'State': 'finished', 'ResidentSetSize': [1844424], 'TotalUserCpuTimeHistory': [1414], 'SiteHistory': ['Unknown', 'T2_US_Wisconsin'], 'TotalSysCpuTimeHistory': [41]}, '30': {'Retries': 0, 'WallDurations': [8.0, 1545.0], 'StartTimes': [1540461732.0], 'SubmitTimes': [1540461619.0], 'JobIds': ['27570931.0'], 'EndTimes': [1540463277.0], 'Restarts': 0, 'RecordedSite': True, 'State': 'finished', 'ResidentSetSize': [1824340], 'TotalUserCpuTimeHistory': [1261], 'SiteHistory': ['Unknown', 'T2_US_Caltech'], 'TotalSysCpuTimeHistory': [24]}, '37': {'Retries': 0, 'WallDurations': [8.0, 1200.0], 'StartTimes': [1540461825.0], 'SubmitTimes': [1540461620.0], 'JobIds': ['27570940.0'], 'EndTimes': [1540463025.0], 'Restarts': 0, 'RecordedSite': True, 'State': 'finished', 'ResidentSetSize': [1845604], 'TotalUserCpuTimeHistory': [1044], 'SiteHistory': ['Unknown', 'T2_US_Nebraska'], 'TotalSysCpuTimeHistory': [21]}, '36': {'Retries': 0, 'WallDurations': [9.0, 613.0], 'StartTimes': [1540461810.0], 'SubmitTimes': [1540461620.0], 'JobIds': ['27570939.0'], 'EndTimes': [1540462423.0], 'Restarts': 0, 'RecordedSite': True, 'State': 'finished', 'ResidentSetSize': [1734796], 'TotalUserCpuTimeHistory': [506], 'SiteHistory': ['Unknown', 'T2_US_Purdue'], 'TotalSysCpuTimeHistory': [12]}, '35': {'Retries': 0, 'WallDurations': [8.0, 617.0], 'StartTimes': [1540461818.0], 'SubmitTimes': [1540461620.0], 'JobIds': ['27570938.0'], 'EndTimes': [1540462435.0], 'Restarts': 0, 'RecordedSite': True, 'State': 'finished', 'ResidentSetSize': [1811224], 'TotalUserCpuTimeHistory': [491], 'SiteHistory': ['Unknown', 'T2_US_Caltech'], 'TotalSysCpuTimeHistory': [15]}, '34': {'Retries': 0, 'WallDurations': [9.0, 1069.0], 'StartTimes': [1540461823.0], 'SubmitTimes': [1540461620.0], 'JobIds': ['27570937.0'], 'EndTimes': [1540462892.0], 'Restarts': 0, 'RecordedSite': True, 'State': 'finished', 'ResidentSetSize': [1829140], 'TotalUserCpuTimeHistory': [838], 'SiteHistory': ['Unknown', 'T2_US_Wisconsin'], 'TotalSysCpuTimeHistory': [37]}, '33': {'Retries': 0, 'WallDurations': [8.0, 740.0], 'StartTimes': [1540461819.0], 'SubmitTimes': [1540461620.0], 'JobIds': ['27570934.0'], 'EndTimes': [1540462559.0], 'Restarts': 0, 'RecordedSite': True, 'State': 'finished', 'ResidentSetSize': [1932296], 'TotalUserCpuTimeHistory': [596], 'SiteHistory': ['Unknown', 'T2_US_Florida'], 'TotalSysCpuTimeHistory': [9]}, '18': {'Retries': 0, 'WallDurations': [8.0, 1056.0], 'StartTimes': [1540461722.0], 'SubmitTimes': [1540461609.0], 'JobIds': ['27570904.0'], 'EndTimes': [1540462778.0], 'Restarts': 0, 'RecordedSite': True, 'State': 'finished', 'ResidentSetSize': [2013796], 'TotalUserCpuTimeHistory': [888], 'SiteHistory': ['Unknown', 'T2_US_Wisconsin'], 'TotalSysCpuTimeHistory': [14]}, '50': {'Retries': 0, 'WallDurations': [9.0, 2369.0], 'StartTimes': [1540461829.0], 'SubmitTimes': [1540461622.0], 'JobIds': ['27570959.0'], 'EndTimes': [1540464198.0], 'Restarts': 0, 'RecordedSite': True, 'State': 'finished', 'ResidentSetSize': [1822372], 'TotalUserCpuTimeHistory': [2003], 'SiteHistory': ['Unknown', 'T2_US_Nebraska'], 'TotalSysCpuTimeHistory': [118]}}
INFO 2018-10-26 17:55:28,561: 	 Status on the scheduler:	COMPLETED
INFO 2018-10-26 17:55:28,561: 	 
Jobs status:                    finished      		 100.0% (50/50)
INFO 2018-10-26 17:55:29,977: 	 
Publication status:		done          100.0% (50/50)
(from CRAB internal bookkeeping in transferdb)
INFO 2018-10-26 17:55:29,977: 	 
Output dataset:			/aNTGC_h3z0p0015_ptmin500_ptmax800_jjg_24Oct2018/mwadud-aNTGC_h3z0p0015_ptmin500_ptmax800_jjg_MINIAODSIM_retry_24Oct2018-eb0b3152a5410114e39f7ab94e508942/USER
Output dataset DAS URL:		https://cmsweb.cern.ch/das/request?input=%2FaNTGC_h3z0p0015_ptmin500_ptmax800_jjg_24Oct2018%2Fmwadud-aNTGC_h3z0p0015_ptmin500_ptmax800_jjg_MINIAODSIM_retry_24Oct2018-eb0b3152a5410114e39f7ab94e508942%2FUSER&instance=prod%2Fphys03
INFO 2018-10-26 17:55:29,979: 	 
Warning: the max jobs runtime is less than 30% of the task requested value (1250 min), please consider to request a lower value (allowed through crab resubmit) and/or improve the jobs splitting (e.g. config.Data.splitting = 'Automatic') in a new task.
INFO 2018-10-26 17:55:29,979: 	 
Warning: the max jobs memory is less than 70% of the task requested value (4000 MB), please consider to request a lower value (allowed through crab resubmit) and/or improve the jobs splitting (e.g. config.Data.splitting = 'Automatic') in a new task.
INFO 2018-10-26 17:55:29,979: 	 
Summary of run jobs:
 * Memory: 1814MB min, 1966MB max, 1807MB ave
 * Runtime: 0:09:19 min, 0:43:44 max, 0:18:45 ave
 * CPU eff: 77% min, 91% max, 87% ave
 * Waste: 0:07:23 (1% of total)

INFO 2018-10-26 17:55:30,171: 	 Log file is /afs/cern.ch/work/m/mwadud/private/naTGC/CMSSW_9_4_0_patch1/src/GeneratorInterface/SherpaInterface/crab_job/jobs/jjg/h3z0p0015_ptmin500_ptmax800/crab_h3z0p0015_ptmin500_ptmax800_jjg_MINIAODSIM_retry/crab.log
