Sender: LSF System <lsfadmin@b68b6c2b90.cern.ch>
Subject: Job 202639782: <h3z0p0015_ptmin800_ptmax1000> in cluster <batch> Done

Job <h3z0p0015_ptmin800_ptmax1000> was submitted from host <lxplus059.cern.ch> by user <mwadud> in cluster <batch>.
Job was executed on host(s) <b68b6c2b90.cern.ch>, in queue <8nm>, as user <mwadud> in cluster <batch>.
</afs/cern.ch/user/m/mwadud> was used as the home directory.
</afs/cern.ch/work/m/mwadud/private/CMSSW_9_4_0_patch1/src/GeneratorInterface/SherpaInterface/aNTGCeventGeneration_mine/test/crab_job> was used as the working directory.
Started at Tue Oct  9 14:17:56 2018
Results reported on Tue Oct  9 14:24:16 2018

Your job looked like:

------------------------------------------------------------
# LSBATCH: User input
#!/bin/bash
#export X509_USER_PROXY=/afs/cern.ch/user/m/mwadud/x509up_u91892

runcardtemplate=NTGC_LO_llg.dat

nretry=10

globalTag=94X_mc2017_realistic_v12
jobdir=/afs/cern.ch/work/m/mwadud/private/CMSSW_9_4_0_patch1/src/GeneratorInterface/SherpaInterface/aNTGCeventGeneration_mine/test/crab_job/jobs/
sherpaDir=/afs/cern.ch/work/m/mwadud/private/CMSSW_9_4_0_patch1/src/GeneratorInterface/SherpaInterface/aNTGCeventGeneration_mine/test/
cmsswDir=/afs/cern.ch/work/m/mwadud/private/CMSSW_9_4_0_patch1/src/Configuration/Generator/python/
workdir=/afs/cern.ch/work/m/mwadud/private/CMSSW_9_4_0_patch1/src/GeneratorInterface/SherpaInterface/aNTGCeventGeneration_mine/test/crab_job/jobs//h3z0p0015_ptmin800_ptmax1000/
submitdir=/afs/cern.ch/work/m/mwadud/private/CMSSW_9_4_0_patch1/src/GeneratorInterface/SherpaInterface/aNTGCeventGeneration_mine/test/crab_job/


pileupdataset=dbs:/Neutrino_E-10_gun/RunIISummer17PrePremix-MCv2_correctPU_94X_mc2017_realistic_v9-v1/GEN-SIM-DIGI-RAW

nevents=10000

float_scale=4
function float_eval()
{
    local stat=0
    local result=0.0
    if [[ $# -gt 0 ]]; then
        result=$(echo "scale=$float_scale; $*" | bc -q 2>/dev/null)
        stat=$?
        if [[ $stat -eq 0  &&  -z "$result" ]]; then stat=1; fi
    fi
    echo $result
    return $stat
}

h3z=0.0015
ptmin=800
ptmax=1000



echo "h3Z is "${h3z}
	
Mz=91.18
v=246.0
cw=0.877
sw=0.481

num=$(float_eval "(4.0*1000.0*1000.0*1000.0*1000.0*${cw}*${sw}*${h3z})")
deno=$(float_eval "(${v}*${v}*${Mz}*${Mz})")
cbtw=$(float_eval "(4.0*1000*1000*1000*1000*${cw}*${sw}*${h3z})/(${v}*${v}*${Mz}*${Mz})")


(... more ...)
------------------------------------------------------------

Successfully completed.

Resource usage summary:

    CPU time :                                   26.49 sec.
    Max Memory :                                 98.74 MB
    Average Memory :                             42.12 MB
    Total Requested Memory :                     -
    Delta Memory :                               -
    Max Swap :                                   236 MB
    Max Processes :                              8
    Max Threads :                                9
    Run time :                                   378 sec.
    Turnaround time :                            543 sec.

The output (if any) follows:


---
It was not possible to return the standard output of your job <*tmax1000>,
id <202639782>, as expected. The file was returned to
</afs/cern.ch/work/m/mwadud/private/CMSSW_9_4_0_patch1/src/GeneratorInterface/SherpaInterface/aNTGCeventGeneration_mine/test/crab_job/LSFJOB_202639782/STDOUT>
