DEBUG 2018-10-15 22:25:41,187: 	 Executing command: 'submit'
DEBUG 2018-10-15 22:25:41,189: 	 Found CRAB cache file /afs/cern.ch/user/m/mwadud/.crab3
DEBUG 2018-10-15 22:25:41,236: 	 Checking credentials
DEBUG 2018-10-15 22:25:41,237: 	 Found proxy file /tmp/x509up_u91892
DEBUG 2018-10-15 22:25:41,237: 	 Getting proxy life time left
DEBUG 2018-10-15 22:25:43,387: 	 Executing : 
 command : voms-proxy-info -file /tmp/x509up_u91892 -timeleft
 output : 603061

 error: 
 retcode : 0
DEBUG 2018-10-15 22:25:45,948: 	 Executing : 
 command : voms-proxy-info -file /tmp/x509up_u91892 -actimeleft
 output : 603058

 error: 
 retcode : 0
DEBUG 2018-10-15 22:25:45,948: 	 Proxy valid for 167:31:01 hours
DEBUG 2018-10-15 22:25:45,949: 	 Will use CRAB Analysis plugin (i.e. will run an analysis job type).
DEBUG 2018-10-15 22:25:46,633: 	 Executing : 
 command : openssl x509 -in ~/.globus/usercert.pem -subject -noout
 output : subject= /DC=ch/DC=cern/OU=Organic Units/OU=Users/CN=mwadud/CN=793344/CN=Mohammad Abrar Wadud

 error: 
 retcode : 0
DEBUG 2018-10-15 22:25:46,633: 	 Checking credentials
DEBUG 2018-10-15 22:25:46,634: 	 Found proxy file /tmp/x509up_u91892
DEBUG 2018-10-15 22:25:46,634: 	 Getting proxy life time left
DEBUG 2018-10-15 22:25:48,597: 	 Executing : 
 command : voms-proxy-info -file /tmp/x509up_u91892 -timeleft
 output : 603056

 error: 
 retcode : 0
DEBUG 2018-10-15 22:25:50,900: 	 Executing : 
 command : voms-proxy-info -file /tmp/x509up_u91892 -actimeleft
 output : 603053

 error: 
 retcode : 0
DEBUG 2018-10-15 22:25:50,900: 	 Proxy valid for 167:30:56 hours
DEBUG 2018-10-15 22:25:53,356: 	 Executing : 
 command : env X509_USER_PROXY=/tmp/x509up_u91892 voms-proxy-info -fqan
 output : /cms/Role=NULL/Capability=NULL
/cms/uscms/Role=NULL/Capability=NULL

 error: 
 retcode : 0
DEBUG 2018-10-15 22:25:54,694: 	 Registering user credentials for server /DC=ch/DC=cern/OU=computers/CN=vocms(052|031|0118|0105|0109).cern.ch|/DC=ch/DC=cern/OU=computers/CN=crab-(preprod|prod)-tw(02|01).cern.ch
DEBUG 2018-10-15 22:25:54,817: 	 Executing : 
 command : openssl x509 -in ~/.globus/usercert.pem -subject -noout
 output : subject= /DC=ch/DC=cern/OU=Organic Units/OU=Users/CN=mwadud/CN=793344/CN=Mohammad Abrar Wadud

 error: 
 retcode : 0
DEBUG 2018-10-15 22:25:54,817: 	 Getting myproxy life time left for myproxy.cern.ch
DEBUG 2018-10-15 22:25:54,818: 	 Calculating hash of /DC=ch/DC=cern/OU=Organic Units/OU=Users/CN=mwadud/CN=793344/CN=Mohammad Abrar Wadud_cmsweb.cern.ch for credential name
DEBUG 2018-10-15 22:25:55,234: 	 Executing : 
 command : myproxy-info -l d7faec65772fb432ca96037f20977f98fa77c7ca -s myproxy.cern.ch
 output : username: d7faec65772fb432ca96037f20977f98fa77c7ca
owner: /DC=ch/DC=cern/OU=Organic Units/OU=Users/CN=mwadud/CN=793344/CN=Mohammad Abrar Wadud
  renewal policy: /DC=ch/DC=cern/OU=computers/CN=vocms(052|031|0118|0105|0109).cern.ch|/DC=ch/DC=cern/OU=computers/CN=crab-(preprod|prod)-tw(02|01).cern.ch
  trusted retrieval policy: /DC=ch/DC=cern/OU=computers/CN=vocms(052|031|0118|0105|0109).cern.ch|/DC=ch/DC=cern/OU=computers/CN=crab-(preprod|prod)-tw(02|01).cern.ch
  timeleft: 546:37:13  (22.8 days)

 error: 
 retcode : 0
DEBUG 2018-10-15 22:25:55,235: 	 Myproxy is valid: 1967833
DEBUG 2018-10-15 22:25:55,236: 	 Command use: submit
DEBUG 2018-10-15 22:25:55,236: 	 Options use: ['--config', <WMCore.Configuration.Configuration object at 0x7fd1f0a9efd0>]
DEBUG 2018-10-15 22:25:56,560: 	 CRABClient version: 3.3.1809
DEBUG 2018-10-15 22:25:56,560: 	 Instance is prod
DEBUG 2018-10-15 22:25:56,560: 	 Server base url is cmsweb.cern.ch
DEBUG 2018-10-15 22:25:56,560: 	 Command url /crabserver/prod/workflow
DEBUG 2018-10-15 22:25:56,560: 	 Started submission
DEBUG 2018-10-15 22:25:56,560: 	 Working on /afs/cern.ch/work/m/mwadud/private/naTGC/CMSSW_9_4_0_patch1/src/GeneratorInterface/SherpaInterface/crab_job/jobs/jjg/h3z-0p0029_ptmin300_ptmax400/crab_h3z-0p0029_ptmin300_ptmax400_jjg_MINIAODSIM
DEBUG 2018-10-15 22:25:59,977: 	 Loading required information from the environment
DEBUG 2018-10-15 22:25:59,977: 	 Found CMSSW_9_4_0_patch1 for slc6_amd64_gcc630 with base /afs/cern.ch/work/m/mwadud/private/naTGC/CMSSW_9_4_0_patch1
DEBUG 2018-10-15 22:25:59,978: 	 Loading required information from the environment
DEBUG 2018-10-15 22:25:59,978: 	 Found CMSSW_9_4_0_patch1 for slc6_amd64_gcc630 with base /afs/cern.ch/work/m/mwadud/private/naTGC/CMSSW_9_4_0_patch1
DEBUG 2018-10-15 22:26:00,152: 	 UNIQUE NAME: tarUUID df506fb5-dad1-4f91-9b9c-3144286e8895 
DEBUG 2018-10-15 22:26:00,153: 	 self.config: from WMCore.Configuration import Configuration
config = Configuration()
config.section_('General')
config.General.workArea = '/afs/cern.ch/work/m/mwadud/private/naTGC/CMSSW_9_4_0_patch1/src/GeneratorInterface/SherpaInterface/crab_job/jobs/jjg/h3z-0p0029_ptmin300_ptmax400/'
config.General.transferLogs = True
config.General.requestName = 'h3z-0p0029_ptmin300_ptmax400_jjg_MINIAODSIM'
config.section_('JobType')
config.JobType.psetName = 'sherpa_h3z-0p0029_ptmin300_ptmax400_step2_cff.py'
config.JobType.pluginName = 'Analysis'
config.JobType.inputFiles = ['/afs/cern.ch/work/m/mwadud/private/naTGC/CMSSW_9_4_0_patch1/src/GeneratorInterface/SherpaInterface/crab_job/jobs/jjg/h3z-0p0029_ptmin300_ptmax400//sherpa_h3z-0p0029_ptmin300_ptmax400_MASTER.md5', '/afs/cern.ch/work/m/mwadud/private/naTGC/CMSSW_9_4_0_patch1/src/GeneratorInterface/SherpaInterface/crab_job/jobs/jjg/h3z-0p0029_ptmin300_ptmax400//sherpa_h3z-0p0029_ptmin300_ptmax400_MASTER.tgz']
config.JobType.maxMemoryMB = 4000
config.JobType.sendExternalFolder = True
config.section_('Data')
config.Data.inputDataset = '/aNTGC_h3z-0p0029_ptmin300_ptmax400_jjg_10Oct2018/mwadud-aNTGC_h3z-0p0029_ptmin300_ptmax400_jjg_10Oct2018-f5d6918dde9404c5cc13c69e2361eeb6/USER'
config.Data.outputDatasetTag = 'aNTGC_h3z-0p0029_ptmin300_ptmax400_jjg_MINIAODSIM_10Oct2018'
config.Data.publication = True
config.Data.unitsPerJob = 50
config.Data.ignoreLocality = True
config.Data.inputDBS = 'phys03'
config.Data.splitting = 'EventAwareLumiBased'
config.Data.allowNonValidInputDataset = True
config.Data.outLFNDirBase = '/store/user/mwadud/aNTGC/crab/'
config.Data.totalUnits = 10000
config.section_('Site')
config.Site.blacklist = ['T2_US_Vanderbilt']
config.Site.whitelist = ['T2_US*']
config.Site.storageSite = 'T3_US_FNALLPC'
config.section_('User')
config.section_('Debug')

DEBUG 2018-10-15 22:26:00,153: 	 self.config.JobType.psetName: sherpa_h3z-0p0029_ptmin300_ptmax400_step2_cff.py
INFO 2018-10-15 22:26:00,154: 	 Importing CMSSW configuration sherpa_h3z-0p0029_ptmin300_ptmax400_step2_cff.py
INFO 2018-10-15 22:26:56,885: 	 Finished importing CMSSW configuration sherpa_h3z-0p0029_ptmin300_ptmax400_step2_cff.py
DEBUG 2018-10-15 22:26:56,886: 	 Writing CMSSW configuration to /afs/cern.ch/work/m/mwadud/private/naTGC/CMSSW_9_4_0_patch1/src/GeneratorInterface/SherpaInterface/crab_job/jobs/jjg/h3z-0p0029_ptmin300_ptmax400/crab_h3z-0p0029_ptmin300_ptmax400_jjg_MINIAODSIM/inputs/PSet.py
DEBUG 2018-10-15 22:27:05,390: 	 The following EDM output files will be collected: ['sherpa_h3z-0p0029_ptmin300_ptmax400_MASTER_cff_py_MINIAODSIM.root']
DEBUG 2018-10-15 22:27:05,390: 	 The following TFile output files will be collected: []
DEBUG 2018-10-15 22:27:05,390: 	 The following user output files will be collected: []
DEBUG 2018-10-15 22:27:05,390: 	 Loading required information from the environment
DEBUG 2018-10-15 22:27:05,390: 	 Found CMSSW_9_4_0_patch1 for slc6_amd64_gcc630 with base /afs/cern.ch/work/m/mwadud/private/naTGC/CMSSW_9_4_0_patch1
DEBUG 2018-10-15 22:27:05,390: 	 Making tarball in /afs/cern.ch/work/m/mwadud/private/naTGC/CMSSW_9_4_0_patch1/src/GeneratorInterface/SherpaInterface/crab_job/jobs/jjg/h3z-0p0029_ptmin300_ptmax400/crab_h3z-0p0029_ptmin300_ptmax400_jjg_MINIAODSIM/inputs/df506fb5-dad1-4f91-9b9c-3144286e8895default.tgz
DEBUG 2018-10-15 22:27:05,511: 	 Checking directory /afs/cern.ch/work/m/mwadud/private/naTGC/CMSSW_9_4_0_patch1/lib
DEBUG 2018-10-15 22:27:05,511: 	 Adding directory /afs/cern.ch/work/m/mwadud/private/naTGC/CMSSW_9_4_0_patch1/lib to tarball
DEBUG 2018-10-15 22:27:06,893: 	 Checking directory /afs/cern.ch/work/m/mwadud/private/naTGC/CMSSW_9_4_0_patch1/biglib
DEBUG 2018-10-15 22:27:06,893: 	 Adding directory /afs/cern.ch/work/m/mwadud/private/naTGC/CMSSW_9_4_0_patch1/biglib to tarball
DEBUG 2018-10-15 22:27:06,894: 	 Checking directory /afs/cern.ch/work/m/mwadud/private/naTGC/CMSSW_9_4_0_patch1/module
DEBUG 2018-10-15 22:27:06,894: 	 Checking directory /afs/cern.ch/work/m/mwadud/private/naTGC/CMSSW_9_4_0_patch1/external
DEBUG 2018-10-15 22:27:06,894: 	 Adding directory /afs/cern.ch/work/m/mwadud/private/naTGC/CMSSW_9_4_0_patch1/external to tarball
DEBUG 2018-10-15 22:27:10,855: 	 Adding data directory /afs/cern.ch/work/m/mwadud/private/naTGC/CMSSW_9_4_0_patch1/src/Configuration/Generator/data to tarball
DEBUG 2018-10-15 22:27:10,967: 	 Adding data directory /afs/cern.ch/work/m/mwadud/private/naTGC/CMSSW_9_4_0_patch1/src/GeneratorInterface/SherpaInterface/data to tarball
DEBUG 2018-10-15 22:27:10,978: 	 Adding data directory /afs/cern.ch/work/m/mwadud/private/naTGC/CMSSW_9_4_0_patch1/src/GeneratorInterface/SherpaInterface/interface to tarball
DEBUG 2018-10-15 22:27:11,262: 	 Adding data directory /afs/cern.ch/work/m/mwadud/private/naTGC/CMSSW_9_4_0_patch1/src/PhysicsTools/TagAndProbe/interface to tarball
DEBUG 2018-10-15 22:27:11,269: 	 Adding data directory /afs/cern.ch/work/m/mwadud/private/naTGC/CMSSW_9_4_0_patch1/src/RecoEgamma/ElectronIdentification/data to tarball
DEBUG 2018-10-15 22:27:11,274: 	 Adding data directory /afs/cern.ch/work/m/mwadud/private/naTGC/CMSSW_9_4_0_patch1/src/RecoEgamma/ElectronIdentification/interface to tarball
DEBUG 2018-10-15 22:27:11,294: 	 Adding data directory /afs/cern.ch/work/m/mwadud/private/naTGC/CMSSW_9_4_0_patch1/src/RecoEgamma/PhotonIdentification/data to tarball
DEBUG 2018-10-15 22:27:11,304: 	 Adding data directory /afs/cern.ch/work/m/mwadud/private/naTGC/CMSSW_9_4_0_patch1/src/RecoEgamma/PhotonIdentification/interface to tarball
DEBUG 2018-10-15 22:27:11,308: 	 Adding file /afs/cern.ch/work/m/mwadud/private/naTGC/CMSSW_9_4_0_patch1/src/GeneratorInterface/SherpaInterface/crab_job/jobs/jjg/h3z-0p0029_ptmin300_ptmax400//sherpa_h3z-0p0029_ptmin300_ptmax400_MASTER.md5 to tarball
DEBUG 2018-10-15 22:27:11,350: 	 Adding file /afs/cern.ch/work/m/mwadud/private/naTGC/CMSSW_9_4_0_patch1/src/GeneratorInterface/SherpaInterface/crab_job/jobs/jjg/h3z-0p0029_ptmin300_ptmax400//sherpa_h3z-0p0029_ptmin300_ptmax400_MASTER.tgz to tarball
DEBUG 2018-10-15 22:27:14,888: 	 Uploading archive /afs/cern.ch/work/m/mwadud/private/naTGC/CMSSW_9_4_0_patch1/src/GeneratorInterface/SherpaInterface/crab_job/jobs/jjg/h3z-0p0029_ptmin300_ptmax400/crab_h3z-0p0029_ptmin300_ptmax400_jjg_MINIAODSIM/inputs/df506fb5-dad1-4f91-9b9c-3144286e8895default.tgz (7.611328.1 MB) to the CRAB cache. Using URI https://cmsweb.cern.ch/crabcache
DEBUG 2018-10-15 22:27:18,465: 	 Loading required information from the environment
DEBUG 2018-10-15 22:27:18,466: 	 Found CMSSW_9_4_0_patch1 for slc6_amd64_gcc630 with base /afs/cern.ch/work/m/mwadud/private/naTGC/CMSSW_9_4_0_patch1
DEBUG 2018-10-15 22:27:18,466: 	 Making tarball in /afs/cern.ch/work/m/mwadud/private/naTGC/CMSSW_9_4_0_patch1/src/GeneratorInterface/SherpaInterface/crab_job/jobs/jjg/h3z-0p0029_ptmin300_ptmax400/crab_h3z-0p0029_ptmin300_ptmax400_jjg_MINIAODSIM/inputs/debugFiles.tgz
DEBUG 2018-10-15 22:27:18,559: 	 Uploading archive /afs/cern.ch/work/m/mwadud/private/naTGC/CMSSW_9_4_0_patch1/src/GeneratorInterface/SherpaInterface/crab_job/jobs/jjg/h3z-0p0029_ptmin300_ptmax400/crab_h3z-0p0029_ptmin300_ptmax400_jjg_MINIAODSIM/inputs/debugFiles.tgz (3 KB) to the CRAB cache. Using URI https://cmsweb.cern.ch/crabcache
DEBUG 2018-10-15 22:27:20,092: 	 Result uploading input files: 419de1afce8793a8f75d6cab3f4bd74feee196167b67f1488781bbd65e92925c.tar.gz 
INFO 2018-10-15 22:27:20,093: 	 Sending the request to the server
DEBUG 2018-10-15 22:27:20,105: 	 Submitting {'maxjobruntime': 1250, 'extrajdl': [], 'ignorelocality': 1, 'savelogsflag': 1, 'useparent': 0, 'asyncdest': 'T3_US_FNALLPC', 'algoargs': 50, 'cachefilename': '419de1afce8793a8f75d6cab3f4bd74feee196167b67f1488781bbd65e92925c.tar.gz', 'numcores': 1, 'addoutputfiles': [], 'generator': 'pythia', 'maxmemory': 4000, 'publishdbsurl': 'https://cmsweb.cern.ch/dbs/prod/phys03/DBSWriter', 'priority': 10, 'jobsw': 'CMSSW_9_4_0_patch1', 'edmoutfiles': ['sherpa_h3z-0p0029_ptmin300_ptmax400_MASTER_cff_py_MINIAODSIM.root'], 'userfiles': [], 'primarydataset': '', 'inputdata': '/aNTGC_h3z-0p0029_ptmin300_ptmax400_jjg_10Oct2018/mwadud-aNTGC_h3z-0p0029_ptmin300_ptmax400_jjg_10Oct2018-f5d6918dde9404c5cc13c69e2361eeb6/USER', 'lfn': '/store/user/mwadud/aNTGC/crab/', 'dryrun': 0, 'workflow': 'crab_h3z-0p0029_ptmin300_ptmax400_jjg_MINIAODSIM', 'sitewhitelist': ['T2_US*'], 'nonprodsw': 0, 'tfileoutfiles': [], 'oneEventMode': 0, 'debugfilename': '4dc09e77980f5f7959f00280c6f7c15d7f55f5ed09ce41692d74f4129cbe667f.tar.gz', 'cacheurl': u'https://cmsweb.cern.ch/crabcache', 'saveoutput': 1, 'publication': 1, 'jobarch': 'slc6_amd64_gcc630', 'totalunits': 10000, 'splitalgo': 'EventAwareLumiBased', 'ignoreglobalblacklist': 0, 'nonvaliddata': 1, 'dbsurl': 'https://cmsweb.cern.ch/dbs/prod/phys03/DBSReader', 'publishgroupname': 0, 'jobtype': 'Analysis', 'siteblacklist': ['T2_US_Vanderbilt'], 'publishname2': 'aNTGC_h3z-0p0029_ptmin300_ptmax400_jjg_MINIAODSIM_10Oct2018'} 
DEBUG 2018-10-15 22:27:20,105: 	 Encoded submit request: maxjobruntime=1250&ignorelocality=1&savelogsflag=1&useparent=0&asyncdest=T3_US_FNALLPC&algoargs=50&cachefilename=419de1afce8793a8f75d6cab3f4bd74feee196167b67f1488781bbd65e92925c.tar.gz&numcores=1&generator=pythia&maxmemory=4000&publishdbsurl=https%3A%2F%2Fcmsweb.cern.ch%2Fdbs%2Fprod%2Fphys03%2FDBSWriter&priority=10&jobsw=CMSSW_9_4_0_patch1&primarydataset=&inputdata=%2FaNTGC_h3z-0p0029_ptmin300_ptmax400_jjg_10Oct2018%2Fmwadud-aNTGC_h3z-0p0029_ptmin300_ptmax400_jjg_10Oct2018-f5d6918dde9404c5cc13c69e2361eeb6%2FUSER&lfn=%2Fstore%2Fuser%2Fmwadud%2FaNTGC%2Fcrab%2F&dryrun=0&workflow=crab_h3z-0p0029_ptmin300_ptmax400_jjg_MINIAODSIM&nonprodsw=0&oneEventMode=0&debugfilename=4dc09e77980f5f7959f00280c6f7c15d7f55f5ed09ce41692d74f4129cbe667f.tar.gz&cacheurl=https%3A%2F%2Fcmsweb.cern.ch%2Fcrabcache&saveoutput=1&publication=1&jobarch=slc6_amd64_gcc630&totalunits=10000&splitalgo=EventAwareLumiBased&ignoreglobalblacklist=0&nonvaliddata=1&dbsurl=https%3A%2F%2Fcmsweb.cern.ch%2Fdbs%2Fprod%2Fphys03%2FDBSReader&publishgroupname=0&jobtype=Analysis&publishname2=aNTGC_h3z-0p0029_ptmin300_ptmax400_jjg_MINIAODSIM_10Oct2018&sitewhitelist=T2_US%2A&siteblacklist=T2_US_Vanderbilt&edmoutfiles=sherpa_h3z-0p0029_ptmin300_ptmax400_MASTER_cff_py_MINIAODSIM.root
DEBUG 2018-10-15 22:27:22,837: 	 Result: {u'result': [{u'RequestName': u'181015_202721:mwadud_crab_h3z-0p0029_ptmin300_ptmax400_jjg_MINIAODSIM'}]}
INFO 2018-10-15 22:27:22,868: 	 Success: Your task has been delivered to the CRAB3 server.
INFO 2018-10-15 22:27:22,869: 	 Task name: 181015_202721:mwadud_crab_h3z-0p0029_ptmin300_ptmax400_jjg_MINIAODSIM
INFO 2018-10-15 22:27:22,869: 	 Please use 'crab status' to check how the submission process proceeds.
DEBUG 2018-10-15 22:27:22,869: 	 About to return
DEBUG 2018-10-16 06:29:41,801: 	 Executing command: 'status'
DEBUG 2018-10-16 06:29:41,801: 	 Found CRAB cache file /afs/cern.ch/user/m/mwadud/.crab3
DEBUG 2018-10-16 06:29:41,836: 	 Checking credentials
DEBUG 2018-10-16 06:29:41,836: 	 Found proxy file /tmp/x509up_u91892
DEBUG 2018-10-16 06:29:41,836: 	 Getting proxy life time left
DEBUG 2018-10-16 06:29:43,063: 	 Executing : 
 command : voms-proxy-info -file /tmp/x509up_u91892 -timeleft
 output : 604765

 error: 
 retcode : 0
DEBUG 2018-10-16 06:29:44,079: 	 Executing : 
 command : voms-proxy-info -file /tmp/x509up_u91892 -actimeleft
 output : 604763

 error: 
 retcode : 0
DEBUG 2018-10-16 06:29:44,079: 	 Proxy valid for 167:59:25 hours
DEBUG 2018-10-16 06:29:44,261: 	 Executing : 
 command : openssl x509 -in ~/.globus/usercert.pem -subject -noout
 output : subject= /DC=ch/DC=cern/OU=Organic Units/OU=Users/CN=mwadud/CN=793344/CN=Mohammad Abrar Wadud

 error: 
 retcode : 0
DEBUG 2018-10-16 06:29:44,261: 	 Checking credentials
DEBUG 2018-10-16 06:29:44,261: 	 Found proxy file /tmp/x509up_u91892
DEBUG 2018-10-16 06:29:44,261: 	 Getting proxy life time left
DEBUG 2018-10-16 06:29:45,386: 	 Executing : 
 command : voms-proxy-info -file /tmp/x509up_u91892 -timeleft
 output : 604762

 error: 
 retcode : 0
DEBUG 2018-10-16 06:29:46,717: 	 Executing : 
 command : voms-proxy-info -file /tmp/x509up_u91892 -actimeleft
 output : 604761

 error: 
 retcode : 0
DEBUG 2018-10-16 06:29:46,717: 	 Proxy valid for 167:59:22 hours
DEBUG 2018-10-16 06:29:47,752: 	 Registering user credentials for server /DC=ch/DC=cern/OU=computers/CN=vocms(052|031|0118|0105|0109).cern.ch|/DC=ch/DC=cern/OU=computers/CN=crab-(preprod|prod)-tw(02|01).cern.ch
DEBUG 2018-10-16 06:29:47,869: 	 Executing : 
 command : openssl x509 -in ~/.globus/usercert.pem -subject -noout
 output : subject= /DC=ch/DC=cern/OU=Organic Units/OU=Users/CN=mwadud/CN=793344/CN=Mohammad Abrar Wadud

 error: 
 retcode : 0
DEBUG 2018-10-16 06:29:47,870: 	 Getting myproxy life time left for myproxy.cern.ch
DEBUG 2018-10-16 06:29:47,870: 	 Calculating hash of /DC=ch/DC=cern/OU=Organic Units/OU=Users/CN=mwadud/CN=793344/CN=Mohammad Abrar Wadud_cmsweb.cern.ch for credential name
DEBUG 2018-10-16 06:29:48,176: 	 Executing : 
 command : myproxy-info -l d7faec65772fb432ca96037f20977f98fa77c7ca -s myproxy.cern.ch
 output : username: d7faec65772fb432ca96037f20977f98fa77c7ca
owner: /DC=ch/DC=cern/OU=Organic Units/OU=Users/CN=mwadud/CN=793344/CN=Mohammad Abrar Wadud
  renewal policy: /DC=ch/DC=cern/OU=computers/CN=vocms(052|031|0118|0105|0109).cern.ch|/DC=ch/DC=cern/OU=computers/CN=crab-(preprod|prod)-tw(02|01).cern.ch
  trusted retrieval policy: /DC=ch/DC=cern/OU=computers/CN=vocms(052|031|0118|0105|0109).cern.ch|/DC=ch/DC=cern/OU=computers/CN=crab-(preprod|prod)-tw(02|01).cern.ch
  timeleft: 538:33:20  (22.4 days)

 error: 
 retcode : 0
DEBUG 2018-10-16 06:29:48,178: 	 Myproxy is valid: 1938800
DEBUG 2018-10-16 06:29:48,178: 	 Command use: status
DEBUG 2018-10-16 06:29:48,178: 	 Options use: ['-d', '/afs/cern.ch/work/m/mwadud/private/naTGC/CMSSW_9_4_0_patch1/src/GeneratorInterface/SherpaInterface/crab_job/jobs/jjg/h3z-0p0029_ptmin300_ptmax400/crab_h3z-0p0029_ptmin300_ptmax400_jjg_MINIAODSIM/']
DEBUG 2018-10-16 06:29:49,077: 	 CRABClient version: 3.3.1809
DEBUG 2018-10-16 06:29:49,077: 	 Instance is prod
DEBUG 2018-10-16 06:29:49,077: 	 Server base url is cmsweb.cern.ch
DEBUG 2018-10-16 06:29:49,077: 	 Command url /crabserver/prod/workflow
DEBUG 2018-10-16 06:29:50,036: 	 Got information from server oracle database: {u'result': [u'181015_202721:mwadud_crab_h3z-0p0029_ptmin300_ptmax400_jjg_MINIAODSIM', u'None', u'None', u'SUBMITTED', u'SUBMIT', u'2018-10-15 20:27:22.576957', u'None', u'2018-10-15 20:28:19.260082', u'None', u'CMSSW_9_4_0_patch1', u'slc6_amd64_gcc630', u'/aNTGC_h3z-0p0029_ptmin300_ptmax400_jjg_10Oct2018/mwadud-aNTGC_h3z-0p0029_ptmin300_ptmax400_jjg_10Oct2018-f5d6918dde9404c5cc13c69e2361eeb6/USER', u'T', u'0', u"['T2_US_UCSD', 'T2_US_Wisconsin', 'T2_US_Florida', 'T2_US_MIT', 'T2_US_Caltech', 'T2_US_Purdue', 'T2_US_Nebraska', 'T2_US_Vanderbilt']", u"['T2_US_Vanderbilt']", u'EventAwareLumiBased', u"{'splitOnRun': False, 'events_per_job': 50, 'halt_job_on_file_boundaries': False, 'runs': [], 'lumis': []}", u'419de1afce8793a8f75d6cab3f4bd74feee196167b67f1488781bbd65e92925c.tar.gz', u'https://cmsweb.cern.ch/crabcache', u'mwadud', u'/DC=ch/DC=cern/OU=Organic Units/OU=Users/CN=mwadud/CN=793344/CN=Mohammad Abrar Wadud', u'cms', u'None', u'None', u'aNTGC_h3z-0p0029_ptmin300_ptmax400_jjg_MINIAODSIM_10Oct2018-00000000000000000000000000000000', u'F', u'T3_US_FNALLPC', u'https://cmsweb.cern.ch/dbs/prod/phys03/DBSReader', u'https://cmsweb.cern.ch/dbs/prod/phys03/DBSWriter', u'T', u'[]', u'[]', u"['sherpa_h3z-0p0029_ptmin300_ptmax400_MASTER_cff_py_MINIAODSIM.root']", u'Analysis', u'pythia', u'None', u'{}', u'[]', u'T', u'crab-prod-tw01', u'[]', u'1250', u'1', u'4000', u'10', u"['/aNTGC_h3z-0p0029_ptmin300_ptmax400_jjg_10Oct2018/mwadud-aNTGC_h3z-0p0029_ptmin300_ptmax400_jjg_MINIAODSIM_10Oct2018-eb0b3152a5410114e39f7ab94e508942/USER']", u'["The following sites appear in both the user site blacklist and whitelist: [u\'T2_US_Vanderbilt\']. Since the whitelist has precedence, these sites are not considered in the blacklist.", \'Task requests 4000 MB of memory, but only 2500 MB are guaranteed to be available. Jobs may not find a site where to run and stay idle forever.\']', u'http://vocms0155.cern.ch/mon/cms1292/181015_202721:mwadud_crab_h3z-0p0029_ptmin300_ptmax400_jjg_MINIAODSIM', u'None', u'[]', u'[]', u'https://cmsweb.cern.ch/crabserver/prod', u'cmsgwms-collector-global.cern.ch:9620,cmssrv221.fnal.gov:9620', u'crab3@vocms0155.cern.ch', u'F', u'[]', u'T', u'/store/user/mwadud/aNTGC/crab/', u'T', u'None', u'F', u'None', u'aNTGC_h3z-0p0029_ptmin300_ptmax400_jjg_10Oct2018', u'2018-10-16 01:16:03.640822', u'4dc09e77980f5f7959f00280c6f7c15d7f55f5ed09ce41692d74f4129cbe667f.tar.gz', u'29064666', u'filetransfers', u'F', u'188.184.94.19', u'10000.0', u'None'], u'desc': {u'columns': [u'tm_taskname', u'tm_activity', u'panda_jobset_id', u'tm_task_status', u'tm_task_command', u'tm_start_time', u'tm_start_injection', u'tm_end_injection', u'tm_task_failure', u'tm_job_sw', u'tm_job_arch', u'tm_input_dataset', u'tm_nonvalid_input_dataset', u'tm_use_parent', u'tm_site_whitelist', u'tm_site_blacklist', u'tm_split_algo', u'tm_split_args', u'tm_user_sandbox', u'tm_cache_url', u'tm_username', u'tm_user_dn', u'tm_user_vo', u'tm_user_role', u'tm_user_group', u'tm_publish_name', u'tm_publish_groupname', u'tm_asyncdest', u'tm_dbs_url', u'tm_publish_dbs_url', u'tm_publication', u'tm_outfiles', u'tm_tfile_outfiles', u'tm_edm_outfiles', u'tm_job_type', u'tm_generator', u'tm_events_per_lumi', u'tm_arguments', u'panda_resubmitted_jobs', u'tm_save_logs', u'tw_name', u'tm_user_infiles', u'tm_maxjobruntime', u'tm_numcores', u'tm_maxmemory', u'tm_priority', u'tm_output_dataset', u'tm_task_warnings', u'tm_user_webdir', u'tm_scriptexe', u'tm_scriptargs', u'tm_extrajdl', u'tm_asourl', u'tm_collector', u'tm_schedd', u'tm_dry_run', u'tm_user_files', u'tm_transfer_outputs', u'tm_output_lfn', u'tm_ignore_locality', u'tm_fail_limit', u'tm_one_event_mode', u'tm_secondary_input_dataset', u'tm_primary_dataset', u'tm_last_publication', u'tm_debug_files', u'clusterid', u'tm_asodb', u'tm_ignore_global_blacklist', u'tm_submitter_ip_addr', u'tm_totalunits', u'tm_ddm_reqid']}}
INFO 2018-10-16 06:29:50,037: 	 CRAB project directory:		/afs/cern.ch/work/m/mwadud/private/naTGC/CMSSW_9_4_0_patch1/src/GeneratorInterface/SherpaInterface/crab_job/jobs/jjg/h3z-0p0029_ptmin300_ptmax400/crab_h3z-0p0029_ptmin300_ptmax400_jjg_MINIAODSIM/
INFO 2018-10-16 06:29:50,037: 	 Task name:			181015_202721:mwadud_crab_h3z-0p0029_ptmin300_ptmax400_jjg_MINIAODSIM
INFO 2018-10-16 06:29:50,037: 	 Grid scheduler - Task Worker:	crab3@vocms0155.cern.ch - crab-prod-tw01
INFO 2018-10-16 06:29:50,037: 	 Status on the CRAB server:	SUBMITTED
INFO 2018-10-16 06:29:50,037: 	 Task URL to use for HELP:	https://cmsweb.cern.ch/crabserver/ui/task/181015_202721%3Amwadud_crab_h3z-0p0029_ptmin300_ptmax400_jjg_MINIAODSIM
INFO 2018-10-16 06:29:50,037: 	 Dashboard monitoring URL:	http://dashb-cms-job.cern.ch/dashboard/templates/task-analysis/#user=mwadud&refresh=0&table=Jobs&p=1&records=25&activemenu=2&status=&site=&tid=181015_202721%3Amwadud_crab_h3z-0p0029_ptmin300_ptmax400_jjg_MINIAODSIM
WARNING 2018-10-16 06:29:50,038: 	 Warning:			The following sites appear in both the user site blacklist and whitelist: [u'T2_US_Vanderbilt']. Since the whitelist has precedence, these sites are not considered in the blacklist.
WARNING 2018-10-16 06:29:50,038: 	 Warning:			Task requests 4000 MB of memory, but only 2500 MB are guaranteed to be available. Jobs may not find a site where to run and stay idle forever.
DEBUG 2018-10-16 06:29:50,038: 	 The CRAB server submitted your task to the Grid scheduler (cluster ID: 29064666)
DEBUG 2018-10-16 06:29:50,038: 	 Webdir is located at http://vocms0155.cern.ch/mon/cms1292/181015_202721:mwadud_crab_h3z-0p0029_ptmin300_ptmax400_jjg_MINIAODSIM
DEBUG 2018-10-16 06:29:51,037: 	 Proxied webdir is located at https://cmsweb.cern.ch/scheddmon/0155/cms1292/181015_202721:mwadud_crab_h3z-0p0029_ptmin300_ptmax400_jjg_MINIAODSIM
DEBUG 2018-10-16 06:29:51,038: 	 Retrieving 'status_cache' file from https://cmsweb.cern.ch/scheddmon/0155/cms1292/181015_202721:mwadud_crab_h3z-0p0029_ptmin300_ptmax400_jjg_MINIAODSIM/status_cache
DEBUG 2018-10-16 06:29:52,001: 	 Got information from status cache file: {'133': {'Retries': 0, 'WallDurations': [0, 515.0], 'StartTimes': [1539635662.0], 'SubmitTimes': [1539635357.0], 'JobIds': ['29064801.0'], 'EndTimes': [1539636177.0], 'Restarts': 0, 'RecordedSite': True, 'State': 'finished', 'ResidentSetSize': [1517336], 'TotalUserCpuTimeHistory': [157], 'SiteHistory': ['Unknown', 'T2_US_MIT'], 'TotalSysCpuTimeHistory': [19]}, '132': {'Retries': 0, 'WallDurations': [0, 302.0], 'StartTimes': [1539635663.0], 'SubmitTimes': [1539635357.0], 'JobIds': ['29064800.0'], 'EndTimes': [1539635965.0], 'Restarts': 0, 'RecordedSite': True, 'State': 'finished', 'ResidentSetSize': [2248], 'TotalUserCpuTimeHistory': [217], 'SiteHistory': ['Unknown', 'T2_US_Vanderbilt'], 'TotalSysCpuTimeHistory': [13]}, '131': {'Retries': 0, 'WallDurations': [0, 1091.0], 'StartTimes': [1539635661.0], 'SubmitTimes': [1539635357.0], 'JobIds': ['29064799.0'], 'EndTimes': [1539636752.0], 'Restarts': 0, 'RecordedSite': True, 'State': 'finished', 'ResidentSetSize': [1550620], 'TotalUserCpuTimeHistory': [142], 'SiteHistory': ['Unknown', 'T2_US_MIT'], 'TotalSysCpuTimeHistory': [14]}, '130': {'Retries': 0, 'WallDurations': [0, 620.0], 'StartTimes': [1539635660.0], 'SubmitTimes': [1539635356.0], 'JobIds': ['29064797.0'], 'EndTimes': [1539636280.0], 'Restarts': 0, 'RecordedSite': True, 'State': 'finished', 'ResidentSetSize': [1357828], 'TotalUserCpuTimeHistory': [161], 'SiteHistory': ['Unknown', 'T2_US_MIT'], 'TotalSysCpuTimeHistory': [15]}, '137': {'Retries': 0, 'WallDurations': [0, 471.0], 'StartTimes': [1539635664.0], 'SubmitTimes': [1539635358.0], 'JobIds': ['29064805.0'], 'EndTimes': [1539636135.0], 'Restarts': 0, 'RecordedSite': True, 'State': 'finished', 'ResidentSetSize': [1557620], 'TotalUserCpuTimeHistory': [163], 'SiteHistory': ['Unknown', 'T2_US_MIT'], 'TotalSysCpuTimeHistory': [15]}, '136': {'Retries': 0, 'WallDurations': [0, 1342.0], 'StartTimes': [1539635664.0], 'SubmitTimes': [1539635357.0], 'JobIds': ['29064804.0'], 'EndTimes': [1539637006.0], 'Restarts': 0, 'RecordedSite': True, 'State': 'finished', 'ResidentSetSize': [1571556], 'TotalUserCpuTimeHistory': [172], 'SiteHistory': ['Unknown', 'T2_US_MIT'], 'TotalSysCpuTimeHistory': [7]}, '135': {'Retries': 0, 'WallDurations': [9.0, 499.0], 'StartTimes': [1539635669.0], 'SubmitTimes': [1539635357.0], 'JobIds': ['29064803.0'], 'EndTimes': [1539636168.0], 'Restarts': 0, 'RecordedSite': True, 'State': 'finished', 'ResidentSetSize': [1620964], 'TotalUserCpuTimeHistory': [180], 'SiteHistory': ['Unknown', 'T2_US_MIT'], 'TotalSysCpuTimeHistory': [8]}, '134': {'Retries': 0, 'WallDurations': [0, 483.0], 'StartTimes': [1539635661.0], 'SubmitTimes': [1539635357.0], 'JobIds': ['29064802.0'], 'EndTimes': [1539636144.0], 'Restarts': 0, 'RecordedSite': True, 'State': 'finished', 'ResidentSetSize': [1544736], 'TotalUserCpuTimeHistory': [138], 'SiteHistory': ['Unknown', 'T2_US_MIT'], 'TotalSysCpuTimeHistory': [9]}, '139': {'Retries': 0, 'WallDurations': [0, 544.0], 'StartTimes': [1539635662.0], 'SubmitTimes': [1539635358.0], 'JobIds': ['29064807.0'], 'EndTimes': [1539636206.0], 'Restarts': 0, 'RecordedSite': True, 'State': 'finished', 'ResidentSetSize': [1562768], 'TotalUserCpuTimeHistory': [130], 'SiteHistory': ['Unknown', 'T2_US_MIT'], 'TotalSysCpuTimeHistory': [12]}, '138': {'Retries': 0, 'WallDurations': [0, 1098.0], 'StartTimes': [1539635662.0], 'SubmitTimes': [1539635358.0], 'JobIds': ['29064806.0'], 'EndTimes': [1539636760.0], 'Restarts': 0, 'RecordedSite': True, 'State': 'finished', 'ResidentSetSize': [1553280], 'TotalUserCpuTimeHistory': [190], 'SiteHistory': ['Unknown', 'T2_US_MIT'], 'TotalSysCpuTimeHistory': [14]}, '93': {'Retries': 0, 'WallDurations': [8.0, 315.0], 'StartTimes': [1539635565.0], 'SubmitTimes': [1539635346.0], 'JobIds': ['29064762.0'], 'EndTimes': [1539635880.0], 'Restarts': 0, 'RecordedSite': True, 'State': 'finished', 'ResidentSetSize': [58988], 'TotalUserCpuTimeHistory': [181], 'SiteHistory': ['Unknown', 'T2_US_MIT'], 'TotalSysCpuTimeHistory': [11]}, '24': {'Retries': 0, 'WallDurations': [8.0, 263.0], 'StartTimes': [1539635563.0], 'SubmitTimes': [1539635316.0], 'JobIds': ['29064692.0'], 'EndTimes': [1539635826.0], 'Restarts': 0, 'RecordedSite': True, 'State': 'finished', 'ResidentSetSize': [79988], 'TotalUserCpuTimeHistory': [134], 'SiteHistory': ['Unknown', 'T2_US_MIT'], 'TotalSysCpuTimeHistory': [15]}, '25': {'Retries': 0, 'WallDurations': [9.0, 263.0], 'StartTimes': [1539635565.0], 'SubmitTimes': [1539635317.0], 'JobIds': ['29064693.0'], 'EndTimes': [1539635828.0], 'Restarts': 0, 'RecordedSite': True, 'State': 'finished', 'ResidentSetSize': [2624], 'TotalUserCpuTimeHistory': [179], 'SiteHistory': ['Unknown', 'T2_US_Caltech'], 'TotalSysCpuTimeHistory': [8]}, '26': {'Retries': 0, 'WallDurations': [9.0, 341.0], 'StartTimes': [1539635560.0], 'SubmitTimes': [1539635322.0], 'JobIds': ['29064695.0'], 'EndTimes': [1539635901.0], 'Restarts': 0, 'RecordedSite': True, 'State': 'finished', 'ResidentSetSize': [1677320], 'TotalUserCpuTimeHistory': [146], 'SiteHistory': ['Unknown', 'T2_US_MIT'], 'TotalSysCpuTimeHistory': [13]}, '27': {'Retries': 0, 'WallDurations': [9.0, 534.0], 'StartTimes': [1539635562.0], 'SubmitTimes': [1539635322.0], 'JobIds': ['29064696.0'], 'EndTimes': [1539636096.0], 'Restarts': 0, 'RecordedSite': True, 'State': 'finished', 'ResidentSetSize': [1654908], 'TotalUserCpuTimeHistory': [282], 'SiteHistory': ['Unknown', 'T2_US_MIT'], 'TotalSysCpuTimeHistory': [12]}, '20': {'Retries': 0, 'WallDurations': [9.0, 526.0], 'StartTimes': [1539635561.0], 'SubmitTimes': [1539635315.0], 'JobIds': ['29064685.0'], 'EndTimes': [1539636087.0], 'Restarts': 0, 'RecordedSite': True, 'State': 'finished', 'ResidentSetSize': [1655948], 'TotalUserCpuTimeHistory': [254], 'SiteHistory': ['Unknown', 'T2_US_MIT'], 'TotalSysCpuTimeHistory': [14]}, '21': {'Retries': 0, 'WallDurations': [9.0, 566.0], 'StartTimes': [1539636311.0], 'SubmitTimes': [1539635369.0], 'JobIds': ['29064849.0'], 'EndTimes': [1539636877.0], 'Restarts': 0, 'RecordedSite': True, 'State': 'finished', 'ResidentSetSize': [900696], 'TotalUserCpuTimeHistory': [263], 'SiteHistory': ['Unknown', 'T2_US_Nebraska'], 'TotalSysCpuTimeHistory': [74]}, '22': {'Retries': 0, 'WallDurations': [9.0, 368.0], 'StartTimes': [1539635559.0], 'SubmitTimes': [1539635316.0], 'JobIds': ['29064690.0'], 'EndTimes': [1539635927.0], 'Restarts': 0, 'RecordedSite': True, 'State': 'finished', 'ResidentSetSize': [1806180], 'TotalUserCpuTimeHistory': [198], 'SiteHistory': ['Unknown', 'T2_US_MIT'], 'TotalSysCpuTimeHistory': [14]}, '23': {'Retries': 0, 'WallDurations': [8.0, 422.0], 'StartTimes': [1539635563.0], 'SubmitTimes': [1539635316.0], 'JobIds': ['29064691.0'], 'EndTimes': [1539635985.0], 'Restarts': 0, 'RecordedSite': True, 'State': 'finished', 'ResidentSetSize': [1778512], 'TotalUserCpuTimeHistory': [223], 'SiteHistory': ['Unknown', 'T2_US_MIT'], 'TotalSysCpuTimeHistory': [16]}, '95': {'Retries': 0, 'WallDurations': [9.0, 2081.0], 'StartTimes': [1539635565.0], 'SubmitTimes': [1539635347.0], 'JobIds': ['29064764.0'], 'EndTimes': [1539637646.0], 'Restarts': 0, 'RecordedSite': True, 'State': 'finished', 'ResidentSetSize': [1629892], 'TotalUserCpuTimeHistory': [169], 'SiteHistory': ['Unknown', 'T2_US_Wisconsin'], 'TotalSysCpuTimeHistory': [19]}, '28': {'Retries': 0, 'WallDurations': [8.0, 301.0], 'StartTimes': [1539635561.0], 'SubmitTimes': [1539635322.0], 'JobIds': ['29064697.0'], 'EndTimes': [1539635862.0], 'Restarts': 0, 'RecordedSite': True, 'State': 'finished', 'ResidentSetSize': [2548], 'TotalUserCpuTimeHistory': [155], 'SiteHistory': ['Unknown', 'T2_US_MIT'], 'TotalSysCpuTimeHistory': [13]}, '29': {'Retries': 0, 'WallDurations': [8.0, 265.0], 'StartTimes': [1539635562.0], 'SubmitTimes': [1539635322.0], 'JobIds': ['29064698.0'], 'EndTimes': [1539635827.0], 'Restarts': 0, 'RecordedSite': True, 'State': 'finished', 'ResidentSetSize': [16368], 'TotalUserCpuTimeHistory': [117], 'SiteHistory': ['Unknown', 'T2_US_MIT'], 'TotalSysCpuTimeHistory': [6]}, '94': {'Retries': 0, 'WallDurations': [8.0, 152.0], 'StartTimes': [1539635565.0], 'SubmitTimes': [1539635346.0], 'JobIds': ['29064763.0'], 'EndTimes': [1539635717.0], 'Restarts': 0, 'RecordedSite': True, 'State': 'finished', 'ResidentSetSize': [2648], 'TotalUserCpuTimeHistory': [105], 'SiteHistory': ['Unknown', 'T2_US_Purdue'], 'TotalSysCpuTimeHistory': [5]}, '4': {'Retries': 0, 'WallDurations': [9.0, 576.0], 'StartTimes': [1539635658.0], 'SubmitTimes': [1539635311.0], 'JobIds': ['29064670.0'], 'EndTimes': [1539636234.0], 'Restarts': 0, 'RecordedSite': True, 'State': 'finished', 'ResidentSetSize': [1350080], 'TotalUserCpuTimeHistory': [144], 'SiteHistory': ['Unknown', 'T2_US_MIT'], 'TotalSysCpuTimeHistory': [18]}, '8': {'Retries': 0, 'WallDurations': [9.0, 614.0], 'StartTimes': [1539635499.0], 'SubmitTimes': [1539635314.0], 'JobIds': ['29064677.0'], 'EndTimes': [1539636113.0], 'Restarts': 0, 'RecordedSite': True, 'State': 'finished', 'ResidentSetSize': [889060], 'TotalUserCpuTimeHistory': [266], 'SiteHistory': ['Unknown', 'T2_US_Nebraska'], 'TotalSysCpuTimeHistory': [67]}, '96': {'Retries': 0, 'WallDurations': [8.0, 303.0], 'StartTimes': [1539635566.0], 'SubmitTimes': [1539635347.0], 'JobIds': ['29064765.0'], 'EndTimes': [1539635869.0], 'Restarts': 0, 'RecordedSite': True, 'State': 'finished', 'ResidentSetSize': [1744], 'TotalUserCpuTimeHistory': [226], 'SiteHistory': ['Unknown', 'T2_US_Vanderbilt'], 'TotalSysCpuTimeHistory': [10]}, '68': {'Retries': 0, 'WallDurations': [9.0, 312.0], 'StartTimes': [1539635564.0], 'SubmitTimes': [1539635337.0], 'JobIds': ['29064735.0'], 'EndTimes': [1539635876.0], 'Restarts': 0, 'RecordedSite': True, 'State': 'finished', 'ResidentSetSize': [105828], 'TotalUserCpuTimeHistory': [139], 'SiteHistory': ['Unknown', 'T2_US_MIT'], 'TotalSysCpuTimeHistory': [12]}, '120': {'Retries': 0, 'WallDurations': [9.0, 712.0], 'StartTimes': [1539635569.0], 'SubmitTimes': [1539635355.0], 'JobIds': ['29064786.0'], 'EndTimes': [1539636281.0], 'Restarts': 0, 'RecordedSite': True, 'State': 'finished', 'ResidentSetSize': [35396], 'TotalUserCpuTimeHistory': [189], 'SiteHistory': ['Unknown', 'T2_US_Nebraska'], 'TotalSysCpuTimeHistory': [78]}, '121': {'Retries': 0, 'WallDurations': [8.0, 537.0], 'StartTimes': [1539635573.0], 'SubmitTimes': [1539635355.0], 'JobIds': ['29064789.0'], 'EndTimes': [1539636110.0], 'Restarts': 0, 'RecordedSite': True, 'State': 'finished', 'ResidentSetSize': [1808736], 'TotalUserCpuTimeHistory': [196], 'SiteHistory': ['Unknown', 'T2_US_MIT'], 'TotalSysCpuTimeHistory': [17]}, '122': {'Retries': 0, 'WallDurations': [10.0, 503.0], 'StartTimes': [1539635568.0], 'SubmitTimes': [1539635355.0], 'JobIds': ['29064790.0'], 'EndTimes': [1539636071.0], 'Restarts': 0, 'RecordedSite': True, 'State': 'finished', 'ResidentSetSize': [1784368], 'TotalUserCpuTimeHistory': [402], 'SiteHistory': ['Unknown', 'T2_US_Vanderbilt'], 'TotalSysCpuTimeHistory': [16]}, '123': {'Retries': 0, 'WallDurations': [9.0, 830.0], 'StartTimes': [1539635568.0], 'SubmitTimes': [1539635356.0], 'JobIds': ['29064792.0'], 'EndTimes': [1539636398.0], 'Restarts': 0, 'RecordedSite': True, 'State': 'finished', 'ResidentSetSize': [27756], 'TotalUserCpuTimeHistory': [240], 'SiteHistory': ['Unknown', 'T2_US_Nebraska'], 'TotalSysCpuTimeHistory': [82]}, '124': {'Retries': 0, 'WallDurations': [10.0, 676.0], 'StartTimes': [1539635568.0], 'SubmitTimes': [1539635355.0], 'JobIds': ['29064791.0'], 'EndTimes': [1539636244.0], 'Restarts': 0, 'RecordedSite': True, 'State': 'finished', 'ResidentSetSize': [1635144], 'TotalUserCpuTimeHistory': [276], 'SiteHistory': ['Unknown', 'T2_US_Nebraska'], 'TotalSysCpuTimeHistory': [98]}, '125': {'Retries': 0, 'WallDurations': [9.0, 778.0], 'StartTimes': [1539635568.0], 'SubmitTimes': [1539635356.0], 'JobIds': ['29064793.0'], 'EndTimes': [1539636346.0], 'Restarts': 0, 'RecordedSite': True, 'State': 'finished', 'ResidentSetSize': [21372], 'TotalUserCpuTimeHistory': [228], 'SiteHistory': ['Unknown', 'T2_US_Nebraska'], 'TotalSysCpuTimeHistory': [79]}, '126': {'Retries': 0, 'WallDurations': [8.0, 626.0], 'StartTimes': [1539635569.0], 'SubmitTimes': [1539635356.0], 'JobIds': ['29064794.0'], 'EndTimes': [1539636195.0], 'Restarts': 0, 'RecordedSite': True, 'State': 'finished', 'ResidentSetSize': [1665168], 'TotalUserCpuTimeHistory': [265], 'SiteHistory': ['Unknown', 'T2_US_Nebraska'], 'TotalSysCpuTimeHistory': [81]}, '127': {'Retries': 0, 'WallDurations': [8.0, 554.0], 'StartTimes': [1539635660.0], 'SubmitTimes': [1539635356.0], 'JobIds': ['29064796.0'], 'EndTimes': [1539636214.0], 'Restarts': 0, 'RecordedSite': True, 'State': 'finished', 'ResidentSetSize': [1778124], 'TotalUserCpuTimeHistory': [455], 'SiteHistory': ['Unknown', 'T2_US_Vanderbilt'], 'TotalSysCpuTimeHistory': [15]}, '128': {'Retries': 0, 'WallDurations': [10.0, 381.0], 'StartTimes': [1539635668.0], 'SubmitTimes': [1539635356.0], 'JobIds': ['29064795.0'], 'EndTimes': [1539636049.0], 'Restarts': 0, 'RecordedSite': True, 'State': 'finished', 'ResidentSetSize': [33988], 'TotalUserCpuTimeHistory': [221], 'SiteHistory': ['Unknown', 'T2_US_UCSD'], 'TotalSysCpuTimeHistory': [7]}, '129': {'Retries': 0, 'WallDurations': [0, 804.0], 'StartTimes': [1539635663.0], 'SubmitTimes': [1539635356.0], 'JobIds': ['29064798.0'], 'EndTimes': [1539636467.0], 'Restarts': 0, 'RecordedSite': True, 'State': 'finished', 'ResidentSetSize': [1528240], 'TotalUserCpuTimeHistory': [158], 'SiteHistory': ['Unknown', 'T2_US_MIT'], 'TotalSysCpuTimeHistory': [23]}, '69': {'Retries': 0, 'WallDurations': [9.0, 875.0], 'StartTimes': [1539635565.0], 'SubmitTimes': [1539635337.0], 'JobIds': ['29064738.0'], 'EndTimes': [1539636440.0], 'Restarts': 0, 'RecordedSite': True, 'State': 'finished', 'ResidentSetSize': [24788], 'TotalUserCpuTimeHistory': [248], 'SiteHistory': ['Unknown', 'T2_US_Nebraska'], 'TotalSysCpuTimeHistory': [90]}, '91': {'Retries': 0, 'WallDurations': [9.0, 359.0], 'StartTimes': [1539635562.0], 'SubmitTimes': [1539635346.0], 'JobIds': ['29064760.0'], 'EndTimes': [1539635921.0], 'Restarts': 0, 'RecordedSite': True, 'State': 'finished', 'ResidentSetSize': [1797196], 'TotalUserCpuTimeHistory': [194], 'SiteHistory': ['Unknown', 'T2_US_MIT'], 'TotalSysCpuTimeHistory': [9]}, '59': {'Retries': 0, 'WallDurations': [8.0, 466.0], 'StartTimes': [1539635568.0], 'SubmitTimes': [1539635336.0], 'JobIds': ['29064728.0'], 'EndTimes': [1539636034.0], 'Restarts': 0, 'RecordedSite': True, 'State': 'finished', 'ResidentSetSize': [1798312], 'TotalUserCpuTimeHistory': [173], 'SiteHistory': ['Unknown', 'T2_US_MIT'], 'TotalSysCpuTimeHistory': [15]}, '58': {'Retries': 0, 'WallDurations': [9.0, 2857.0], 'StartTimes': [1539635563.0], 'SubmitTimes': [1539635335.0], 'JobIds': ['29064727.0'], 'EndTimes': [1539638420.0], 'Restarts': 0, 'RecordedSite': True, 'State': 'finished', 'ResidentSetSize': [1693740], 'TotalUserCpuTimeHistory': [206], 'SiteHistory': ['Unknown', 'T2_US_Wisconsin'], 'TotalSysCpuTimeHistory': [18]}, '55': {'Retries': 0, 'WallDurations': [8.0, 445.0], 'StartTimes': [1539635562.0], 'SubmitTimes': [1539635335.0], 'JobIds': ['29064724.0'], 'EndTimes': [1539636007.0], 'Restarts': 0, 'RecordedSite': True, 'State': 'finished', 'ResidentSetSize': [1546328], 'TotalUserCpuTimeHistory': [150], 'SiteHistory': ['Unknown', 'T2_US_MIT'], 'TotalSysCpuTimeHistory': [15]}, '54': {'Retries': 0, 'WallDurations': [8.0, 360.0], 'StartTimes': [1539635560.0], 'SubmitTimes': [1539635335.0], 'JobIds': ['29064723.0'], 'EndTimes': [1539635920.0], 'Restarts': 0, 'RecordedSite': True, 'State': 'finished', 'ResidentSetSize': [1760080], 'TotalUserCpuTimeHistory': [134], 'SiteHistory': ['Unknown', 'T2_US_MIT'], 'TotalSysCpuTimeHistory': [15]}, '57': {'Retries': 0, 'WallDurations': [8.0, 2959.0], 'StartTimes': [1539635565.0], 'SubmitTimes': [1539635335.0], 'JobIds': ['29064726.0'], 'EndTimes': [1539638524.0], 'Restarts': 0, 'RecordedSite': True, 'State': 'finished', 'ResidentSetSize': [1648312], 'TotalUserCpuTimeHistory': [257], 'SiteHistory': ['Unknown', 'T2_US_Wisconsin'], 'TotalSysCpuTimeHistory': [27]}, '56': {'Retries': 0, 'WallDurations': [8.0, 331.0], 'StartTimes': [1539635564.0], 'SubmitTimes': [1539635335.0], 'JobIds': ['29064725.0'], 'EndTimes': [1539635895.0], 'Restarts': 0, 'RecordedSite': True, 'State': 'finished', 'ResidentSetSize': [1706288], 'TotalUserCpuTimeHistory': [254], 'SiteHistory': ['Unknown', 'T2_US_Vanderbilt'], 'TotalSysCpuTimeHistory': [9]}, '51': {'Retries': 0, 'WallDurations': [8.0, 2252.0], 'StartTimes': [1539635563.0], 'SubmitTimes': [1539635334.0], 'JobIds': ['29064719.0'], 'EndTimes': [1539637815.0], 'Restarts': 0, 'RecordedSite': True, 'State': 'finished', 'ResidentSetSize': [1584164], 'TotalUserCpuTimeHistory': [158], 'SiteHistory': ['Unknown', 'T2_US_Wisconsin'], 'TotalSysCpuTimeHistory': [18]}, '50': {'Retries': 0, 'WallDurations': [8.0, 429.0], 'StartTimes': [1539635562.0], 'SubmitTimes': [1539635334.0], 'JobIds': ['29064718.0'], 'EndTimes': [1539635991.0], 'Restarts': 0, 'RecordedSite': True, 'State': 'finished', 'ResidentSetSize': [1664512], 'TotalUserCpuTimeHistory': [165], 'SiteHistory': ['Unknown', 'T2_US_MIT'], 'TotalSysCpuTimeHistory': [36]}, '53': {'Retries': 0, 'WallDurations': [9.0, 589.0], 'StartTimes': [1539635565.0], 'SubmitTimes': [1539635335.0], 'JobIds': ['29064722.0'], 'EndTimes': [1539636154.0], 'Restarts': 0, 'RecordedSite': True, 'State': 'finished', 'ResidentSetSize': [129664], 'TotalUserCpuTimeHistory': [264], 'SiteHistory': ['Unknown', 'T2_US_Nebraska'], 'TotalSysCpuTimeHistory': [79]}, '52': {'Retries': 0, 'WallDurations': [9.0, 483.0], 'StartTimes': [1539635562.0], 'SubmitTimes': [1539635335.0], 'JobIds': ['29064721.0'], 'EndTimes': [1539636045.0], 'Restarts': 0, 'RecordedSite': True, 'State': 'finished', 'ResidentSetSize': [1780024], 'TotalUserCpuTimeHistory': [243], 'SiteHistory': ['Unknown', 'T2_US_MIT'], 'TotalSysCpuTimeHistory': [10]}, '90': {'Retries': 0, 'WallDurations': [8.0, 321.0], 'StartTimes': [1539635570.0], 'SubmitTimes': [1539635346.0], 'JobIds': ['29064759.0'], 'EndTimes': [1539635891.0], 'Restarts': 0, 'RecordedSite': True, 'State': 'finished', 'ResidentSetSize': [810952], 'TotalUserCpuTimeHistory': [142], 'SiteHistory': ['Unknown', 'T2_US_MIT'], 'TotalSysCpuTimeHistory': [15]}, '66': {'Retries': 0, 'WallDurations': [9.0, 342.0], 'StartTimes': [1539635560.0], 'SubmitTimes': [1539635337.0], 'JobIds': ['29064736.0'], 'EndTimes': [1539635902.0], 'Restarts': 0, 'RecordedSite': True, 'State': 'finished', 'ResidentSetSize': [1666052], 'TotalUserCpuTimeHistory': [183], 'SiteHistory': ['Unknown', 'T2_US_MIT'], 'TotalSysCpuTimeHistory': [8]}, '67': {'Retries': 0, 'WallDurations': [8.0, 283.0], 'StartTimes': [1539635562.0], 'SubmitTimes': [1539635337.0], 'JobIds': ['29064737.0'], 'EndTimes': [1539635845.0], 'Restarts': 0, 'RecordedSite': True, 'State': 'finished', 'ResidentSetSize': [72144], 'TotalUserCpuTimeHistory': [167], 'SiteHistory': ['Unknown', 'T2_US_MIT'], 'TotalSysCpuTimeHistory': [5]}, '115': {'Retries': 0, 'WallDurations': [10.0, 685.0], 'StartTimes': [1539635569.0], 'SubmitTimes': [1539635349.0], 'JobIds': ['29064783.0'], 'EndTimes': [1539636254.0], 'Restarts': 0, 'RecordedSite': True, 'State': 'finished', 'ResidentSetSize': [36260], 'TotalUserCpuTimeHistory': [251], 'SiteHistory': ['Unknown', 'T2_US_Nebraska'], 'TotalSysCpuTimeHistory': [74]}, '114': {'Retries': 0, 'WallDurations': [8.0, 477.0], 'StartTimes': [1539635566.0], 'SubmitTimes': [1539635349.0], 'JobIds': ['29064782.0'], 'EndTimes': [1539636043.0], 'Restarts': 0, 'RecordedSite': True, 'State': 'finished', 'ResidentSetSize': [1788856], 'TotalUserCpuTimeHistory': [201], 'SiteHistory': ['Unknown', 'T2_US_MIT'], 'TotalSysCpuTimeHistory': [13]}, '88': {'Retries': 0, 'WallDurations': [8.0, 300.0], 'StartTimes': [1539635562.0], 'SubmitTimes': [1539635345.0], 'JobIds': ['29064757.0'], 'EndTimes': [1539635862.0], 'Restarts': 0, 'RecordedSite': True, 'State': 'finished', 'ResidentSetSize': [24336], 'TotalUserCpuTimeHistory': [143], 'SiteHistory': ['Unknown', 'T2_US_MIT'], 'TotalSysCpuTimeHistory': [7]}, '89': {'Retries': 0, 'WallDurations': [8.0, 223.0], 'StartTimes': [1539635564.0], 'SubmitTimes': [1539635346.0], 'JobIds': ['29064758.0'], 'EndTimes': [1539635787.0], 'Restarts': 0, 'RecordedSite': True, 'State': 'finished', 'ResidentSetSize': [2736], 'TotalUserCpuTimeHistory': [135], 'SiteHistory': ['Unknown', 'T2_US_MIT'], 'TotalSysCpuTimeHistory': [6]}, '111': {'Retries': 0, 'WallDurations': [8.0, 269.0], 'StartTimes': [1539635566.0], 'SubmitTimes': [1539635349.0], 'JobIds': ['29064779.0'], 'EndTimes': [1539635835.0], 'Restarts': 0, 'RecordedSite': True, 'State': 'finished', 'ResidentSetSize': [2736], 'TotalUserCpuTimeHistory': [124], 'SiteHistory': ['Unknown', 'T2_US_MIT'], 'TotalSysCpuTimeHistory': [5]}, '110': {'Retries': 0, 'WallDurations': [8.0, 392.0], 'StartTimes': [1539635564.0], 'SubmitTimes': [1539635348.0], 'JobIds': ['29064777.0'], 'EndTimes': [1539635956.0], 'Restarts': 0, 'RecordedSite': True, 'State': 'finished', 'ResidentSetSize': [1666592], 'TotalUserCpuTimeHistory': [183], 'SiteHistory': ['Unknown', 'T2_US_MIT'], 'TotalSysCpuTimeHistory': [12]}, '113': {'Retries': 0, 'WallDurations': [10.0, 316.0], 'StartTimes': [1539635566.0], 'SubmitTimes': [1539635349.0], 'JobIds': ['29064781.0'], 'EndTimes': [1539635882.0], 'Restarts': 0, 'RecordedSite': True, 'State': 'finished', 'ResidentSetSize': [823840], 'TotalUserCpuTimeHistory': [137], 'SiteHistory': ['Unknown', 'T2_US_MIT'], 'TotalSysCpuTimeHistory': [26]}, '112': {'Retries': 0, 'WallDurations': [8.0, 687.0], 'StartTimes': [1539635565.0], 'SubmitTimes': [1539635349.0], 'JobIds': ['29064780.0'], 'EndTimes': [1539636252.0], 'Restarts': 0, 'RecordedSite': True, 'State': 'finished', 'ResidentSetSize': [1802012], 'TotalUserCpuTimeHistory': [417], 'SiteHistory': ['Unknown', 'T2_US_MIT'], 'TotalSysCpuTimeHistory': [16]}, '82': {'Retries': 0, 'WallDurations': [10.0, 603.0], 'StartTimes': [1539635571.0], 'SubmitTimes': [1539635345.0], 'JobIds': ['29064751.0'], 'EndTimes': [1539636174.0], 'Restarts': 0, 'RecordedSite': True, 'State': 'finished', 'ResidentSetSize': [1789808], 'TotalUserCpuTimeHistory': [389], 'SiteHistory': ['Unknown', 'T2_US_MIT'], 'TotalSysCpuTimeHistory': [15]}, '83': {'Retries': 0, 'WallDurations': [8.0, 355.0], 'StartTimes': [1539635564.0], 'SubmitTimes': [1539635345.0], 'JobIds': ['29064752.0'], 'EndTimes': [1539635919.0], 'Restarts': 0, 'RecordedSite': True, 'State': 'finished', 'ResidentSetSize': [1694412], 'TotalUserCpuTimeHistory': [177], 'SiteHistory': ['Unknown', 'T2_US_MIT'], 'TotalSysCpuTimeHistory': [14]}, '80': {'Retries': 0, 'WallDurations': [8.0, 6794.0], 'StartTimes': [1539635566.0], 'SubmitTimes': [1539635344.0], 'JobIds': ['29064749.0'], 'EndTimes': [1539642360.0], 'Restarts': 0, 'RecordedSite': True, 'State': 'finished', 'ResidentSetSize': [1605708], 'TotalUserCpuTimeHistory': [199], 'SiteHistory': ['Unknown', 'T2_US_Wisconsin'], 'TotalSysCpuTimeHistory': [27]}, '81': {'Retries': 0, 'WallDurations': [9.0, 355.0], 'StartTimes': [1539635563.0], 'SubmitTimes': [1539635344.0], 'JobIds': ['29064750.0'], 'EndTimes': [1539635918.0], 'Restarts': 0, 'RecordedSite': True, 'State': 'finished', 'ResidentSetSize': [1764740], 'TotalUserCpuTimeHistory': [153], 'SiteHistory': ['Unknown', 'T2_US_MIT'], 'TotalSysCpuTimeHistory': [12]}, '119': {'Retries': 0, 'WallDurations': [9.0, 856.0], 'StartTimes': [1539635568.0], 'SubmitTimes': [1539635355.0], 'JobIds': ['29064788.0'], 'EndTimes': [1539636424.0], 'Restarts': 0, 'RecordedSite': True, 'State': 'finished', 'ResidentSetSize': [24884], 'TotalUserCpuTimeHistory': [246], 'SiteHistory': ['Unknown', 'T2_US_Nebraska'], 'TotalSysCpuTimeHistory': [95]}, '118': {'Retries': 0, 'WallDurations': [9.0, 617.0], 'StartTimes': [1539635572.0], 'SubmitTimes': [1539635355.0], 'JobIds': ['29064787.0'], 'EndTimes': [1539636189.0], 'Restarts': 0, 'RecordedSite': True, 'State': 'finished', 'ResidentSetSize': [1608448], 'TotalUserCpuTimeHistory': [262], 'SiteHistory': ['Unknown', 'T2_US_Nebraska'], 'TotalSysCpuTimeHistory': [74]}, '84': {'Retries': 0, 'WallDurations': [9.0, 404.0], 'StartTimes': [1539635567.0], 'SubmitTimes': [1539635345.0], 'JobIds': ['29064753.0'], 'EndTimes': [1539635971.0], 'Restarts': 0, 'RecordedSite': True, 'State': 'finished', 'ResidentSetSize': [1704604], 'TotalUserCpuTimeHistory': [190], 'SiteHistory': ['Unknown', 'T2_US_MIT'], 'TotalSysCpuTimeHistory': [16]}, '85': {'Retries': 0, 'WallDurations': [8.0, 475.0], 'StartTimes': [1539635564.0], 'SubmitTimes': [1539635345.0], 'JobIds': ['29064754.0'], 'EndTimes': [1539636039.0], 'Restarts': 0, 'RecordedSite': True, 'State': 'finished', 'ResidentSetSize': [1736036], 'TotalUserCpuTimeHistory': [273], 'SiteHistory': ['Unknown', 'T2_US_MIT'], 'TotalSysCpuTimeHistory': [16]}, '3': {'Retries': 0, 'WallDurations': [209.0, 246.52599811553955], 'StartTimes': [1539636623.0], 'SubmitTimes': [1539635311.0], 'JobIds': ['29064673.0'], 'EndTimes': [1539636832.0], 'Restarts': 0, 'RecordedSite': True, 'State': 'finished', 'ResidentSetSize': [2848], 'TotalUserCpuTimeHistory': [144], 'SiteHistory': ['Unknown', 'T2_US_Purdue'], 'TotalSysCpuTimeHistory': [7]}, '7': {'Retries': 0, 'WallDurations': [9.0, 362.0], 'StartTimes': [1539635470.0], 'SubmitTimes': [1539635314.0], 'JobIds': ['29064676.0'], 'EndTimes': [1539635832.0], 'Restarts': 0, 'RecordedSite': True, 'State': 'finished', 'ResidentSetSize': [1723624], 'TotalUserCpuTimeHistory': [227], 'SiteHistory': ['Unknown', 'T2_US_MIT'], 'TotalSysCpuTimeHistory': [14]}, '92': {'Retries': 0, 'WallDurations': [10.0, 367.0], 'StartTimes': [1539635564.0], 'SubmitTimes': [1539635346.0], 'JobIds': ['29064761.0'], 'EndTimes': [1539635931.0], 'Restarts': 0, 'RecordedSite': True, 'State': 'finished', 'ResidentSetSize': [1800824], 'TotalUserCpuTimeHistory': [167], 'SiteHistory': ['Unknown', 'T2_US_MIT'], 'TotalSysCpuTimeHistory': [13]}, '108': {'Retries': 0, 'WallDurations': [9.0, 359.0], 'StartTimes': [1539635565.0], 'SubmitTimes': [1539635348.0], 'JobIds': ['29064776.0'], 'EndTimes': [1539635924.0], 'Restarts': 0, 'RecordedSite': True, 'State': 'finished', 'ResidentSetSize': [1799312], 'TotalUserCpuTimeHistory': [184], 'SiteHistory': ['Unknown', 'T2_US_MIT'], 'TotalSysCpuTimeHistory': [13]}, '109': {'Retries': 0, 'WallDurations': [9.0, 589.0], 'StartTimes': [1539635567.0], 'SubmitTimes': [1539635348.0], 'JobIds': ['29064778.0'], 'EndTimes': [1539636156.0], 'Restarts': 0, 'RecordedSite': True, 'State': 'finished', 'ResidentSetSize': [19980], 'TotalUserCpuTimeHistory': [221], 'SiteHistory': ['Unknown', 'T2_US_Nebraska'], 'TotalSysCpuTimeHistory': [85]}, '102': {'Retries': 0, 'WallDurations': [9.0, 354.0], 'StartTimes': [1539636345.0], 'SubmitTimes': [1539635369.0], 'JobIds': ['29064850.0'], 'EndTimes': [1539636699.0], 'Restarts': 0, 'RecordedSite': True, 'State': 'finished', 'ResidentSetSize': [1819300], 'TotalUserCpuTimeHistory': [225], 'SiteHistory': ['Unknown', 'T2_US_UCSD'], 'TotalSysCpuTimeHistory': [21]}, '103': {'Retries': 0, 'WallDurations': [9.0, 398.0], 'StartTimes': [1539635571.0], 'SubmitTimes': [1539635347.0], 'JobIds': ['29064771.0'], 'EndTimes': [1539635969.0], 'Restarts': 0, 'RecordedSite': True, 'State': 'finished', 'ResidentSetSize': [1808616], 'TotalUserCpuTimeHistory': [208], 'SiteHistory': ['Unknown', 'T2_US_MIT'], 'TotalSysCpuTimeHistory': [17]}, '100': {'Retries': 0, 'WallDurations': [8.0, 585.0], 'StartTimes': [1539635569.0], 'SubmitTimes': [1539635347.0], 'JobIds': ['29064769.0'], 'EndTimes': [1539636154.0], 'Restarts': 0, 'RecordedSite': True, 'State': 'finished', 'ResidentSetSize': [33848], 'TotalUserCpuTimeHistory': [250], 'SiteHistory': ['Unknown', 'T2_US_Nebraska'], 'TotalSysCpuTimeHistory': [89]}, '101': {'Retries': 0, 'WallDurations': [8.0, 380.0], 'StartTimes': [1539635564.0], 'SubmitTimes': [1539635347.0], 'JobIds': ['29064770.0'], 'EndTimes': [1539635944.0], 'Restarts': 0, 'RecordedSite': True, 'State': 'finished', 'ResidentSetSize': [1809776], 'TotalUserCpuTimeHistory': [193], 'SiteHistory': ['Unknown', 'T2_US_MIT'], 'TotalSysCpuTimeHistory': [15]}, '106': {'Retries': 0, 'WallDurations': [8.0, 349.0], 'StartTimes': [1539635564.0], 'SubmitTimes': [1539635348.0], 'JobIds': ['29064773.0'], 'EndTimes': [1539635913.0], 'Restarts': 0, 'RecordedSite': True, 'State': 'finished', 'ResidentSetSize': [1741500], 'TotalUserCpuTimeHistory': [163], 'SiteHistory': ['Unknown', 'T2_US_MIT'], 'TotalSysCpuTimeHistory': [15]}, '107': {'Retries': 0, 'WallDurations': [8.0, 494.0], 'StartTimes': [1539635569.0], 'SubmitTimes': [1539635348.0], 'JobIds': ['29064775.0'], 'EndTimes': [1539636063.0], 'Restarts': 0, 'RecordedSite': True, 'State': 'finished', 'ResidentSetSize': [1800636], 'TotalUserCpuTimeHistory': [385], 'SiteHistory': ['Unknown', 'T2_US_Vanderbilt'], 'TotalSysCpuTimeHistory': [16]}, '104': {'Retries': 0, 'WallDurations': [8.0, 393.0], 'StartTimes': [1539635572.0], 'SubmitTimes': [1539635348.0], 'JobIds': ['29064774.0'], 'EndTimes': [1539635965.0], 'Restarts': 0, 'RecordedSite': True, 'State': 'finished', 'ResidentSetSize': [1800376], 'TotalUserCpuTimeHistory': [177], 'SiteHistory': ['Unknown', 'T2_US_MIT'], 'TotalSysCpuTimeHistory': [19]}, '105': {'Retries': 0, 'WallDurations': [9.0, 368.0], 'StartTimes': [1539635569.0], 'SubmitTimes': [1539635348.0], 'JobIds': ['29064772.0'], 'EndTimes': [1539635937.0], 'Restarts': 0, 'RecordedSite': True, 'State': 'finished', 'ResidentSetSize': [1718012], 'TotalUserCpuTimeHistory': [169], 'SiteHistory': ['Unknown', 'T2_US_MIT'], 'TotalSysCpuTimeHistory': [27]}, '39': {'Retries': 0, 'WallDurations': [8.0, 287.0], 'StartTimes': [1539635561.0], 'SubmitTimes': [1539635327.0], 'JobIds': ['29064708.0'], 'EndTimes': [1539635848.0], 'Restarts': 0, 'RecordedSite': True, 'State': 'finished', 'ResidentSetSize': [95832], 'TotalUserCpuTimeHistory': [139], 'SiteHistory': ['Unknown', 'T2_US_MIT'], 'TotalSysCpuTimeHistory': [7]}, '38': {'Retries': 0, 'WallDurations': [8.0, 355.0], 'StartTimes': [1539635563.0], 'SubmitTimes': [1539635327.0], 'JobIds': ['29064707.0'], 'EndTimes': [1539635918.0], 'Restarts': 0, 'RecordedSite': True, 'State': 'finished', 'ResidentSetSize': [1751464], 'TotalUserCpuTimeHistory': [175], 'SiteHistory': ['Unknown', 'T2_US_MIT'], 'TotalSysCpuTimeHistory': [17]}, '33': {'Retries': 0, 'WallDurations': [8.0, 355.0], 'StartTimes': [1539635562.0], 'SubmitTimes': [1539635326.0], 'JobIds': ['29064702.0'], 'EndTimes': [1539635917.0], 'Restarts': 0, 'RecordedSite': True, 'State': 'finished', 'ResidentSetSize': [1736812], 'TotalUserCpuTimeHistory': [139], 'SiteHistory': ['Unknown', 'T2_US_MIT'], 'TotalSysCpuTimeHistory': [20]}, '32': {'Retries': 0, 'WallDurations': [9.0, 154.0], 'StartTimes': [1539635563.0], 'SubmitTimes': [1539635326.0], 'JobIds': ['29064703.0'], 'EndTimes': [1539635717.0], 'Restarts': 0, 'RecordedSite': True, 'State': 'finished', 'ResidentSetSize': [33364], 'TotalUserCpuTimeHistory': [104], 'SiteHistory': ['Unknown', 'T2_US_Purdue'], 'TotalSysCpuTimeHistory': [5]}, '31': {'Retries': 0, 'WallDurations': [9.0, 395.0], 'StartTimes': [1539635561.0], 'SubmitTimes': [1539635325.0], 'JobIds': ['29064700.0'], 'EndTimes': [1539635956.0], 'Restarts': 0, 'RecordedSite': True, 'State': 'finished', 'ResidentSetSize': [1681720], 'TotalUserCpuTimeHistory': [171], 'SiteHistory': ['Unknown', 'T2_US_MIT'], 'TotalSysCpuTimeHistory': [19]}, '30': {'Retries': 0, 'WallDurations': [9.0, 325.0], 'StartTimes': [1539635560.0], 'SubmitTimes': [1539635323.0], 'JobIds': ['29064699.0'], 'EndTimes': [1539635885.0], 'Restarts': 0, 'RecordedSite': True, 'State': 'finished', 'ResidentSetSize': [113344], 'TotalUserCpuTimeHistory': [138], 'SiteHistory': ['Unknown', 'T2_US_MIT'], 'TotalSysCpuTimeHistory': [19]}, '37': {'Retries': 0, 'WallDurations': [8.0, 481.0], 'StartTimes': [1539635561.0], 'SubmitTimes': [1539635327.0], 'JobIds': ['29064706.0'], 'EndTimes': [1539636042.0], 'Restarts': 0, 'RecordedSite': True, 'State': 'finished', 'ResidentSetSize': [1787116], 'TotalUserCpuTimeHistory': [252], 'SiteHistory': ['Unknown', 'T2_US_MIT'], 'TotalSysCpuTimeHistory': [14]}, '36': {'Retries': 0, 'WallDurations': [8.0, 466.0], 'StartTimes': [1539635560.0], 'SubmitTimes': [1539635327.0], 'JobIds': ['29064704.0'], 'EndTimes': [1539636026.0], 'Restarts': 0, 'RecordedSite': True, 'State': 'finished', 'ResidentSetSize': [1797752], 'TotalUserCpuTimeHistory': [207], 'SiteHistory': ['Unknown', 'T2_US_MIT'], 'TotalSysCpuTimeHistory': [20]}, '35': {'Retries': 0, 'WallDurations': [9.0, 318.0], 'StartTimes': [1539635562.0], 'SubmitTimes': [1539635327.0], 'JobIds': ['29064705.0'], 'EndTimes': [1539635880.0], 'Restarts': 0, 'RecordedSite': True, 'State': 'finished', 'ResidentSetSize': [29552], 'TotalUserCpuTimeHistory': [135], 'SiteHistory': ['Unknown', 'T2_US_MIT'], 'TotalSysCpuTimeHistory': [16]}, '34': {'Retries': 0, 'WallDurations': [8.0, 435.0], 'StartTimes': [1539635562.0], 'SubmitTimes': [1539635326.0], 'JobIds': ['29064701.0'], 'EndTimes': [1539635997.0], 'Restarts': 0, 'RecordedSite': True, 'State': 'finished', 'ResidentSetSize': [1783972], 'TotalUserCpuTimeHistory': [187], 'SiteHistory': ['Unknown', 'T2_US_MIT'], 'TotalSysCpuTimeHistory': [16]}, '60': {'Retries': 0, 'WallDurations': [8.0, 526.0], 'StartTimes': [1539635570.0], 'SubmitTimes': [1539635336.0], 'JobIds': ['29064729.0'], 'EndTimes': [1539636096.0], 'Restarts': 0, 'RecordedSite': True, 'State': 'finished', 'ResidentSetSize': [1650656], 'TotalUserCpuTimeHistory': [183], 'SiteHistory': ['Unknown', 'T2_US_MIT'], 'TotalSysCpuTimeHistory': [15]}, '61': {'Retries': 0, 'WallDurations': [8.0, 488.0], 'StartTimes': [1539635562.0], 'SubmitTimes': [1539635336.0], 'JobIds': ['29064730.0'], 'EndTimes': [1539636050.0], 'Restarts': 0, 'RecordedSite': True, 'State': 'finished', 'ResidentSetSize': [1488596], 'TotalUserCpuTimeHistory': [172], 'SiteHistory': ['Unknown', 'T2_US_MIT'], 'TotalSysCpuTimeHistory': [25]}, '62': {'Retries': 0, 'WallDurations': [8.0, 2667.0], 'StartTimes': [1539635565.0], 'SubmitTimes': [1539635336.0], 'JobIds': ['29064731.0'], 'EndTimes': [1539638232.0], 'Restarts': 0, 'RecordedSite': True, 'State': 'finished', 'ResidentSetSize': [1526888], 'TotalUserCpuTimeHistory': [165], 'SiteHistory': ['Unknown', 'T2_US_Wisconsin'], 'TotalSysCpuTimeHistory': [30]}, '63': {'Retries': 0, 'WallDurations': [10.0, 359.0], 'StartTimes': [1539635562.0], 'SubmitTimes': [1539635336.0], 'JobIds': ['29064732.0'], 'EndTimes': [1539635921.0], 'Restarts': 0, 'RecordedSite': True, 'State': 'finished', 'ResidentSetSize': [1808960], 'TotalUserCpuTimeHistory': [155], 'SiteHistory': ['Unknown', 'T2_US_MIT'], 'TotalSysCpuTimeHistory': [10]}, '64': {'Retries': 0, 'WallDurations': [8.0, 374.0], 'StartTimes': [1539635566.0], 'SubmitTimes': [1539635336.0], 'JobIds': ['29064733.0'], 'EndTimes': [1539635940.0], 'Restarts': 0, 'RecordedSite': True, 'State': 'finished', 'ResidentSetSize': [1803076], 'TotalUserCpuTimeHistory': [190], 'SiteHistory': ['Unknown', 'T2_US_MIT'], 'TotalSysCpuTimeHistory': [12]}, '65': {'Retries': 0, 'WallDurations': [9.0, 351.0], 'StartTimes': [1539635562.0], 'SubmitTimes': [1539635337.0], 'JobIds': ['29064734.0'], 'EndTimes': [1539635913.0], 'Restarts': 0, 'RecordedSite': True, 'State': 'finished', 'ResidentSetSize': [1721708], 'TotalUserCpuTimeHistory': [149], 'SiteHistory': ['Unknown', 'T2_US_MIT'], 'TotalSysCpuTimeHistory': [18]}, '179': {'Retries': 0, 'WallDurations': [272.0, 286.2030351161957], 'StartTimes': [1539635983.0], 'SubmitTimes': [1539635368.0], 'JobIds': ['29064847.0'], 'EndTimes': [1539636255.0], 'Restarts': 0, 'RecordedSite': True, 'State': 'finished', 'ResidentSetSize': [3020], 'TotalUserCpuTimeHistory': [184], 'SiteHistory': ['Unknown', 'T2_US_Vanderbilt'], 'TotalSysCpuTimeHistory': [10]}, '178': {'Retries': 0, 'WallDurations': [9.0, 335.0], 'StartTimes': [1539635991.0], 'SubmitTimes': [1539635368.0], 'JobIds': ['29064846.0'], 'EndTimes': [1539636326.0], 'Restarts': 0, 'RecordedSite': True, 'State': 'finished', 'ResidentSetSize': [1719280], 'TotalUserCpuTimeHistory': [236], 'SiteHistory': ['Unknown', 'T2_US_UCSD'], 'TotalSysCpuTimeHistory': [12]}, '177': {'Retries': 0, 'WallDurations': [9.0, 935.0], 'StartTimes': [1539635977.0], 'SubmitTimes': [1539635368.0], 'JobIds': ['29064845.0'], 'EndTimes': [1539636912.0], 'Restarts': 0, 'RecordedSite': True, 'State': 'finished', 'ResidentSetSize': [1737832], 'TotalUserCpuTimeHistory': [163], 'SiteHistory': ['Unknown', 'T2_US_MIT'], 'TotalSysCpuTimeHistory': [17]}, '176': {'Retries': 0, 'WallDurations': [9.0, 715.0], 'StartTimes': [1539635981.0], 'SubmitTimes': [1539635368.0], 'JobIds': ['29064844.0'], 'EndTimes': [1539636696.0], 'Restarts': 0, 'RecordedSite': True, 'State': 'finished', 'ResidentSetSize': [1899840], 'TotalUserCpuTimeHistory': [389], 'SiteHistory': ['Unknown', 'T2_US_Florida'], 'TotalSysCpuTimeHistory': [77]}, '175': {'Retries': 0, 'WallDurations': [9.0, 318.0], 'StartTimes': [1539635993.0], 'SubmitTimes': [1539635368.0], 'JobIds': ['29064843.0'], 'EndTimes': [1539636311.0], 'Restarts': 0, 'RecordedSite': True, 'State': 'finished', 'ResidentSetSize': [42728], 'TotalUserCpuTimeHistory': [205], 'SiteHistory': ['Unknown', 'T2_US_UCSD'], 'TotalSysCpuTimeHistory': [11]}, '174': {'Retries': 0, 'WallDurations': [8.0, 1208.0], 'StartTimes': [1539635929.0], 'SubmitTimes': [1539635368.0], 'JobIds': ['29064842.0'], 'EndTimes': [1539637137.0], 'Restarts': 0, 'RecordedSite': True, 'State': 'finished', 'ResidentSetSize': [1583984], 'TotalUserCpuTimeHistory': [235], 'SiteHistory': ['Unknown', 'T2_US_MIT'], 'TotalSysCpuTimeHistory': [13]}, '173': {'Retries': 0, 'WallDurations': [8.0, 447.0], 'StartTimes': [1539635882.0], 'SubmitTimes': [1539635368.0], 'JobIds': ['29064841.0'], 'EndTimes': [1539636329.0], 'Restarts': 0, 'RecordedSite': True, 'State': 'finished', 'ResidentSetSize': [44396], 'TotalUserCpuTimeHistory': [107], 'SiteHistory': ['Unknown', 'T2_US_Purdue'], 'TotalSysCpuTimeHistory': [6]}, '172': {'Retries': 0, 'WallDurations': [8.0, 1333.0], 'StartTimes': [1539635880.0], 'SubmitTimes': [1539635367.0], 'JobIds': ['29064840.0'], 'EndTimes': [1539637213.0], 'Restarts': 0, 'RecordedSite': True, 'State': 'finished', 'ResidentSetSize': [1692376], 'TotalUserCpuTimeHistory': [182], 'SiteHistory': ['Unknown', 'T2_US_MIT'], 'TotalSysCpuTimeHistory': [26]}, '171': {'Retries': 0, 'WallDurations': [8.0, 1167.0], 'StartTimes': [1539635880.0], 'SubmitTimes': [1539635367.0], 'JobIds': ['29064839.0'], 'EndTimes': [1539637047.0], 'Restarts': 0, 'RecordedSite': True, 'State': 'finished', 'ResidentSetSize': [1647772], 'TotalUserCpuTimeHistory': [167], 'SiteHistory': ['Unknown', 'T2_US_MIT'], 'TotalSysCpuTimeHistory': [21]}, '170': {'Retries': 0, 'WallDurations': [10.0, 691.0], 'StartTimes': [1539635879.0], 'SubmitTimes': [1539635367.0], 'JobIds': ['29064838.0'], 'EndTimes': [1539636570.0], 'Restarts': 0, 'RecordedSite': True, 'State': 'finished', 'ResidentSetSize': [1701616], 'TotalUserCpuTimeHistory': [159], 'SiteHistory': ['Unknown', 'T2_US_MIT'], 'TotalSysCpuTimeHistory': [16]}, '180': {'Retries': 0, 'WallDurations': [9.0, 472.0], 'StartTimes': [1539636295.0], 'SubmitTimes': [1539635368.0], 'JobIds': ['29064848.0'], 'EndTimes': [1539636767.0], 'Restarts': 0, 'RecordedSite': True, 'State': 'finished', 'ResidentSetSize': [38656], 'TotalUserCpuTimeHistory': [184], 'SiteHistory': ['Unknown', 'T2_US_Nebraska'], 'TotalSysCpuTimeHistory': [77]}, '2': {'Retries': 0, 'WallDurations': [8.0, 1585.0], 'StartTimes': [1539636621.0], 'SubmitTimes': [1539635311.0], 'JobIds': ['29064672.0'], 'EndTimes': [1539638206.0], 'Restarts': 0, 'RecordedSite': True, 'State': 'finished', 'ResidentSetSize': [1731700], 'TotalUserCpuTimeHistory': [322], 'SiteHistory': ['Unknown', 'T2_US_MIT'], 'TotalSysCpuTimeHistory': [20]}, '6': {'Retries': 0, 'WallDurations': [9.0, 605.0], 'StartTimes': [1539635448.0], 'SubmitTimes': [1539635313.0], 'JobIds': ['29064675.0'], 'EndTimes': [1539636053.0], 'Restarts': 0, 'RecordedSite': True, 'State': 'finished', 'ResidentSetSize': [1894892], 'TotalUserCpuTimeHistory': [333], 'SiteHistory': ['Unknown', 'T2_US_Florida'], 'TotalSysCpuTimeHistory': [52]}, '97': {'Retries': 0, 'WallDurations': [9.0, 475.0], 'StartTimes': [1539635564.0], 'SubmitTimes': [1539635347.0], 'JobIds': ['29064766.0'], 'EndTimes': [1539636039.0], 'Restarts': 0, 'RecordedSite': True, 'State': 'finished', 'ResidentSetSize': [1788068], 'TotalUserCpuTimeHistory': [236], 'SiteHistory': ['Unknown', 'T2_US_MIT'], 'TotalSysCpuTimeHistory': [12]}, '99': {'Retries': 0, 'WallDurations': [9.0, 602.0], 'StartTimes': [1539635567.0], 'SubmitTimes': [1539635347.0], 'JobIds': ['29064768.0'], 'EndTimes': [1539636169.0], 'Restarts': 0, 'RecordedSite': True, 'State': 'finished', 'ResidentSetSize': [231096], 'TotalUserCpuTimeHistory': [278], 'SiteHistory': ['Unknown', 'T2_US_Nebraska'], 'TotalSysCpuTimeHistory': [76]}, '98': {'Retries': 0, 'WallDurations': [9.0, 795.0], 'StartTimes': [1539635568.0], 'SubmitTimes': [1539635347.0], 'JobIds': ['29064767.0'], 'EndTimes': [1539636363.0], 'Restarts': 0, 'RecordedSite': True, 'State': 'finished', 'ResidentSetSize': [34036], 'TotalUserCpuTimeHistory': [159], 'SiteHistory': ['Unknown', 'T2_US_Nebraska'], 'TotalSysCpuTimeHistory': [70]}, '168': {'Retries': 0, 'WallDurations': [9.0, 986.0], 'StartTimes': [1539635881.0], 'SubmitTimes': [1539635367.0], 'JobIds': ['29064836.0'], 'EndTimes': [1539636867.0], 'Restarts': 0, 'RecordedSite': True, 'State': 'finished', 'ResidentSetSize': [1784284], 'TotalUserCpuTimeHistory': [187], 'SiteHistory': ['Unknown', 'T2_US_MIT'], 'TotalSysCpuTimeHistory': [12]}, '169': {'Retries': 0, 'WallDurations': [8.0, 174.0], 'StartTimes': [1539635881.0], 'SubmitTimes': [1539635367.0], 'JobIds': ['29064837.0'], 'EndTimes': [1539636055.0], 'Restarts': 0, 'RecordedSite': True, 'State': 'finished', 'ResidentSetSize': [44376], 'TotalUserCpuTimeHistory': [105], 'SiteHistory': ['Unknown', 'T2_US_Purdue'], 'TotalSysCpuTimeHistory': [7]}, '164': {'Retries': 0, 'WallDurations': [8.0, 1281.0], 'StartTimes': [1539635879.0], 'SubmitTimes': [1539635366.0], 'JobIds': ['29064831.0'], 'EndTimes': [1539637160.0], 'Restarts': 0, 'RecordedSite': True, 'State': 'finished', 'ResidentSetSize': [1726052], 'TotalUserCpuTimeHistory': [161], 'SiteHistory': ['Unknown', 'T2_US_MIT'], 'TotalSysCpuTimeHistory': [19]}, '165': {'Retries': 0, 'WallDurations': [8.0, 1279.0], 'StartTimes': [1539635879.0], 'SubmitTimes': [1539635366.0], 'JobIds': ['29064833.0'], 'EndTimes': [1539637158.0], 'Restarts': 0, 'RecordedSite': True, 'State': 'finished', 'ResidentSetSize': [1736380], 'TotalUserCpuTimeHistory': [155], 'SiteHistory': ['Unknown', 'T2_US_MIT'], 'TotalSysCpuTimeHistory': [17]}, '166': {'Retries': 0, 'WallDurations': [9.0, 1357.0], 'StartTimes': [1539635881.0], 'SubmitTimes': [1539635367.0], 'JobIds': ['29064834.0'], 'EndTimes': [1539637238.0], 'Restarts': 0, 'RecordedSite': True, 'State': 'finished', 'ResidentSetSize': [1587368], 'TotalUserCpuTimeHistory': [122], 'SiteHistory': ['Unknown', 'T2_US_MIT'], 'TotalSysCpuTimeHistory': [11]}, '167': {'Retries': 0, 'WallDurations': [9.0, 927.0], 'StartTimes': [1539635880.0], 'SubmitTimes': [1539635367.0], 'JobIds': ['29064835.0'], 'EndTimes': [1539636807.0], 'Restarts': 0, 'RecordedSite': True, 'State': 'finished', 'ResidentSetSize': [1582964], 'TotalUserCpuTimeHistory': [152], 'SiteHistory': ['Unknown', 'T2_US_MIT'], 'TotalSysCpuTimeHistory': [16]}, '160': {'Retries': 0, 'WallDurations': [0, 345.0], 'StartTimes': [1539635662.0], 'SubmitTimes': [1539635360.0], 'JobIds': ['29064827.0'], 'EndTimes': [1539636007.0], 'Restarts': 0, 'RecordedSite': True, 'State': 'finished', 'ResidentSetSize': [1779624], 'TotalUserCpuTimeHistory': [154], 'SiteHistory': ['Unknown', 'T2_US_MIT'], 'TotalSysCpuTimeHistory': [17]}, '161': {'Retries': 0, 'WallDurations': [9.0, 1198.0], 'StartTimes': [1539635767.0], 'SubmitTimes': [1539635366.0], 'JobIds': ['29064829.0'], 'EndTimes': [1539636965.0], 'Restarts': 0, 'RecordedSite': True, 'State': 'finished', 'ResidentSetSize': [1580460], 'TotalUserCpuTimeHistory': [292], 'SiteHistory': ['Unknown', 'T2_US_MIT'], 'TotalSysCpuTimeHistory': [13]}, '162': {'Retries': 0, 'WallDurations': [10.0, 2198.0], 'StartTimes': [1539635879.0], 'SubmitTimes': [1539635366.0], 'JobIds': ['29064830.0'], 'EndTimes': [1539638077.0], 'Restarts': 0, 'RecordedSite': True, 'State': 'finished', 'ResidentSetSize': [1727480], 'TotalUserCpuTimeHistory': [315], 'SiteHistory': ['Unknown', 'T2_US_MIT'], 'TotalSysCpuTimeHistory': [20]}, '163': {'Retries': 0, 'WallDurations': [8.0, 886.0], 'StartTimes': [1539635879.0], 'SubmitTimes': [1539635366.0], 'JobIds': ['29064832.0'], 'EndTimes': [1539636765.0], 'Restarts': 0, 'RecordedSite': True, 'State': 'finished', 'ResidentSetSize': [1636140], 'TotalUserCpuTimeHistory': [157], 'SiteHistory': ['Unknown', 'T2_US_MIT'], 'TotalSysCpuTimeHistory': [16]}, '11': {'Retries': 0, 'WallDurations': [9.0, 220.0], 'StartTimes': [1539635570.0], 'SubmitTimes': [1539635314.0], 'JobIds': ['29064679.0'], 'EndTimes': [1539635790.0], 'Restarts': 0, 'RecordedSite': True, 'State': 'finished', 'ResidentSetSize': [11840], 'TotalUserCpuTimeHistory': [133], 'SiteHistory': ['Unknown', 'T2_US_Vanderbilt'], 'TotalSysCpuTimeHistory': [8]}, '10': {'Retries': 0, 'WallDurations': [10.0, 6369.0], 'StartTimes': [1539635555.0], 'SubmitTimes': [1539635314.0], 'JobIds': ['29064680.0'], 'EndTimes': [1539641924.0], 'Restarts': 0, 'RecordedSite': True, 'State': 'finished', 'ResidentSetSize': [1726280], 'TotalUserCpuTimeHistory': [220], 'SiteHistory': ['Unknown', 'T2_US_Wisconsin'], 'TotalSysCpuTimeHistory': [21]}, '13': {'Retries': 0, 'WallDurations': [10.0, 570.0], 'StartTimes': [1539635556.0], 'SubmitTimes': [1539635315.0], 'JobIds': ['29064682.0'], 'EndTimes': [1539636126.0], 'Restarts': 0, 'RecordedSite': True, 'State': 'finished', 'ResidentSetSize': [1711212], 'TotalUserCpuTimeHistory': [209], 'SiteHistory': ['Unknown', 'T2_US_MIT'], 'TotalSysCpuTimeHistory': [23]}, '12': {'Retries': 0, 'WallDurations': [10.0, 479.0], 'StartTimes': [1539635557.0], 'SubmitTimes': [1539635314.0], 'JobIds': ['29064681.0'], 'EndTimes': [1539636036.0], 'Restarts': 0, 'RecordedSite': True, 'State': 'finished', 'ResidentSetSize': [1773712], 'TotalUserCpuTimeHistory': [196], 'SiteHistory': ['Unknown', 'T2_US_MIT'], 'TotalSysCpuTimeHistory': [20]}, '15': {'Retries': 0, 'WallDurations': [9.0, 2786.0], 'StartTimes': [1539635562.0], 'SubmitTimes': [1539635315.0], 'JobIds': ['29064684.0'], 'EndTimes': [1539638348.0], 'Restarts': 0, 'RecordedSite': True, 'State': 'finished', 'ResidentSetSize': [1690564], 'TotalUserCpuTimeHistory': [139], 'SiteHistory': ['Unknown', 'T2_US_Wisconsin'], 'TotalSysCpuTimeHistory': [30]}, '14': {'Retries': 0, 'WallDurations': [8.0, 354.0], 'StartTimes': [1539635559.0], 'SubmitTimes': [1539635315.0], 'JobIds': ['29064683.0'], 'EndTimes': [1539635913.0], 'Restarts': 0, 'RecordedSite': True, 'State': 'finished', 'ResidentSetSize': [1702160], 'TotalUserCpuTimeHistory': [175], 'SiteHistory': ['Unknown', 'T2_US_MIT'], 'TotalSysCpuTimeHistory': [16]}, '17': {'Retries': 0, 'WallDurations': [8.0, 6599.0], 'StartTimes': [1539635564.0], 'SubmitTimes': [1539635315.0], 'JobIds': ['29064687.0'], 'EndTimes': [1539642163.0], 'Restarts': 0, 'RecordedSite': True, 'State': 'finished', 'ResidentSetSize': [1585500], 'TotalUserCpuTimeHistory': [198], 'SiteHistory': ['Unknown', 'T2_US_Wisconsin'], 'TotalSysCpuTimeHistory': [26]}, '16': {'Retries': 0, 'WallDurations': [8.0, 392.0], 'StartTimes': [1539635561.0], 'SubmitTimes': [1539635315.0], 'JobIds': ['29064686.0'], 'EndTimes': [1539635953.0], 'Restarts': 0, 'RecordedSite': True, 'State': 'finished', 'ResidentSetSize': [1737464], 'TotalUserCpuTimeHistory': [182], 'SiteHistory': ['Unknown', 'T2_US_MIT'], 'TotalSysCpuTimeHistory': [14]}, '19': {'Retries': 0, 'WallDurations': [9.0, 449.0], 'StartTimes': [1539635560.0], 'SubmitTimes': [1539635316.0], 'JobIds': ['29064689.0'], 'EndTimes': [1539636009.0], 'Restarts': 0, 'RecordedSite': True, 'State': 'finished', 'ResidentSetSize': [1664036], 'TotalUserCpuTimeHistory': [189], 'SiteHistory': ['Unknown', 'T2_US_MIT'], 'TotalSysCpuTimeHistory': [13]}, '18': {'Retries': 0, 'WallDurations': [9.0, 644.0], 'StartTimes': [1539635556.0], 'SubmitTimes': [1539635316.0], 'JobIds': ['29064688.0'], 'EndTimes': [1539636200.0], 'Restarts': 0, 'RecordedSite': True, 'State': 'finished', 'ResidentSetSize': [1706580], 'TotalUserCpuTimeHistory': [337], 'SiteHistory': ['Unknown', 'T2_US_MIT'], 'TotalSysCpuTimeHistory': [19]}, '117': {'Retries': 0, 'WallDurations': [9.0, 338.0], 'StartTimes': [1539635566.0], 'SubmitTimes': [1539635350.0], 'JobIds': ['29064785.0'], 'EndTimes': [1539635904.0], 'Restarts': 0, 'RecordedSite': True, 'State': 'finished', 'ResidentSetSize': [1719564], 'TotalUserCpuTimeHistory': [267], 'SiteHistory': ['Unknown', 'T2_US_Vanderbilt'], 'TotalSysCpuTimeHistory': [11]}, '116': {'Retries': 0, 'WallDurations': [8.0, 326.0], 'StartTimes': [1539635564.0], 'SubmitTimes': [1539635349.0], 'JobIds': ['29064784.0'], 'EndTimes': [1539635890.0], 'Restarts': 0, 'RecordedSite': True, 'State': 'finished', 'ResidentSetSize': [1688188], 'TotalUserCpuTimeHistory': [180], 'SiteHistory': ['Unknown', 'T2_US_MIT'], 'TotalSysCpuTimeHistory': [9]}, '151': {'Retries': 0, 'WallDurations': [0, 587.0], 'StartTimes': [1539635665.0], 'SubmitTimes': [1539635359.0], 'JobIds': ['29064818.0'], 'EndTimes': [1539636252.0], 'Restarts': 0, 'RecordedSite': True, 'State': 'finished', 'ResidentSetSize': [1791972], 'TotalUserCpuTimeHistory': [479], 'SiteHistory': ['Unknown', 'T2_US_Vanderbilt'], 'TotalSysCpuTimeHistory': [16]}, '150': {'Retries': 0, 'WallDurations': [0, 463.0], 'StartTimes': [1539635662.0], 'SubmitTimes': [1539635359.0], 'JobIds': ['29064819.0'], 'EndTimes': [1539636125.0], 'Restarts': 0, 'RecordedSite': True, 'State': 'finished', 'ResidentSetSize': [1539716], 'TotalUserCpuTimeHistory': [148], 'SiteHistory': ['Unknown', 'T2_US_MIT'], 'TotalSysCpuTimeHistory': [11]}, '153': {'Retries': 0, 'WallDurations': [0, 1225.0], 'StartTimes': [1539635663.0], 'SubmitTimes': [1539635360.0], 'JobIds': ['29064822.0'], 'EndTimes': [1539636888.0], 'Restarts': 0, 'RecordedSite': True, 'State': 'finished', 'ResidentSetSize': [1458276], 'TotalUserCpuTimeHistory': [207], 'SiteHistory': ['Unknown', 'T2_US_MIT'], 'TotalSysCpuTimeHistory': [23]}, '152': {'Retries': 0, 'WallDurations': [0, 312.0], 'StartTimes': [1539635664.0], 'SubmitTimes': [1539635360.0], 'JobIds': ['29064820.0'], 'EndTimes': [1539635976.0], 'Restarts': 0, 'RecordedSite': True, 'State': 'finished', 'ResidentSetSize': [104352], 'TotalUserCpuTimeHistory': [217], 'SiteHistory': ['Unknown', 'T2_US_Vanderbilt'], 'TotalSysCpuTimeHistory': [13]}, '155': {'Retries': 0, 'WallDurations': [0, 373.0], 'StartTimes': [1539635662.0], 'SubmitTimes': [1539635360.0], 'JobIds': ['29064824.0'], 'EndTimes': [1539636035.0], 'Restarts': 0, 'RecordedSite': True, 'State': 'finished', 'ResidentSetSize': [1742652], 'TotalUserCpuTimeHistory': [145], 'SiteHistory': ['Unknown', 'T2_US_MIT'], 'TotalSysCpuTimeHistory': [15]}, '154': {'Retries': 0, 'WallDurations': [0, 601.0], 'StartTimes': [1539635665.0], 'SubmitTimes': [1539635360.0], 'JobIds': ['29064821.0'], 'EndTimes': [1539636266.0], 'Restarts': 0, 'RecordedSite': True, 'State': 'finished', 'ResidentSetSize': [1904068], 'TotalUserCpuTimeHistory': [353], 'SiteHistory': ['Unknown', 'T2_US_Florida'], 'TotalSysCpuTimeHistory': [21]}, '157': {'Retries': 0, 'WallDurations': [0, 541.0], 'StartTimes': [1539635662.0], 'SubmitTimes': [1539635360.0], 'JobIds': ['29064825.0'], 'EndTimes': [1539636203.0], 'Restarts': 0, 'RecordedSite': True, 'State': 'finished', 'ResidentSetSize': [1648980], 'TotalUserCpuTimeHistory': [279], 'SiteHistory': ['Unknown', 'T2_US_MIT'], 'TotalSysCpuTimeHistory': [14]}, '156': {'Retries': 0, 'WallDurations': [0, 1290.0], 'StartTimes': [1539635662.0], 'SubmitTimes': [1539635360.0], 'JobIds': ['29064823.0'], 'EndTimes': [1539636952.0], 'Restarts': 0, 'RecordedSite': True, 'State': 'finished', 'ResidentSetSize': [1705400], 'TotalUserCpuTimeHistory': [217], 'SiteHistory': ['Unknown', 'T2_US_MIT'], 'TotalSysCpuTimeHistory': [14]}, '159': {'Retries': 0, 'WallDurations': [0, 624.0], 'StartTimes': [1539635663.0], 'SubmitTimes': [1539635366.0], 'JobIds': ['29064828.0'], 'EndTimes': [1539636287.0], 'Restarts': 0, 'RecordedSite': True, 'State': 'finished', 'ResidentSetSize': [1696328], 'TotalUserCpuTimeHistory': [263], 'SiteHistory': ['Unknown', 'T2_US_MIT'], 'TotalSysCpuTimeHistory': [16]}, '158': {'Retries': 0, 'WallDurations': [0, 622.0], 'StartTimes': [1539635663.0], 'SubmitTimes': [1539635360.0], 'JobIds': ['29064826.0'], 'EndTimes': [1539636285.0], 'Restarts': 0, 'RecordedSite': True, 'State': 'finished', 'ResidentSetSize': [1457204], 'TotalUserCpuTimeHistory': [218], 'SiteHistory': ['Unknown', 'T2_US_MIT'], 'TotalSysCpuTimeHistory': [18]}, '48': {'Retries': 0, 'WallDurations': [8.0, 586.0], 'StartTimes': [1539635570.0], 'SubmitTimes': [1539635334.0], 'JobIds': ['29064716.0'], 'EndTimes': [1539636156.0], 'Restarts': 0, 'RecordedSite': True, 'State': 'finished', 'ResidentSetSize': [116292], 'TotalUserCpuTimeHistory': [160], 'SiteHistory': ['Unknown', 'T2_US_UCSD'], 'TotalSysCpuTimeHistory': [14]}, '49': {'Retries': 0, 'WallDurations': [9.0, 2724.0], 'StartTimes': [1539635563.0], 'SubmitTimes': [1539635334.0], 'JobIds': ['29064720.0'], 'EndTimes': [1539638287.0], 'Restarts': 0, 'RecordedSite': True, 'State': 'finished', 'ResidentSetSize': [1645876], 'TotalUserCpuTimeHistory': [220], 'SiteHistory': ['Unknown', 'T2_US_Wisconsin'], 'TotalSysCpuTimeHistory': [22]}, '46': {'Retries': 0, 'WallDurations': [9.0, 381.0], 'StartTimes': [1539635560.0], 'SubmitTimes': [1539635334.0], 'JobIds': ['29064715.0'], 'EndTimes': [1539635941.0], 'Restarts': 0, 'RecordedSite': True, 'State': 'finished', 'ResidentSetSize': [1803424], 'TotalUserCpuTimeHistory': [170], 'SiteHistory': ['Unknown', 'T2_US_MIT'], 'TotalSysCpuTimeHistory': [7]}, '86': {'Retries': 0, 'WallDurations': [9.0, 383.0], 'StartTimes': [1539635563.0], 'SubmitTimes': [1539635345.0], 'JobIds': ['29064755.0'], 'EndTimes': [1539635946.0], 'Restarts': 0, 'RecordedSite': True, 'State': 'finished', 'ResidentSetSize': [1727624], 'TotalUserCpuTimeHistory': [158], 'SiteHistory': ['Unknown', 'T2_US_MIT'], 'TotalSysCpuTimeHistory': [13]}, '44': {'Retries': 0, 'WallDurations': [9.0, 593.0], 'StartTimes': [1539635564.0], 'SubmitTimes': [1539635333.0], 'JobIds': ['29064713.0'], 'EndTimes': [1539636157.0], 'Restarts': 0, 'RecordedSite': True, 'State': 'finished', 'ResidentSetSize': [96872], 'TotalUserCpuTimeHistory': [230], 'SiteHistory': ['Unknown', 'T2_US_Nebraska'], 'TotalSysCpuTimeHistory': [85]}, '45': {'Retries': 0, 'WallDurations': [9.0, 332.0], 'StartTimes': [1539635563.0], 'SubmitTimes': [1539635333.0], 'JobIds': ['29064714.0'], 'EndTimes': [1539635895.0], 'Restarts': 0, 'RecordedSite': True, 'State': 'finished', 'ResidentSetSize': [1727788], 'TotalUserCpuTimeHistory': [147], 'SiteHistory': ['Unknown', 'T2_US_MIT'], 'TotalSysCpuTimeHistory': [9]}, '42': {'Retries': 0, 'WallDurations': [10.0, 846.0], 'StartTimes': [1539635565.0], 'SubmitTimes': [1539635333.0], 'JobIds': ['29064711.0'], 'EndTimes': [1539636411.0], 'Restarts': 0, 'RecordedSite': True, 'State': 'finished', 'ResidentSetSize': [24116], 'TotalUserCpuTimeHistory': [211], 'SiteHistory': ['Unknown', 'T2_US_Nebraska'], 'TotalSysCpuTimeHistory': [85]}, '43': {'Retries': 0, 'WallDurations': [10.0, 316.0], 'StartTimes': [1539635562.0], 'SubmitTimes': [1539635333.0], 'JobIds': ['29064712.0'], 'EndTimes': [1539635878.0], 'Restarts': 0, 'RecordedSite': True, 'State': 'finished', 'ResidentSetSize': [805664], 'TotalUserCpuTimeHistory': [159], 'SiteHistory': ['Unknown', 'T2_US_MIT'], 'TotalSysCpuTimeHistory': [13]}, '40': {'Retries': 0, 'WallDurations': [9.0, 376.0], 'StartTimes': [1539635563.0], 'SubmitTimes': [1539635328.0], 'JobIds': ['29064709.0'], 'EndTimes': [1539635939.0], 'Restarts': 0, 'RecordedSite': True, 'State': 'finished', 'ResidentSetSize': [1732620], 'TotalUserCpuTimeHistory': [155], 'SiteHistory': ['Unknown', 'T2_US_MIT'], 'TotalSysCpuTimeHistory': [23]}, '87': {'Retries': 0, 'WallDurations': [9.0, 412.0], 'StartTimes': [1539635564.0], 'SubmitTimes': [1539635345.0], 'JobIds': ['29064756.0'], 'EndTimes': [1539635976.0], 'Restarts': 0, 'RecordedSite': True, 'State': 'finished', 'ResidentSetSize': [1804024], 'TotalUserCpuTimeHistory': [228], 'SiteHistory': ['Unknown', 'T2_US_MIT'], 'TotalSysCpuTimeHistory': [14]}, '1': {'Retries': 0, 'WallDurations': [9.0, 6033.0], 'StartTimes': [1539636623.0], 'SubmitTimes': [1539635311.0], 'JobIds': ['29064671.0'], 'EndTimes': [1539642656.0], 'Restarts': 0, 'RecordedSite': True, 'State': 'finished', 'ResidentSetSize': [1587684], 'TotalUserCpuTimeHistory': [149], 'SiteHistory': ['Unknown', 'T2_US_Wisconsin'], 'TotalSysCpuTimeHistory': [23]}, '5': {'Retries': 0, 'WallDurations': [8.0, 258.0], 'StartTimes': [1539636629.0], 'SubmitTimes': [1539635313.0], 'JobIds': ['29064674.0'], 'EndTimes': [1539636887.0], 'Restarts': 0, 'RecordedSite': True, 'State': 'finished', 'ResidentSetSize': [29556], 'TotalUserCpuTimeHistory': [131], 'SiteHistory': ['Unknown', 'T2_US_UCSD'], 'TotalSysCpuTimeHistory': [21]}, '9': {'Retries': 0, 'WallDurations': [9.0, 482.0], 'StartTimes': [1539635553.0], 'SubmitTimes': [1539635314.0], 'JobIds': ['29064678.0'], 'EndTimes': [1539636035.0], 'Restarts': 0, 'RecordedSite': True, 'State': 'finished', 'ResidentSetSize': [1806420], 'TotalUserCpuTimeHistory': [211], 'SiteHistory': ['Unknown', 'T2_US_MIT'], 'TotalSysCpuTimeHistory': [18]}, '146': {'Retries': 0, 'WallDurations': [0, 654.0], 'StartTimes': [1539635663.0], 'SubmitTimes': [1539635359.0], 'JobIds': ['29064814.0'], 'EndTimes': [1539636317.0], 'Restarts': 0, 'RecordedSite': True, 'State': 'finished', 'ResidentSetSize': [1700300], 'TotalUserCpuTimeHistory': [274], 'SiteHistory': ['Unknown', 'T2_US_MIT'], 'TotalSysCpuTimeHistory': [13]}, '147': {'Retries': 0, 'WallDurations': [9.0, 1600.0], 'StartTimes': [1539635668.0], 'SubmitTimes': [1539635359.0], 'JobIds': ['29064815.0'], 'EndTimes': [1539637268.0], 'Restarts': 0, 'RecordedSite': True, 'State': 'finished', 'ResidentSetSize': [1776132], 'TotalUserCpuTimeHistory': [153], 'SiteHistory': ['Unknown', 'T2_US_MIT'], 'TotalSysCpuTimeHistory': [32]}, '144': {'Retries': 0, 'WallDurations': [0, 645.0], 'StartTimes': [1539635663.0], 'SubmitTimes': [1539635358.0], 'JobIds': ['29064812.0'], 'EndTimes': [1539636308.0], 'Restarts': 0, 'RecordedSite': True, 'State': 'finished', 'ResidentSetSize': [1792096], 'TotalUserCpuTimeHistory': [176], 'SiteHistory': ['Unknown', 'T2_US_MIT'], 'TotalSysCpuTimeHistory': [20]}, '145': {'Retries': 0, 'WallDurations': [10.0, 425.0], 'StartTimes': [1539635658.0], 'SubmitTimes': [1539635359.0], 'JobIds': ['29064813.0'], 'EndTimes': [1539636083.0], 'Restarts': 0, 'RecordedSite': True, 'State': 'finished', 'ResidentSetSize': [1719528], 'TotalUserCpuTimeHistory': [142], 'SiteHistory': ['Unknown', 'T2_US_MIT'], 'TotalSysCpuTimeHistory': [28]}, '142': {'Retries': 0, 'WallDurations': [0, 498.0], 'StartTimes': [1539635663.0], 'SubmitTimes': [1539635358.0], 'JobIds': ['29064810.0'], 'EndTimes': [1539636161.0], 'Restarts': 0, 'RecordedSite': True, 'State': 'finished', 'ResidentSetSize': [1456640], 'TotalUserCpuTimeHistory': [139], 'SiteHistory': ['Unknown', 'T2_US_MIT'], 'TotalSysCpuTimeHistory': [18]}, '143': {'Retries': 0, 'WallDurations': [0, 542.0], 'StartTimes': [1539635661.0], 'SubmitTimes': [1539635358.0], 'JobIds': ['29064811.0'], 'EndTimes': [1539636203.0], 'Restarts': 0, 'RecordedSite': True, 'State': 'finished', 'ResidentSetSize': [1520288], 'TotalUserCpuTimeHistory': [235], 'SiteHistory': ['Unknown', 'T2_US_MIT'], 'TotalSysCpuTimeHistory': [19]}, '140': {'Retries': 0, 'WallDurations': [0, 503.0], 'StartTimes': [1539635662.0], 'SubmitTimes': [1539635358.0], 'JobIds': ['29064808.0'], 'EndTimes': [1539636165.0], 'Restarts': 0, 'RecordedSite': True, 'State': 'finished', 'ResidentSetSize': [1596524], 'TotalUserCpuTimeHistory': [153], 'SiteHistory': ['Unknown', 'T2_US_MIT'], 'TotalSysCpuTimeHistory': [29]}, '141': {'Retries': 0, 'WallDurations': [0, 661.0], 'StartTimes': [1539635664.0], 'SubmitTimes': [1539635358.0], 'JobIds': ['29064809.0'], 'EndTimes': [1539636325.0], 'Restarts': 0, 'RecordedSite': True, 'State': 'finished', 'ResidentSetSize': [1895652], 'TotalUserCpuTimeHistory': [367], 'SiteHistory': ['Unknown', 'T2_US_Florida'], 'TotalSysCpuTimeHistory': [50]}, '148': {'Retries': 0, 'WallDurations': [0, 537.0], 'StartTimes': [1539635662.0], 'SubmitTimes': [1539635359.0], 'JobIds': ['29064816.0'], 'EndTimes': [1539636199.0], 'Restarts': 0, 'RecordedSite': True, 'State': 'finished', 'ResidentSetSize': [1482472], 'TotalUserCpuTimeHistory': [154], 'SiteHistory': ['Unknown', 'T2_US_MIT'], 'TotalSysCpuTimeHistory': [18]}, '149': {'Retries': 0, 'WallDurations': [0, 339.0], 'StartTimes': [1539635664.0], 'SubmitTimes': [1539635359.0], 'JobIds': ['29064817.0'], 'EndTimes': [1539636003.0], 'Restarts': 0, 'RecordedSite': True, 'State': 'finished', 'ResidentSetSize': [60196], 'TotalUserCpuTimeHistory': [192], 'SiteHistory': ['Unknown', 'T2_US_Purdue'], 'TotalSysCpuTimeHistory': [7]}, '77': {'Retries': 0, 'WallDurations': [8.0, 361.0], 'StartTimes': [1539635565.0], 'SubmitTimes': [1539635344.0], 'JobIds': ['29064748.0'], 'EndTimes': [1539635926.0], 'Restarts': 0, 'RecordedSite': True, 'State': 'finished', 'ResidentSetSize': [1806640], 'TotalUserCpuTimeHistory': [178], 'SiteHistory': ['Unknown', 'T2_US_MIT'], 'TotalSysCpuTimeHistory': [14]}, '76': {'Retries': 0, 'WallDurations': [8.0, 390.0], 'StartTimes': [1539635562.0], 'SubmitTimes': [1539635338.0], 'JobIds': ['29064745.0'], 'EndTimes': [1539635952.0], 'Restarts': 0, 'RecordedSite': True, 'State': 'finished', 'ResidentSetSize': [1695096], 'TotalUserCpuTimeHistory': [196], 'SiteHistory': ['Unknown', 'T2_US_MIT'], 'TotalSysCpuTimeHistory': [13]}, '75': {'Retries': 0, 'WallDurations': [9.0, 683.0], 'StartTimes': [1539635563.0], 'SubmitTimes': [1539635338.0], 'JobIds': ['29064744.0'], 'EndTimes': [1539636246.0], 'Restarts': 0, 'RecordedSite': True, 'State': 'finished', 'ResidentSetSize': [1816260], 'TotalUserCpuTimeHistory': [306], 'SiteHistory': ['Unknown', 'T2_US_MIT'], 'TotalSysCpuTimeHistory': [19]}, '74': {'Retries': 0, 'WallDurations': [10.0, 419.0], 'StartTimes': [1539635561.0], 'SubmitTimes': [1539635338.0], 'JobIds': ['29064743.0'], 'EndTimes': [1539635980.0], 'Restarts': 0, 'RecordedSite': True, 'State': 'finished', 'ResidentSetSize': [1749284], 'TotalUserCpuTimeHistory': [186], 'SiteHistory': ['Unknown', 'T2_US_MIT'], 'TotalSysCpuTimeHistory': [15]}, '73': {'Retries': 0, 'WallDurations': [9.0, 477.0], 'StartTimes': [1539635563.0], 'SubmitTimes': [1539635338.0], 'JobIds': ['29064742.0'], 'EndTimes': [1539636040.0], 'Restarts': 0, 'RecordedSite': True, 'State': 'finished', 'ResidentSetSize': [1818680], 'TotalUserCpuTimeHistory': [213], 'SiteHistory': ['Unknown', 'T2_US_MIT'], 'TotalSysCpuTimeHistory': [13]}, '72': {'Retries': 0, 'WallDurations': [8.0, 537.0], 'StartTimes': [1539635565.0], 'SubmitTimes': [1539635338.0], 'JobIds': ['29064741.0'], 'EndTimes': [1539636102.0], 'Restarts': 0, 'RecordedSite': True, 'State': 'finished', 'ResidentSetSize': [1781064], 'TotalUserCpuTimeHistory': [426], 'SiteHistory': ['Unknown', 'T2_US_Vanderbilt'], 'TotalSysCpuTimeHistory': [17]}, '71': {'Retries': 0, 'WallDurations': [9.0, 342.0], 'StartTimes': [1539635561.0], 'SubmitTimes': [1539635338.0], 'JobIds': ['29064740.0'], 'EndTimes': [1539635903.0], 'Restarts': 0, 'RecordedSite': True, 'State': 'finished', 'ResidentSetSize': [1747312], 'TotalUserCpuTimeHistory': [162], 'SiteHistory': ['Unknown', 'T2_US_MIT'], 'TotalSysCpuTimeHistory': [14]}, '70': {'Retries': 0, 'WallDurations': [9.0, 416.0], 'StartTimes': [1539635561.0], 'SubmitTimes': [1539635337.0], 'JobIds': ['29064739.0'], 'EndTimes': [1539635977.0], 'Restarts': 0, 'RecordedSite': True, 'State': 'finished', 'ResidentSetSize': [1801040], 'TotalUserCpuTimeHistory': [194], 'SiteHistory': ['Unknown', 'T2_US_MIT'], 'TotalSysCpuTimeHistory': [31]}, '79': {'Retries': 0, 'WallDurations': [9.0, 441.0], 'StartTimes': [1539635565.0], 'SubmitTimes': [1539635344.0], 'JobIds': ['29064747.0'], 'EndTimes': [1539636006.0], 'Restarts': 0, 'RecordedSite': True, 'State': 'finished', 'ResidentSetSize': [1789376], 'TotalUserCpuTimeHistory': [195], 'SiteHistory': ['Unknown', 'T2_US_MIT'], 'TotalSysCpuTimeHistory': [13]}, '78': {'Retries': 0, 'WallDurations': [8.0, 385.0], 'StartTimes': [1539635562.0], 'SubmitTimes': [1539635339.0], 'JobIds': ['29064746.0'], 'EndTimes': [1539635947.0], 'Restarts': 0, 'RecordedSite': True, 'State': 'finished', 'ResidentSetSize': [1670964], 'TotalUserCpuTimeHistory': [217], 'SiteHistory': ['Unknown', 'T2_US_MIT'], 'TotalSysCpuTimeHistory': [11]}, '41': {'Retries': 0, 'WallDurations': [9.0, 3219.0], 'StartTimes': [1539635562.0], 'SubmitTimes': [1539635333.0], 'JobIds': ['29064710.0'], 'EndTimes': [1539638781.0], 'Restarts': 0, 'RecordedSite': True, 'State': 'finished', 'ResidentSetSize': [1584004], 'TotalUserCpuTimeHistory': [202], 'SiteHistory': ['Unknown', 'T2_US_Wisconsin'], 'TotalSysCpuTimeHistory': [23]}, '47': {'Retries': 0, 'WallDurations': [9.0, 404.0], 'StartTimes': [1539635553.0], 'SubmitTimes': [1539635334.0], 'JobIds': ['29064717.0'], 'EndTimes': [1539635957.0], 'Restarts': 0, 'RecordedSite': True, 'State': 'finished', 'ResidentSetSize': [1782024], 'TotalUserCpuTimeHistory': [174], 'SiteHistory': ['Unknown', 'T2_US_MIT'], 'TotalSysCpuTimeHistory': [16]}}
INFO 2018-10-16 06:29:52,001: 	 Status on the scheduler:	COMPLETED
INFO 2018-10-16 06:29:52,001: 	 
Jobs status:                    finished      		 100.0% (180/180)
INFO 2018-10-16 06:29:52,930: 	 
Publication status:		done          100.0% (180/180)
(from CRAB internal bookkeeping in transferdb)
INFO 2018-10-16 06:29:52,930: 	 
Output dataset:			/aNTGC_h3z-0p0029_ptmin300_ptmax400_jjg_10Oct2018/mwadud-aNTGC_h3z-0p0029_ptmin300_ptmax400_jjg_MINIAODSIM_10Oct2018-eb0b3152a5410114e39f7ab94e508942/USER
Output dataset DAS URL:		https://cmsweb.cern.ch/das/request?input=%2FaNTGC_h3z-0p0029_ptmin300_ptmax400_jjg_10Oct2018%2Fmwadud-aNTGC_h3z-0p0029_ptmin300_ptmax400_jjg_MINIAODSIM_10Oct2018-eb0b3152a5410114e39f7ab94e508942%2FUSER&instance=prod%2Fphys03
INFO 2018-10-16 06:29:52,936: 	 
Warning: the max jobs runtime is less than 30% of the task requested value (1250 min), please consider to request a lower value (allowed through crab resubmit) and/or improve the jobs splitting (e.g. config.Data.splitting = 'Automatic') in a new task.
INFO 2018-10-16 06:29:52,936: 	 
Warning: the max jobs memory is less than 70% of the task requested value (4000 MB), please consider to request a lower value (allowed through crab resubmit) and/or improve the jobs splitting (e.g. config.Data.splitting = 'Automatic') in a new task.
INFO 2018-10-16 06:29:52,936: 	 
Warning: the average jobs CPU efficiency is less than 50%, please consider to improve the jobs splitting (e.g. config.Data.splitting = 'Automatic') in a new task
INFO 2018-10-16 06:29:52,936: 	 
Summary of run jobs:
 * Memory: 2MB min, 1859MB max, 1258MB ave
 * Runtime: 0:02:32 min, 1:53:14 max, 0:12:53 ave
 * CPU eff: 3% min, 85% max, 29% ave
 * Waste: 0:29:37 (1% of total)

INFO 2018-10-16 06:29:53,021: 	 Log file is /afs/cern.ch/work/m/mwadud/private/naTGC/CMSSW_9_4_0_patch1/src/GeneratorInterface/SherpaInterface/crab_job/jobs/jjg/h3z-0p0029_ptmin300_ptmax400/crab_h3z-0p0029_ptmin300_ptmax400_jjg_MINIAODSIM/crab.log
