Sender: LSF System <lsfadmin@b6e288ca1a.cern.ch>
Subject: Job 202639713: <h3z0p0029_ptmin80_ptmax100> in cluster <batch> Done

Job <h3z0p0029_ptmin80_ptmax100> was submitted from host <lxplus059.cern.ch> by user <mwadud> in cluster <batch>.
Job was executed on host(s) <b6e288ca1a.cern.ch>, in queue <8nm>, as user <mwadud> in cluster <batch>.
</afs/cern.ch/user/m/mwadud> was used as the home directory.
</afs/cern.ch/work/m/mwadud/private/CMSSW_9_4_0_patch1/src/GeneratorInterface/SherpaInterface/aNTGCeventGeneration_mine/test/crab_job> was used as the working directory.
Started at Tue Oct  9 14:14:55 2018
Results reported on Tue Oct  9 14:16:53 2018

Your job looked like:

------------------------------------------------------------
# LSBATCH: User input
#!/bin/bash
#export X509_USER_PROXY=/afs/cern.ch/user/m/mwadud/x509up_u91892

runcardtemplate=NTGC_LO_llg.dat

nretry=10

globalTag=94X_mc2017_realistic_v12
jobdir=/afs/cern.ch/work/m/mwadud/private/CMSSW_9_4_0_patch1/src/GeneratorInterface/SherpaInterface/aNTGCeventGeneration_mine/test/crab_job/jobs/
sherpaDir=/afs/cern.ch/work/m/mwadud/private/CMSSW_9_4_0_patch1/src/GeneratorInterface/SherpaInterface/aNTGCeventGeneration_mine/test/
cmsswDir=/afs/cern.ch/work/m/mwadud/private/CMSSW_9_4_0_patch1/src/Configuration/Generator/python/
workdir=/afs/cern.ch/work/m/mwadud/private/CMSSW_9_4_0_patch1/src/GeneratorInterface/SherpaInterface/aNTGCeventGeneration_mine/test/crab_job/jobs//h3z0p0029_ptmin80_ptmax100/
submitdir=/afs/cern.ch/work/m/mwadud/private/CMSSW_9_4_0_patch1/src/GeneratorInterface/SherpaInterface/aNTGCeventGeneration_mine/test/crab_job/


pileupdataset=dbs:/Neutrino_E-10_gun/RunIISummer17PrePremix-MCv2_correctPU_94X_mc2017_realistic_v9-v1/GEN-SIM-DIGI-RAW

nevents=10000

float_scale=4
function float_eval()
{
    local stat=0
    local result=0.0
    if [[ $# -gt 0 ]]; then
        result=$(echo "scale=$float_scale; $*" | bc -q 2>/dev/null)
        stat=$?
        if [[ $stat -eq 0  &&  -z "$result" ]]; then stat=1; fi
    fi
    echo $result
    return $stat
}

h3z=0.0029
ptmin=80
ptmax=100



echo "h3Z is "${h3z}
	
Mz=91.18
v=246.0
cw=0.877
sw=0.481

num=$(float_eval "(4.0*1000.0*1000.0*1000.0*1000.0*${cw}*${sw}*${h3z})")
deno=$(float_eval "(${v}*${v}*${Mz}*${Mz})")
cbtw=$(float_eval "(4.0*1000*1000*1000*1000*${cw}*${sw}*${h3z})/(${v}*${v}*${Mz}*${Mz})")


(... more ...)
------------------------------------------------------------

Successfully completed.

Resource usage summary:

    CPU time :                                   29.45 sec.
    Max Memory :                                 44.88 MB
    Average Memory :                             19.10 MB
    Total Requested Memory :                     -
    Delta Memory :                               -
    Max Swap :                                   168 MB
    Max Processes :                              6
    Max Threads :                                7
    Run time :                                   115 sec.
    Turnaround time :                            119 sec.

The output (if any) follows:


---
It was not possible to return the standard output of your job <*ptmax100>,
id <202639713>, as expected. The file was returned to
</afs/cern.ch/work/m/mwadud/private/CMSSW_9_4_0_patch1/src/GeneratorInterface/SherpaInterface/aNTGCeventGeneration_mine/test/crab_job/LSFJOB_202639713/STDOUT>
