Sender: LSF System <lsfadmin@b6787a7010.cern.ch>
Subject: Job 205013441: <h3z0p0029_ptmin200_ptmax300> in cluster <batch> Exited

Job <h3z0p0029_ptmin200_ptmax300> was submitted from host <lxplus084.cern.ch> by user <mwadud> in cluster <batch>.
Job was executed on host(s) <b6787a7010.cern.ch>, in queue <1nh>, as user <mwadud> in cluster <batch>.
</afs/cern.ch/user/m/mwadud> was used as the home directory.
</afs/cern.ch/work/m/mwadud/private/naTGC/CMSSW_9_4_0_patch1/src/GeneratorInterface/SherpaInterface/crab_job> was used as the working directory.
Started at Wed Oct 24 16:07:23 2018
Results reported on Wed Oct 24 16:38:21 2018

Your job looked like:

------------------------------------------------------------
# LSBATCH: User input
#!/bin/bash
#export X509_USER_PROXY=/afs/cern.ch/user/m/mwadud/x509up_u91892

runcardtemplate=NTGC_LO_jjg.dat

nretry=10

globalTag=94X_mc2017_realistic_v12
jobdir=/afs/cern.ch/work/m/mwadud/private/naTGC/CMSSW_9_4_0_patch1/src/GeneratorInterface/SherpaInterface/crab_job/jobs/jjg/
sherpaDir=/afs/cern.ch/work/m/mwadud/private/naTGC/CMSSW_9_4_0_patch1/src/GeneratorInterface/SherpaInterface/
cmsswDir=/afs/cern.ch/work/m/mwadud/private/naTGC/CMSSW_9_4_0_patch1/src/Configuration/Generator/python/
workdir=/afs/cern.ch/work/m/mwadud/private/naTGC/CMSSW_9_4_0_patch1/src/GeneratorInterface/SherpaInterface/crab_job/jobs/jjg//h3z0p0029_ptmin200_ptmax300/
submitdir=/afs/cern.ch/work/m/mwadud/private/naTGC/CMSSW_9_4_0_patch1/src/GeneratorInterface/SherpaInterface/crab_job/


pileupdataset=dbs:/Neutrino_E-10_gun/RunIISummer17PrePremix-MCv2_correctPU_94X_mc2017_realistic_v9-v1/GEN-SIM-DIGI-RAW

nevents=10000

float_scale=4
function float_eval()
{
    local stat=0
    local result=0.0
    if [[ $# -gt 0 ]]; then
        result=$(echo "scale=$float_scale; $*" | bc -q 2>/dev/null)
        stat=$?
        if [[ $stat -eq 0  &&  -z "$result" ]]; then stat=1; fi
    fi
    echo $result
    return $stat
}

h3z=0.0029
ptmin=200
ptmax=300



echo "h3Z is "${h3z}
	
Mz=91.18
v=246.0
cw=0.877
sw=0.481

num=$(float_eval "(4.0*1000.0*1000.0*1000.0*1000.0*${cw}*${sw}*${h3z})")
deno=$(float_eval "(${v}*${v}*${Mz}*${Mz})")
cbtw=$(float_eval "(4.0*1000*1000*1000*1000*${cw}*${sw}*${h3z})/(${v}*${v}*${Mz}*${Mz})")


(... more ...)
------------------------------------------------------------

TERM_OWNER: job killed by owner.
Exited with exit code 143.

Resource usage summary:

    CPU time :                                   1589.00 sec.
    Max Memory :                                 75.23 MB
    Average Memory :                             70.28 MB
    Total Requested Memory :                     -
    Delta Memory :                               -
    Max Swap :                                   1148 MB
    Max Processes :                              10
    Max Threads :                                17
    Run time :                                   1846 sec.
    Turnaround time :                            1884 sec.

The output (if any) follows:


---
It was not possible to return the standard output of your job <*ptmax300>,
id <205013441>, as expected. The file was returned to
</afs/cern.ch/work/m/mwadud/private/naTGC/CMSSW_9_4_0_patch1/src/GeneratorInterface/SherpaInterface/crab_job/LSFJOB_205013441/STDOUT>
